%!PS-Adobe-3.0 EPSF-3.0
%%Title: cost_function_convergence_segmentation.eps
%%Creator: matplotlib version 3.0.3, http://matplotlib.org/
%%CreationDate: Mon May 13 14:10:55 2019
%%Orientation: portrait
%%BoundingBox: 75 223 536 568
%%EndComments
%%BeginProlog
/mpldict 8 dict def
mpldict begin
/m { moveto } bind def
/l { lineto } bind def
/r { rlineto } bind def
/c { curveto } bind def
/cl { closepath } bind def
/box {
m
1 index 0 r
0 exch r
neg 0 r
cl
} bind def
/clipbox {
box
clip
newpath
} bind def
%!PS-Adobe-3.0 Resource-Font
%%Title: DejaVu Sans
%%Copyright: Copyright (c) 2003 by Bitstream, Inc. All Rights Reserved. Copyright (c) 2006 by Tavmjong Bah. All Rights Reserved. DejaVu changes are in public domain 
%%Creator: Converted from TrueType to type 3 by PPR
25 dict begin
/_d{bind def}bind def
/_m{moveto}_d
/_l{lineto}_d
/_cl{closepath eofill}_d
/_c{curveto}_d
/_sc{7 -1 roll{setcachedevice}{pop pop pop pop pop pop}ifelse}_d
/_e{exec}_d
/FontName /DejaVuSans def
/PaintType 0 def
/FontMatrix[.001 0 0 .001 0 0]def
/FontBBox[-1021 -463 1793 1232]def
/FontType 3 def
/Encoding [ /space /parenleft /parenright /period /zero /one /two /three /four /five /six /eight /C /E /F /S /a /c /e /g /h /i /m /n /o /p /r /s /t /u /v ] def
/FontInfo 10 dict dup begin
/FamilyName (DejaVu Sans) def
/FullName (DejaVu Sans) def
/Notice (Copyright (c) 2003 by Bitstream, Inc. All Rights Reserved. Copyright (c) 2006 by Tavmjong Bah. All Rights Reserved. DejaVu changes are in public domain ) def
/Weight (Book) def
/Version (Version 2.35) def
/ItalicAngle 0.0 def
/isFixedPitch false def
/UnderlinePosition -130 def
/UnderlineThickness 90 def
end readonly def
/CharStrings 32 dict dup begin
/.notdef 0 def
/space{318 0 0 0 0 0 _sc
}_d
/parenleft{390 0 86 -131 310 759 _sc
310 759 _m
266 683 234 609 213 536 _c
191 463 181 389 181 314 _c
181 238 191 164 213 91 _c
234 17 266 -56 310 -131 _c
232 -131 _l
183 -54 146 20 122 94 _c
98 168 86 241 86 314 _c
86 386 98 459 122 533 _c
146 607 182 682 232 759 _c
310 759 _l
_cl}_d
/parenright{390 0 80 -131 304 759 _sc
80 759 _m
158 759 _l
206 682 243 607 267 533 _c
291 459 304 386 304 314 _c
304 241 291 168 267 94 _c
243 20 206 -54 158 -131 _c
80 -131 _l
123 -56 155 17 177 91 _c
198 164 209 238 209 314 _c
209 389 198 463 177 536 _c
155 609 123 683 80 759 _c
_cl}_d
/period{318 0 107 0 210 124 _sc
107 124 _m
210 124 _l
210 0 _l
107 0 _l
107 124 _l
_cl}_d
/zero{636 0 66 -13 570 742 _sc
318 664 _m
267 664 229 639 203 589 _c
177 539 165 464 165 364 _c
165 264 177 189 203 139 _c
229 89 267 64 318 64 _c
369 64 407 89 433 139 _c
458 189 471 264 471 364 _c
471 464 458 539 433 589 _c
407 639 369 664 318 664 _c
318 742 _m
399 742 461 709 505 645 _c
548 580 570 486 570 364 _c
570 241 548 147 505 83 _c
461 19 399 -13 318 -13 _c
236 -13 173 19 130 83 _c
87 147 66 241 66 364 _c
66 486 87 580 130 645 _c
173 709 236 742 318 742 _c
_cl}_d
/one{636 0 110 0 544 729 _sc
124 83 _m
285 83 _l
285 639 _l
110 604 _l
110 694 _l
284 729 _l
383 729 _l
383 83 _l
544 83 _l
544 0 _l
124 0 _l
124 83 _l
_cl}_d
/two{{636 0 73 0 536 742 _sc
192 83 _m
536 83 _l
536 0 _l
73 0 _l
73 83 _l
110 121 161 173 226 239 _c
290 304 331 346 348 365 _c
380 400 402 430 414 455 _c
426 479 433 504 433 528 _c
433 566 419 598 392 622 _c
365 646 330 659 286 659 _c
255 659 222 653 188 643 _c
154 632 117 616 78 594 _c
78 694 _l
118 710 155 722 189 730 _c
223 738 255 742 284 742 _c
}_e{359 742 419 723 464 685 _c
509 647 532 597 532 534 _c
532 504 526 475 515 449 _c
504 422 484 390 454 354 _c
446 344 420 317 376 272 _c
332 227 271 164 192 83 _c
_cl}_e}_d
/three{{636 0 76 -13 556 742 _sc
406 393 _m
453 383 490 362 516 330 _c
542 298 556 258 556 212 _c
556 140 531 84 482 45 _c
432 6 362 -13 271 -13 _c
240 -13 208 -10 176 -4 _c
144 1 110 10 76 22 _c
76 117 _l
103 101 133 89 166 81 _c
198 73 232 69 268 69 _c
330 69 377 81 409 105 _c
441 129 458 165 458 212 _c
458 254 443 288 413 312 _c
383 336 341 349 287 349 _c
}_e{202 349 _l
202 430 _l
291 430 _l
339 430 376 439 402 459 _c
428 478 441 506 441 543 _c
441 580 427 609 401 629 _c
374 649 336 659 287 659 _c
260 659 231 656 200 650 _c
169 644 135 635 98 623 _c
98 711 _l
135 721 170 729 203 734 _c
235 739 266 742 296 742 _c
370 742 429 725 473 691 _c
517 657 539 611 539 553 _c
539 513 527 479 504 451 _c
481 423 448 403 406 393 _c
_cl}_e}_d
/four{636 0 49 0 580 729 _sc
378 643 _m
129 254 _l
378 254 _l
378 643 _l
352 729 _m
476 729 _l
476 254 _l
580 254 _l
580 172 _l
476 172 _l
476 0 _l
378 0 _l
378 172 _l
49 172 _l
49 267 _l
352 729 _l
_cl}_d
/five{{636 0 77 -13 549 729 _sc
108 729 _m
495 729 _l
495 646 _l
198 646 _l
198 467 _l
212 472 227 476 241 478 _c
255 480 270 482 284 482 _c
365 482 429 459 477 415 _c
525 370 549 310 549 234 _c
549 155 524 94 475 51 _c
426 8 357 -13 269 -13 _c
238 -13 207 -10 175 -6 _c
143 -1 111 6 77 17 _c
77 116 _l
106 100 136 88 168 80 _c
199 72 232 69 267 69 _c
}_e{323 69 368 83 401 113 _c
433 143 450 183 450 234 _c
450 284 433 324 401 354 _c
368 384 323 399 267 399 _c
241 399 214 396 188 390 _c
162 384 135 375 108 363 _c
108 729 _l
_cl}_e}_d
/six{{636 0 70 -13 573 742 _sc
330 404 _m
286 404 251 388 225 358 _c
199 328 186 286 186 234 _c
186 181 199 139 225 109 _c
251 79 286 64 330 64 _c
374 64 409 79 435 109 _c
461 139 474 181 474 234 _c
474 286 461 328 435 358 _c
409 388 374 404 330 404 _c
526 713 _m
526 623 _l
501 635 476 644 451 650 _c
425 656 400 659 376 659 _c
310 659 260 637 226 593 _c
}_e{192 549 172 482 168 394 _c
187 422 211 444 240 459 _c
269 474 301 482 336 482 _c
409 482 467 459 509 415 _c
551 371 573 310 573 234 _c
573 159 550 99 506 54 _c
462 9 403 -13 330 -13 _c
246 -13 181 19 137 83 _c
92 147 70 241 70 364 _c
70 479 97 571 152 639 _c
206 707 280 742 372 742 _c
396 742 421 739 447 735 _c
472 730 498 723 526 713 _c
_cl}_e}_d
/eight{{636 0 68 -13 568 742 _sc
318 346 _m
271 346 234 333 207 308 _c
180 283 167 249 167 205 _c
167 161 180 126 207 101 _c
234 76 271 64 318 64 _c
364 64 401 76 428 102 _c
455 127 469 161 469 205 _c
469 249 455 283 429 308 _c
402 333 365 346 318 346 _c
219 388 _m
177 398 144 418 120 447 _c
96 476 85 511 85 553 _c
85 611 105 657 147 691 _c
188 725 245 742 318 742 _c
}_e{390 742 447 725 489 691 _c
530 657 551 611 551 553 _c
551 511 539 476 515 447 _c
491 418 459 398 417 388 _c
464 377 501 355 528 323 _c
554 291 568 251 568 205 _c
568 134 546 80 503 43 _c
459 5 398 -13 318 -13 _c
237 -13 175 5 132 43 _c
89 80 68 134 68 205 _c
68 251 81 291 108 323 _c
134 355 171 377 219 388 _c
183 544 _m
183 506 194 476 218 455 _c
}_e{242 434 275 424 318 424 _c
360 424 393 434 417 455 _c
441 476 453 506 453 544 _c
453 582 441 611 417 632 _c
393 653 360 664 318 664 _c
275 664 242 653 218 632 _c
194 611 183 582 183 544 _c
_cl}_e}_d
/C{{698 0 56 -13 644 742 _sc
644 673 _m
644 569 _l
610 599 575 622 537 638 _c
499 653 460 661 418 661 _c
334 661 270 635 226 584 _c
182 533 160 460 160 364 _c
160 268 182 194 226 143 _c
270 92 334 67 418 67 _c
460 67 499 74 537 90 _c
575 105 610 128 644 159 _c
644 56 _l
609 32 572 15 534 4 _c
496 -7 455 -13 412 -13 _c
302 -13 215 20 151 87 _c
}_e{87 154 56 246 56 364 _c
56 481 87 573 151 641 _c
215 708 302 742 412 742 _c
456 742 497 736 535 725 _c
573 713 610 696 644 673 _c
_cl}_e}_d
/E{632 0 98 0 568 729 _sc
98 729 _m
559 729 _l
559 646 _l
197 646 _l
197 430 _l
544 430 _l
544 347 _l
197 347 _l
197 83 _l
568 83 _l
568 0 _l
98 0 _l
98 729 _l
_cl}_d
/F{575 0 98 0 517 729 _sc
98 729 _m
517 729 _l
517 646 _l
197 646 _l
197 431 _l
486 431 _l
486 348 _l
197 348 _l
197 0 _l
98 0 _l
98 729 _l
_cl}_d
/S{{635 0 66 -13 579 742 _sc
535 705 _m
535 609 _l
497 627 462 640 429 649 _c
395 657 363 662 333 662 _c
279 662 237 651 208 631 _c
179 610 165 580 165 542 _c
165 510 174 485 194 469 _c
213 452 250 439 304 429 _c
364 417 _l
437 403 491 378 526 343 _c
561 307 579 260 579 201 _c
579 130 555 77 508 41 _c
460 5 391 -13 300 -13 _c
265 -13 228 -9 189 -2 _c
}_e{150 5 110 16 69 32 _c
69 134 _l
109 111 148 94 186 83 _c
224 71 262 66 300 66 _c
356 66 399 77 430 99 _c
460 121 476 152 476 194 _c
476 230 465 258 443 278 _c
421 298 385 313 335 323 _c
275 335 _l
201 349 148 372 115 404 _c
82 435 66 478 66 534 _c
66 598 88 649 134 686 _c
179 723 242 742 322 742 _c
356 742 390 739 426 733 _c
461 727 497 717 535 705 _c
}_e{_cl}_e}_d
/a{{613 0 60 -13 522 560 _sc
343 275 _m
270 275 220 266 192 250 _c
164 233 150 205 150 165 _c
150 133 160 107 181 89 _c
202 70 231 61 267 61 _c
317 61 357 78 387 114 _c
417 149 432 196 432 255 _c
432 275 _l
343 275 _l
522 312 _m
522 0 _l
432 0 _l
432 83 _l
411 49 385 25 355 10 _c
325 -5 287 -13 243 -13 _c
187 -13 142 2 109 33 _c
76 64 60 106 60 159 _c
}_e{60 220 80 266 122 298 _c
163 329 224 345 306 345 _c
432 345 _l
432 354 _l
432 395 418 427 391 450 _c
364 472 326 484 277 484 _c
245 484 215 480 185 472 _c
155 464 127 453 100 439 _c
100 522 _l
132 534 164 544 195 550 _c
226 556 256 560 286 560 _c
365 560 424 539 463 498 _c
502 457 522 395 522 312 _c
_cl}_e}_d
/c{{550 0 55 -13 488 560 _sc
488 526 _m
488 442 _l
462 456 437 466 411 473 _c
385 480 360 484 334 484 _c
276 484 230 465 198 428 _c
166 391 150 339 150 273 _c
150 206 166 154 198 117 _c
230 80 276 62 334 62 _c
360 62 385 65 411 72 _c
437 79 462 90 488 104 _c
488 21 _l
462 9 436 0 410 -5 _c
383 -10 354 -13 324 -13 _c
242 -13 176 12 128 64 _c
}_e{79 115 55 185 55 273 _c
55 362 79 432 128 483 _c
177 534 244 560 330 560 _c
358 560 385 557 411 551 _c
437 545 463 537 488 526 _c
_cl}_e}_d
/e{{615 0 55 -13 562 560 _sc
562 296 _m
562 252 _l
149 252 _l
153 190 171 142 205 110 _c
238 78 284 62 344 62 _c
378 62 412 66 444 74 _c
476 82 509 95 541 113 _c
541 28 _l
509 14 476 3 442 -3 _c
408 -9 373 -13 339 -13 _c
251 -13 182 12 131 62 _c
80 112 55 181 55 268 _c
55 357 79 428 127 481 _c
175 533 241 560 323 560 _c
397 560 455 536 498 489 _c
}_e{540 441 562 377 562 296 _c
472 322 _m
471 371 457 410 431 440 _c
404 469 368 484 324 484 _c
274 484 234 469 204 441 _c
174 413 156 373 152 322 _c
472 322 _l
_cl}_e}_d
/g{{635 0 55 -207 544 560 _sc
454 280 _m
454 344 440 395 414 431 _c
387 467 349 485 301 485 _c
253 485 215 467 188 431 _c
161 395 148 344 148 280 _c
148 215 161 165 188 129 _c
215 93 253 75 301 75 _c
349 75 387 93 414 129 _c
440 165 454 215 454 280 _c
544 68 _m
544 -24 523 -93 482 -139 _c
440 -184 377 -207 292 -207 _c
260 -207 231 -204 203 -200 _c
175 -195 147 -188 121 -178 _c
}_e{121 -91 _l
147 -105 173 -115 199 -122 _c
225 -129 251 -133 278 -133 _c
336 -133 380 -117 410 -87 _c
439 -56 454 -10 454 52 _c
454 96 _l
435 64 411 40 382 24 _c
353 8 319 0 279 0 _c
211 0 157 25 116 76 _c
75 127 55 195 55 280 _c
55 364 75 432 116 483 _c
157 534 211 560 279 560 _c
319 560 353 552 382 536 _c
411 520 435 496 454 464 _c
454 547 _l
544 547 _l
}_e{544 68 _l
_cl}_e}_d
/h{634 0 91 0 549 760 _sc
549 330 _m
549 0 _l
459 0 _l
459 327 _l
459 379 448 417 428 443 _c
408 469 378 482 338 482 _c
289 482 251 466 223 435 _c
195 404 181 362 181 309 _c
181 0 _l
91 0 _l
91 760 _l
181 760 _l
181 462 _l
202 494 227 519 257 535 _c
286 551 320 560 358 560 _c
420 560 468 540 500 501 _c
532 462 549 405 549 330 _c
_cl}_d
/i{278 0 94 0 184 760 _sc
94 547 _m
184 547 _l
184 0 _l
94 0 _l
94 547 _l
94 760 _m
184 760 _l
184 646 _l
94 646 _l
94 760 _l
_cl}_d
/m{{974 0 91 0 889 560 _sc
520 442 _m
542 482 569 511 600 531 _c
631 550 668 560 711 560 _c
767 560 811 540 842 500 _c
873 460 889 403 889 330 _c
889 0 _l
799 0 _l
799 327 _l
799 379 789 418 771 444 _c
752 469 724 482 686 482 _c
639 482 602 466 575 435 _c
548 404 535 362 535 309 _c
535 0 _l
445 0 _l
445 327 _l
445 379 435 418 417 444 _c
398 469 369 482 331 482 _c
}_e{285 482 248 466 221 435 _c
194 404 181 362 181 309 _c
181 0 _l
91 0 _l
91 547 _l
181 547 _l
181 462 _l
201 495 226 520 255 536 _c
283 552 317 560 357 560 _c
397 560 430 550 458 530 _c
486 510 506 480 520 442 _c
_cl}_e}_d
/n{634 0 91 0 549 560 _sc
549 330 _m
549 0 _l
459 0 _l
459 327 _l
459 379 448 417 428 443 _c
408 469 378 482 338 482 _c
289 482 251 466 223 435 _c
195 404 181 362 181 309 _c
181 0 _l
91 0 _l
91 547 _l
181 547 _l
181 462 _l
202 494 227 519 257 535 _c
286 551 320 560 358 560 _c
420 560 468 540 500 501 _c
532 462 549 405 549 330 _c
_cl}_d
/o{612 0 55 -13 557 560 _sc
306 484 _m
258 484 220 465 192 427 _c
164 389 150 338 150 273 _c
150 207 163 156 191 118 _c
219 80 257 62 306 62 _c
354 62 392 80 420 118 _c
448 156 462 207 462 273 _c
462 337 448 389 420 427 _c
392 465 354 484 306 484 _c
306 560 _m
384 560 445 534 490 484 _c
534 433 557 363 557 273 _c
557 183 534 113 490 63 _c
445 12 384 -13 306 -13 _c
227 -13 165 12 121 63 _c
77 113 55 183 55 273 _c
55 363 77 433 121 484 _c
165 534 227 560 306 560 _c
_cl}_d
/p{{635 0 91 -207 580 560 _sc
181 82 _m
181 -207 _l
91 -207 _l
91 547 _l
181 547 _l
181 464 _l
199 496 223 520 252 536 _c
281 552 316 560 356 560 _c
422 560 476 533 518 481 _c
559 428 580 359 580 273 _c
580 187 559 117 518 65 _c
476 13 422 -13 356 -13 _c
316 -13 281 -5 252 10 _c
223 25 199 49 181 82 _c
487 273 _m
487 339 473 390 446 428 _c
418 466 381 485 334 485 _c
}_e{286 485 249 466 222 428 _c
194 390 181 339 181 273 _c
181 207 194 155 222 117 _c
249 79 286 61 334 61 _c
381 61 418 79 446 117 _c
473 155 487 207 487 273 _c
_cl}_e}_d
/r{411 0 91 0 411 560 _sc
411 463 _m
401 469 390 473 378 476 _c
366 478 353 480 339 480 _c
288 480 249 463 222 430 _c
194 397 181 350 181 288 _c
181 0 _l
91 0 _l
91 547 _l
181 547 _l
181 462 _l
199 495 224 520 254 536 _c
284 552 321 560 365 560 _c
371 560 378 559 386 559 _c
393 558 401 557 411 555 _c
411 463 _l
_cl}_d
/s{{521 0 54 -13 472 560 _sc
443 531 _m
443 446 _l
417 458 391 468 364 475 _c
336 481 308 485 279 485 _c
234 485 200 478 178 464 _c
156 450 145 430 145 403 _c
145 382 153 366 169 354 _c
185 342 217 330 265 320 _c
296 313 _l
360 299 405 279 432 255 _c
458 230 472 195 472 151 _c
472 100 452 60 412 31 _c
372 1 316 -13 246 -13 _c
216 -13 186 -10 154 -5 _c
}_e{122 0 89 8 54 20 _c
54 113 _l
87 95 120 82 152 74 _c
184 65 216 61 248 61 _c
290 61 323 68 346 82 _c
368 96 380 117 380 144 _c
380 168 371 187 355 200 _c
339 213 303 226 247 238 _c
216 245 _l
160 257 119 275 95 299 _c
70 323 58 356 58 399 _c
58 450 76 490 112 518 _c
148 546 200 560 268 560 _c
301 560 332 557 362 552 _c
391 547 418 540 443 531 _c
}_e{_cl}_e}_d
/t{392 0 27 0 368 702 _sc
183 702 _m
183 547 _l
368 547 _l
368 477 _l
183 477 _l
183 180 _l
183 135 189 106 201 94 _c
213 81 238 75 276 75 _c
368 75 _l
368 0 _l
276 0 _l
206 0 158 13 132 39 _c
106 65 93 112 93 180 _c
93 477 _l
27 477 _l
27 547 _l
93 547 _l
93 702 _l
183 702 _l
_cl}_d
/u{634 0 85 -13 543 560 _sc
85 216 _m
85 547 _l
175 547 _l
175 219 _l
175 167 185 129 205 103 _c
225 77 255 64 296 64 _c
344 64 383 79 411 110 _c
439 141 453 183 453 237 _c
453 547 _l
543 547 _l
543 0 _l
453 0 _l
453 84 _l
431 50 405 26 377 10 _c
348 -5 315 -13 277 -13 _c
214 -13 166 6 134 45 _c
101 83 85 140 85 216 _c
311 560 _m
311 560 _l
_cl}_d
/v{592 0 30 0 562 547 _sc
30 547 _m
125 547 _l
296 88 _l
467 547 _l
562 547 _l
357 0 _l
235 0 _l
30 547 _l
_cl}_d
end readonly def

/BuildGlyph
 {exch begin
 CharStrings exch
 2 copy known not{pop /.notdef}if
 true 3 1 roll get exec
 end}_d

/BuildChar {
 1 index /Encoding get exch get
 1 index /BuildGlyph get exec
}_d

FontName currentdict end definefont pop
end
%%EndProlog
mpldict begin
75.6 223.2 translate
460.8 345.6 0 0 clipbox
gsave
0 0 m
460.8 0 l
460.8 345.6 l
0 345.6 l
cl
1.000 setgray
fill
grestore
gsave
57.6 38.016 m
414.72 38.016 l
414.72 304.128 l
57.6 304.128 l
cl
1.000 setgray
fill
grestore
0.800 setlinewidth
1 setlinejoin
2 setlinecap
[] 0 setdash
0.690 setgray
gsave
357.1 266.1 57.6 38.02 clipbox
73.832727 38.016 m
73.832727 304.128 l
stroke
grestore
0 setlinecap
0.000 setgray
gsave
/o {
gsave
newpath
translate
0.8 setlinewidth
1 setlinejoin
0 setlinecap
0 0 m
0 -3.5 l

gsave
0.000 setgray
fill
grestore
stroke
grestore
} bind def
73.8327 38.016 o
grestore
/DejaVuSans findfont
10.000 scalefont
setfont
gsave
70.653040 23.422250 translate
0.000000 rotate
0.000000 0.000000 m /zero glyphshow
grestore
2 setlinecap
0.690 setgray
gsave
357.1 266.1 57.6 38.02 clipbox
138.828632 38.016 m
138.828632 304.128 l
stroke
grestore
0 setlinecap
0.000 setgray
gsave
/o {
gsave
newpath
translate
0.8 setlinewidth
1 setlinejoin
0 setlinecap
0 0 m
0 -3.5 l

gsave
0.000 setgray
fill
grestore
stroke
grestore
} bind def
138.829 38.016 o
grestore
gsave
129.289570 23.422250 translate
0.000000 rotate
0.000000 0.000000 m /two glyphshow
6.362305 0.000000 m /zero glyphshow
12.724609 0.000000 m /zero glyphshow
grestore
2 setlinecap
0.690 setgray
gsave
357.1 266.1 57.6 38.02 clipbox
203.824537 38.016 m
203.824537 304.128 l
stroke
grestore
0 setlinecap
0.000 setgray
gsave
/o {
gsave
newpath
translate
0.8 setlinewidth
1 setlinejoin
0 setlinecap
0 0 m
0 -3.5 l

gsave
0.000 setgray
fill
grestore
stroke
grestore
} bind def
203.825 38.016 o
grestore
gsave
194.285475 23.422250 translate
0.000000 rotate
0.000000 0.000000 m /four glyphshow
6.362305 0.000000 m /zero glyphshow
12.724609 0.000000 m /zero glyphshow
grestore
2 setlinecap
0.690 setgray
gsave
357.1 266.1 57.6 38.02 clipbox
268.820442 38.016 m
268.820442 304.128 l
stroke
grestore
0 setlinecap
0.000 setgray
gsave
/o {
gsave
newpath
translate
0.8 setlinewidth
1 setlinejoin
0 setlinecap
0 0 m
0 -3.5 l

gsave
0.000 setgray
fill
grestore
stroke
grestore
} bind def
268.82 38.016 o
grestore
gsave
259.281380 23.422250 translate
0.000000 rotate
0.000000 0.000000 m /six glyphshow
6.362305 0.000000 m /zero glyphshow
12.724609 0.000000 m /zero glyphshow
grestore
2 setlinecap
0.690 setgray
gsave
357.1 266.1 57.6 38.02 clipbox
333.816347 38.016 m
333.816347 304.128 l
stroke
grestore
0 setlinecap
0.000 setgray
gsave
/o {
gsave
newpath
translate
0.8 setlinewidth
1 setlinejoin
0 setlinecap
0 0 m
0 -3.5 l

gsave
0.000 setgray
fill
grestore
stroke
grestore
} bind def
333.816 38.016 o
grestore
gsave
324.277285 23.422250 translate
0.000000 rotate
0.000000 0.000000 m /eight glyphshow
6.362305 0.000000 m /zero glyphshow
12.724609 0.000000 m /zero glyphshow
grestore
2 setlinecap
0.690 setgray
gsave
357.1 266.1 57.6 38.02 clipbox
398.812252 38.016 m
398.812252 304.128 l
stroke
grestore
0 setlinecap
0.000 setgray
gsave
/o {
gsave
newpath
translate
0.8 setlinewidth
1 setlinejoin
0 setlinecap
0 0 m
0 -3.5 l

gsave
0.000 setgray
fill
grestore
stroke
grestore
} bind def
398.812 38.016 o
grestore
gsave
386.093502 23.422250 translate
0.000000 rotate
0.000000 0.000000 m /one glyphshow
6.362305 0.000000 m /zero glyphshow
12.724609 0.000000 m /zero glyphshow
19.086914 0.000000 m /zero glyphshow
grestore
gsave
220.847500 9.750375 translate
0.000000 rotate
0.000000 0.000000 m /E glyphshow
6.318359 0.000000 m /p glyphshow
12.666016 0.000000 m /o glyphshow
18.784180 0.000000 m /c glyphshow
24.282227 0.000000 m /h glyphshow
grestore
2 setlinecap
0.690 setgray
gsave
357.1 266.1 57.6 38.02 clipbox
57.6 49.785533 m
414.72 49.785533 l
stroke
grestore
0 setlinecap
0.000 setgray
gsave
/o {
gsave
newpath
translate
0.8 setlinewidth
1 setlinejoin
0 setlinecap
0 0 m
-3.5 0 l

gsave
0.000 setgray
fill
grestore
stroke
grestore
} bind def
57.6 49.7855 o
grestore
gsave
34.693750 45.988658 translate
0.000000 rotate
0.000000 0.000000 m /zero glyphshow
6.362305 0.000000 m /period glyphshow
9.541016 0.000000 m /zero glyphshow
grestore
2 setlinecap
0.690 setgray
gsave
357.1 266.1 57.6 38.02 clipbox
57.6 83.503981 m
414.72 83.503981 l
stroke
grestore
0 setlinecap
0.000 setgray
gsave
/o {
gsave
newpath
translate
0.8 setlinewidth
1 setlinejoin
0 setlinecap
0 0 m
-3.5 0 l

gsave
0.000 setgray
fill
grestore
stroke
grestore
} bind def
57.6 83.504 o
grestore
gsave
34.693750 79.707106 translate
0.000000 rotate
0.000000 0.000000 m /zero glyphshow
6.362305 0.000000 m /period glyphshow
9.541016 0.000000 m /five glyphshow
grestore
2 setlinecap
0.690 setgray
gsave
357.1 266.1 57.6 38.02 clipbox
57.6 117.222428 m
414.72 117.222428 l
stroke
grestore
0 setlinecap
0.000 setgray
gsave
/o {
gsave
newpath
translate
0.8 setlinewidth
1 setlinejoin
0 setlinecap
0 0 m
-3.5 0 l

gsave
0.000 setgray
fill
grestore
stroke
grestore
} bind def
57.6 117.222 o
grestore
gsave
34.693750 113.425553 translate
0.000000 rotate
0.000000 0.000000 m /one glyphshow
6.362305 0.000000 m /period glyphshow
9.541016 0.000000 m /zero glyphshow
grestore
2 setlinecap
0.690 setgray
gsave
357.1 266.1 57.6 38.02 clipbox
57.6 150.940876 m
414.72 150.940876 l
stroke
grestore
0 setlinecap
0.000 setgray
gsave
/o {
gsave
newpath
translate
0.8 setlinewidth
1 setlinejoin
0 setlinecap
0 0 m
-3.5 0 l

gsave
0.000 setgray
fill
grestore
stroke
grestore
} bind def
57.6 150.941 o
grestore
gsave
34.693750 147.144001 translate
0.000000 rotate
0.000000 0.000000 m /one glyphshow
6.362305 0.000000 m /period glyphshow
9.541016 0.000000 m /five glyphshow
grestore
2 setlinecap
0.690 setgray
gsave
357.1 266.1 57.6 38.02 clipbox
57.6 184.659324 m
414.72 184.659324 l
stroke
grestore
0 setlinecap
0.000 setgray
gsave
/o {
gsave
newpath
translate
0.8 setlinewidth
1 setlinejoin
0 setlinecap
0 0 m
-3.5 0 l

gsave
0.000 setgray
fill
grestore
stroke
grestore
} bind def
57.6 184.659 o
grestore
gsave
34.693750 180.862449 translate
0.000000 rotate
0.000000 0.000000 m /two glyphshow
6.362305 0.000000 m /period glyphshow
9.541016 0.000000 m /zero glyphshow
grestore
2 setlinecap
0.690 setgray
gsave
357.1 266.1 57.6 38.02 clipbox
57.6 218.377771 m
414.72 218.377771 l
stroke
grestore
0 setlinecap
0.000 setgray
gsave
/o {
gsave
newpath
translate
0.8 setlinewidth
1 setlinejoin
0 setlinecap
0 0 m
-3.5 0 l

gsave
0.000 setgray
fill
grestore
stroke
grestore
} bind def
57.6 218.378 o
grestore
gsave
34.693750 214.580896 translate
0.000000 rotate
0.000000 0.000000 m /two glyphshow
6.362305 0.000000 m /period glyphshow
9.541016 0.000000 m /five glyphshow
grestore
2 setlinecap
0.690 setgray
gsave
357.1 266.1 57.6 38.02 clipbox
57.6 252.096219 m
414.72 252.096219 l
stroke
grestore
0 setlinecap
0.000 setgray
gsave
/o {
gsave
newpath
translate
0.8 setlinewidth
1 setlinejoin
0 setlinecap
0 0 m
-3.5 0 l

gsave
0.000 setgray
fill
grestore
stroke
grestore
} bind def
57.6 252.096 o
grestore
gsave
34.693750 248.299344 translate
0.000000 rotate
0.000000 0.000000 m /three glyphshow
6.362305 0.000000 m /period glyphshow
9.541016 0.000000 m /zero glyphshow
grestore
2 setlinecap
0.690 setgray
gsave
357.1 266.1 57.6 38.02 clipbox
57.6 285.814666 m
414.72 285.814666 l
stroke
grestore
0 setlinecap
0.000 setgray
gsave
/o {
gsave
newpath
translate
0.8 setlinewidth
1 setlinejoin
0 setlinecap
0 0 m
-3.5 0 l

gsave
0.000 setgray
fill
grestore
stroke
grestore
} bind def
57.6 285.815 o
grestore
gsave
34.693750 282.017791 translate
0.000000 rotate
0.000000 0.000000 m /three glyphshow
6.362305 0.000000 m /period glyphshow
9.541016 0.000000 m /five glyphshow
grestore
gsave
28.615625 159.947000 translate
90.000000 rotate
0.000000 0.000000 m /C glyphshow
6.982422 0.000000 m /o glyphshow
13.100586 0.000000 m /s glyphshow
18.310547 0.000000 m /t glyphshow
grestore
1.500 setlinewidth
2 setlinecap
0.122 0.467 0.706 setrgbcolor
gsave
357.1 266.1 57.6 38.02 clipbox
73.832727 191.00202 m
74.482686 292.032 l
74.807666 137.688532 l
75.132645 133.735263 l
76.107584 129.823616 l
77.407502 124.733355 l
78.70742 118.837978 l
79.682359 113.66124 l
80.332318 110.666444 l
80.982277 107.530445 l
81.957215 103.365001 l
84.232072 95.03943 l
84.557052 94.230309 l
85.207011 92.311034 l
85.53199 91.707274 l
86.181949 89.682751 l
86.831908 88.312744 l
87.156888 87.881879 l
87.806847 85.918661 l
88.456806 85.358361 l
88.781785 84.426707 l
91.056642 80.695121 l
91.381622 79.537031 l
92.031581 79.390717 l
92.35656 79.077166 l
92.68154 79.354951 l
93.006519 77.681103 l
93.331499 77.771118 l
93.656478 76.871738 l
94.306437 77.265461 l
94.631417 76.199669 l
94.956396 76.26385 l
95.281376 75.159619 l
95.931335 75.141865 l
96.256314 74.956238 l
96.581294 74.078502 l
97.881212 72.552027 l
98.206192 73.190519 l
98.531171 71.788421 l
98.856151 71.962444 l
99.18113 71.373205 l
99.50611 71.947736 l
99.831089 71.281968 l
100.156069 71.156095 l
100.806028 70.325766 l
101.455987 70.292341 l
101.780966 70.520142 l
102.105946 69.490415 l
102.430925 69.560497 l
102.755905 68.696095 l
103.405864 68.909328 l
103.730844 68.303112 l
104.055823 68.46323 l
104.380803 67.921347 l
104.705782 67.713471 l
105.030762 67.921478 l
105.355741 67.935161 l
105.680721 67.630979 l
106.0057 66.927296 l
106.655659 67.365895 l
107.305618 66.364645 l
107.630598 66.660797 l
108.280557 66.039432 l
108.605536 65.879586 l
108.930516 66.714525 l
109.255495 65.664602 l
109.580475 65.96859 l
109.905455 65.283342 l
110.230434 65.769549 l
110.555414 64.954831 l
110.880393 65.096544 l
111.205373 65.09796 l
111.530352 64.732283 l
111.855332 65.074917 l
112.180311 64.753792 l
112.83027 64.815416 l
113.15525 64.0483 l
113.480229 64.531534 l
113.805209 63.722619 l
114.130188 64.418964 l
114.780147 64.111797 l
115.105127 63.697831 l
115.430106 63.785415 l
115.755086 63.545978 l
116.080066 63.86936 l
116.405045 63.388291 l
116.730025 64.013978 l
117.055004 63.09799 l
117.379984 62.928915 l
117.704963 62.914454 l
118.029943 63.076012 l
118.354922 62.985474 l
118.679902 63.130988 l
119.004881 62.679856 l
119.329861 62.825902 l
119.65484 63.670184 l
119.97982 62.64258 l
120.304799 62.653712 l
120.629779 61.921695 l
120.954758 62.288599 l
121.279738 61.994737 l
121.929697 62.793454 l
122.579656 62.101453 l
122.904636 62.440194 l
123.229615 61.841312 l
123.554595 62.003443 l
123.879574 62.661179 l
124.204554 62.22893 l
124.529533 61.245384 l
124.854513 62.113139 l
125.179492 62.13513 l
125.504472 61.523826 l
125.829451 61.833709 l
126.47941 60.827695 l
126.80439 61.428889 l
127.129369 61.54462 l
127.454349 61.20343 l
127.779328 60.328087 l
128.429287 61.292092 l
128.754267 60.691085 l
129.079247 60.966816 l
129.729206 60.389259 l
130.054185 60.858372 l
130.379165 60.888113 l
130.704144 60.267051 l
131.029124 60.314762 l
131.354103 61.79448 l
132.004062 59.979064 l
132.654021 60.129145 l
132.979001 60.67422 l
133.30398 60.391086 l
133.62896 60.316042 l
133.953939 60.446789 l
134.278919 60.220644 l
134.603898 61.103953 l
134.928878 60.438127 l
135.578837 59.598302 l
136.228796 60.004146 l
136.553776 58.809352 l
136.878755 60.124513 l
137.203735 59.49108 l
137.528714 59.495701 l
137.853694 60.208749 l
138.178673 59.08499 l
138.503653 60.041138 l
138.828632 59.553791 l
139.153612 60.680623 l
139.478591 59.340921 l
139.803571 59.893013 l
140.45353 59.056262 l
141.103489 59.050073 l
141.428468 59.894271 l
141.753448 59.326492 l
142.403407 58.963233 l
142.728387 59.772224 l
143.053366 59.320786 l
143.378346 59.277053 l
144.028305 59.748918 l
144.353284 58.908844 l
144.678264 59.0426 l
145.003243 58.847655 l
145.328223 59.110947 l
145.653202 58.863691 l
145.978182 59.256907 l
146.303161 57.823687 l
146.628141 58.444118 l
146.95312 58.426283 l
147.928059 59.046354 l
148.578018 58.897557 l
148.902998 58.493247 l
149.227977 58.96283 l
149.552957 58.191913 l
149.877936 58.408002 l
150.202916 58.846308 l
150.527895 57.80143 l
150.852875 58.695251 l
151.177854 58.686814 l
151.502834 58.365202 l
151.827813 59.224641 l
152.152793 58.236727 l
152.802752 58.824189 l
153.127731 57.952047 l
153.77769 58.586009 l
154.10267 58.376082 l
154.427649 58.332599 l
154.752629 58.841137 l
155.727568 58.368264 l
156.052547 58.645867 l
156.377527 57.693388 l
156.702506 57.636706 l
157.027486 58.548094 l
157.352465 58.172183 l
157.677445 58.29948 l
158.002424 57.337596 l
158.652383 58.433592 l
158.977363 57.823806 l
159.302342 57.590844 l
159.627322 58.79784 l
159.952301 58.040943 l
160.60226 57.717148 l
160.92724 57.213492 l
161.252219 57.761024 l
161.577199 57.953351 l
161.902179 57.251562 l
162.227158 58.301187 l
162.552138 57.657389 l
163.202097 57.359329 l
163.527076 57.605949 l
163.852056 57.387679 l
164.177035 58.387541 l
164.502015 57.78562 l
164.826994 56.598923 l
165.476953 57.217159 l
165.801933 57.370767 l
166.126912 57.942968 l
166.451892 57.017393 l
166.776871 57.249659 l
167.101851 57.233055 l
167.42683 56.866832 l
167.75181 57.556219 l
168.07679 57.842878 l
168.726749 57.641341 l
169.051728 56.805386 l
169.376708 56.953965 l
169.701687 57.77041 l
170.026667 57.122311 l
170.351646 57.499059 l
171.001605 56.293242 l
171.326585 56.895487 l
171.651564 55.804018 l
171.976544 56.847859 l
172.301523 57.124012 l
172.626503 57.011344 l
172.951482 57.423228 l
173.276462 57.217329 l
173.601441 57.336711 l
173.926421 57.07206 l
174.57638 56.327078 l
174.90136 57.043837 l
175.226339 55.864591 l
175.551319 56.73891 l
175.876298 56.087083 l
176.201278 56.438977 l
176.526257 56.170843 l
176.851237 56.645005 l
177.176216 56.678769 l
177.501196 55.723743 l
177.826175 56.440517 l
178.151155 56.406015 l
178.476134 56.537837 l
178.801114 56.335818 l
179.451073 55.705131 l
179.776052 56.781554 l
180.101032 57.104816 l
180.426011 56.625909 l
180.750991 56.708239 l
181.075971 56.246536 l
181.72593 55.924725 l
182.050909 56.395838 l
182.375889 55.679369 l
182.700868 56.08918 l
183.025848 56.207434 l
183.350827 55.695629 l
183.675807 55.772652 l
184.000786 56.042638 l
184.325766 55.741964 l
184.975725 56.428261 l
185.300704 55.553977 l
185.625684 55.654453 l
185.950663 55.424154 l
186.275643 56.718166 l
186.600622 56.165847 l
186.925602 55.165422 l
187.250581 56.552258 l
187.575561 56.623857 l
187.900541 55.538152 l
188.22552 56.01537 l
188.5505 56.219279 l
188.875479 55.680504 l
189.200459 56.716501 l
189.525438 55.84266 l
189.850418 56.193999 l
190.175397 55.341841 l
190.500377 56.142773 l
190.825356 55.435138 l
191.475315 55.674665 l
191.800295 55.567221 l
192.125274 54.896004 l
192.450254 55.315891 l
192.775233 55.517087 l
193.100213 55.904789 l
193.750172 54.704434 l
194.075152 55.473009 l
194.400131 55.17316 l
194.725111 55.333766 l
195.05009 55.25884 l
195.37507 54.553128 l
195.700049 55.591163 l
196.350008 55.595669 l
196.674988 54.751614 l
196.999967 55.308931 l
197.324947 54.968356 l
197.649926 55.42084 l
198.624865 54.351362 l
198.949844 55.161182 l
199.274824 54.566692 l
199.924783 54.901769 l
200.249762 54.652499 l
200.574742 55.015313 l
201.549681 54.340225 l
201.87466 55.625495 l
202.19964 54.628227 l
202.524619 55.013581 l
202.849599 54.16699 l
203.174578 54.565233 l
203.499558 54.569171 l
203.824537 54.992579 l
204.149517 54.658036 l
204.474496 54.72903 l
204.799476 54.105833 l
205.124455 54.146929 l
205.449435 54.361308 l
205.774414 54.17908 l
206.099394 54.724964 l
206.749353 53.982448 l
207.074333 53.731827 l
207.399312 53.88484 l
207.724292 53.66265 l
208.049271 53.660955 l
208.374251 54.150146 l
208.69923 54.340442 l
209.02421 54.370072 l
209.349189 53.922306 l
209.674169 53.956352 l
209.999148 53.695825 l
210.324128 54.613599 l
210.649107 54.236995 l
210.974087 54.713972 l
211.299066 53.98865 l
211.624046 53.707961 l
211.949025 54.289885 l
212.274005 54.26365 l
212.598984 53.873788 l
212.923964 54.000251 l
213.248943 53.234525 l
213.573923 53.40655 l
213.898903 54.155165 l
214.548862 53.338033 l
214.873841 53.404373 l
215.198821 53.968815 l
215.5238 53.89355 l
215.84878 52.974557 l
216.173759 53.988376 l
216.823718 53.144451 l
217.148698 53.743551 l
217.473677 53.275052 l
217.798657 54.214053 l
218.123636 53.384267 l
218.448616 53.723825 l
218.773595 52.861588 l
219.423554 53.280254 l
219.748534 53.796258 l
220.073514 53.212619 l
220.398493 53.134332 l
221.048452 53.630954 l
221.373432 53.713286 l
221.698411 52.86771 l
222.023391 52.635283 l
222.67335 53.520922 l
222.998329 53.075185 l
224.298247 53.118463 l
224.623227 52.750968 l
224.948206 53.165278 l
225.598165 53.315426 l
225.923145 52.739617 l
226.248124 53.301881 l
226.573104 52.840485 l
226.898084 52.728015 l
227.223063 52.991742 l
227.548043 52.63752 l
227.873022 52.87067 l
228.198002 52.560954 l
228.522981 52.680323 l
228.847961 53.205878 l
229.17294 52.333722 l
229.822899 52.599744 l
230.147879 52.803307 l
230.472858 52.403374 l
230.797838 52.669028 l
231.122817 52.455831 l
231.447797 52.885016 l
232.097756 52.553603 l
232.422735 52.652349 l
232.747715 52.606552 l
233.072695 53.015146 l
233.397674 52.755165 l
233.722654 52.728534 l
234.047633 52.440261 l
234.372613 52.642034 l
234.697592 52.506572 l
235.022572 52.561972 l
235.347551 53.021408 l
235.672531 52.543233 l
235.99751 52.594356 l
236.32249 52.476824 l
236.647469 52.546189 l
237.622408 52.402659 l
237.947387 52.093477 l
238.272367 52.506206 l
238.597346 51.955196 l
238.922326 52.735523 l
239.247305 52.774483 l
239.572285 52.447294 l
239.897265 52.54375 l
240.222244 51.924085 l
240.547224 52.730761 l
240.872203 52.000374 l
241.197183 52.653679 l
241.522162 52.17637 l
241.847142 52.653349 l
242.172121 52.05828 l
242.497101 52.40849 l
242.82208 52.298992 l
243.14706 52.561625 l
243.472039 52.223467 l
243.797019 52.256366 l
244.121998 51.841495 l
244.446978 52.27603 l
244.771957 52.048472 l
245.096937 52.032079 l
245.421916 52.29077 l
246.071876 52.112722 l
246.721835 51.560795 l
247.046814 52.300034 l
247.371794 52.049164 l
248.021753 52.037911 l
248.346732 52.250407 l
248.671712 51.632034 l
248.996691 52.508506 l
249.321671 51.839554 l
249.64665 52.246264 l
249.97163 51.854017 l
250.296609 52.274168 l
250.946568 51.959295 l
251.921507 51.743092 l
252.246486 52.464507 l
252.571466 51.780223 l
252.896446 51.675821 l
253.221425 51.824072 l
253.546405 51.557038 l
253.871384 52.138487 l
254.196364 52.396763 l
254.521343 51.658814 l
254.846323 52.034165 l
255.171302 51.539714 l
255.496282 51.762517 l
255.821261 51.725054 l
256.146241 51.570774 l
256.47122 51.800695 l
256.7962 51.504164 l
257.121179 52.049155 l
257.446159 51.656005 l
257.771138 51.779491 l
258.096118 51.604903 l
258.421097 51.759992 l
258.746077 51.589566 l
259.071057 51.812999 l
259.396036 51.478291 l
260.695954 51.488347 l
261.020934 51.300735 l
261.345913 51.508911 l
261.995872 51.338824 l
262.645831 51.800038 l
262.970811 51.626009 l
263.29579 51.651173 l
263.62077 51.286963 l
263.945749 51.393727 l
264.270729 51.874597 l
264.595708 51.392851 l
264.920688 51.50734 l
265.245667 51.829039 l
265.570647 51.46288 l
266.220606 51.748526 l
266.545586 51.616323 l
266.870565 51.81436 l
267.195545 51.041623 l
267.520524 51.358647 l
267.845504 51.243401 l
268.170483 51.647725 l
268.495463 51.658972 l
269.470401 51.412861 l
270.12036 51.407304 l
270.44534 51.124677 l
270.770319 51.459919 l
271.095299 51.370764 l
271.420278 51.557074 l
272.070238 51.483982 l
272.395217 51.212488 l
272.720197 51.487133 l
273.045176 51.564636 l
273.370156 51.245809 l
273.695135 51.809093 l
274.345094 51.267423 l
274.995053 51.091025 l
275.320033 51.074374 l
275.645012 51.426778 l
275.969992 51.568821 l
276.294971 51.281062 l
276.619951 51.37794 l
276.94493 51.14993 l
277.594889 51.277923 l
277.919869 51.372354 l
278.244848 51.07473 l
279.219787 51.084319 l
279.544767 51.456396 l
279.869746 51.131424 l
280.194726 51.416197 l
280.519705 51.034707 l
280.844685 50.984578 l
281.169664 51.048235 l
281.494644 50.858557 l
281.819623 51.125574 l
282.144603 51.07606 l
282.469582 51.172708 l
282.794562 50.968273 l
283.119541 51.348646 l
283.444521 50.956784 l
283.7695 51.012576 l
284.419459 51.387448 l
284.744439 50.909849 l
285.069419 50.963279 l
285.394398 50.823544 l
286.044357 51.003543 l
286.369337 50.904772 l
286.694316 51.043819 l
287.019296 50.905228 l
287.344275 51.130149 l
287.669255 51.109128 l
287.994234 51.228874 l
288.644193 51.04299 l
288.969173 51.099147 l
289.294152 50.98644 l
289.619132 51.20117 l
289.944111 50.969899 l
290.269091 50.919443 l
290.59407 51.471081 l
291.244029 50.943281 l
291.569009 51.018605 l
291.893989 50.844596 l
292.218968 51.091917 l
292.543948 51.1938 l
293.518886 50.742202 l
293.843866 50.965856 l
294.168845 50.826249 l
295.143784 50.798359 l
295.468763 51.066124 l
295.793743 50.756042 l
296.118722 50.917236 l
296.768681 50.913494 l
297.093661 51.112665 l
297.41864 50.669568 l
297.74362 51.115973 l
298.0686 50.783374 l
298.393579 50.958002 l
298.718559 50.801676 l
299.043538 50.780547 l
299.368518 50.872688 l
299.693497 50.773284 l
300.018477 51.127319 l
300.343456 51.145287 l
300.668436 50.83101 l
300.993415 50.993081 l
301.643374 50.663974 l
302.293333 50.804855 l
302.618313 50.785422 l
302.943292 50.917449 l
303.268272 50.844711 l
303.593251 50.627322 l
303.918231 50.80662 l
304.24321 50.747367 l
304.56819 50.816602 l
304.89317 51.172718 l
305.218149 50.769449 l
305.543129 50.707776 l
305.868108 50.776938 l
306.193088 51.115441 l
306.518067 50.849425 l
306.843047 50.740258 l
307.493006 50.866939 l
307.817985 50.821069 l
308.142965 50.910483 l
308.792924 50.690437 l
309.442883 50.976917 l
310.092842 50.54481 l
310.417821 50.900464 l
310.742801 50.903682 l
311.067781 50.784897 l
311.39276 50.809041 l
312.042719 50.650741 l
312.692678 50.914269 l
313.017658 50.754367 l
313.667617 50.692801 l
313.992596 50.873653 l
314.317576 50.918398 l
314.967535 50.736153 l
315.292514 50.79799 l
315.617494 50.655961 l
315.942473 50.753888 l
316.267453 50.566735 l
316.592432 50.753406 l
317.242391 50.568157 l
317.567371 50.579938 l
318.21733 50.955601 l
318.54231 50.704686 l
320.817166 50.543888 l
321.142146 50.811891 l
321.467125 50.776921 l
321.792105 50.853744 l
322.117084 50.502533 l
323.092023 50.634249 l
324.066962 50.485254 l
324.391941 50.68812 l
324.716921 50.5724 l
325.691859 50.710336 l
326.016839 50.527543 l
326.341818 50.749872 l
326.666798 50.780459 l
326.991777 50.57727 l
327.316757 50.742569 l
327.641736 50.72998 l
327.966716 51.075483 l
328.291695 50.565966 l
328.616675 50.721077 l
328.941654 50.536622 l
329.591613 50.568352 l
329.916593 50.560797 l
330.566552 50.411707 l
330.891532 50.597358 l
331.216511 50.559136 l
331.541491 50.80369 l
331.86647 50.478669 l
332.19145 50.647335 l
332.516429 50.420459 l
332.841409 50.702804 l
333.166388 50.768814 l
333.816347 50.544308 l
334.141327 50.93101 l
334.466306 50.465211 l
334.791286 50.707897 l
335.441245 50.37383 l
335.766224 50.605341 l
336.416183 50.530722 l
336.741163 50.585576 l
337.391122 50.434786 l
338.041081 50.573653 l
338.366061 50.403599 l
338.69104 50.581762 l
339.01602 50.51211 l
339.340999 50.801553 l
339.665979 50.489128 l
339.990958 50.553518 l
340.315938 50.441179 l
340.640917 50.604956 l
340.965897 50.552482 l
341.290876 50.3293 l
342.265815 50.557409 l
342.590794 50.384643 l
346.165569 50.362672 l
346.490549 50.573899 l
347.465487 50.29661 l
347.790467 50.584033 l
348.115446 50.429218 l
348.440426 50.573452 l
349.090385 50.351282 l
349.415364 50.681652 l
349.740344 50.471511 l
350.065324 50.616656 l
350.390303 50.44853 l
350.715283 50.545936 l
351.040262 50.377966 l
351.690221 50.581013 l
352.015201 50.433099 l
352.34018 50.617116 l
352.66516 50.481507 l
353.640098 50.442764 l
353.965078 50.363911 l
354.290057 50.559373 l
354.615037 50.346274 l
354.940016 50.488325 l
355.264996 50.319946 l
355.589975 50.424653 l
356.239934 50.418045 l
356.564914 50.470457 l
356.889894 50.392836 l
357.539853 50.440474 l
357.864832 50.324852 l
358.189812 50.492932 l
358.514791 50.407669 l
358.839771 50.577674 l
359.814709 50.288154 l
360.464668 50.435952 l
361.114627 50.311837 l
362.089566 50.475372 l
362.739525 50.322874 l
363.064505 50.297026 l
363.389484 50.539183 l
363.714464 50.391164 l
365.014382 50.330142 l
365.339361 50.411063 l
365.664341 50.264451 l
365.98932 50.617188 l
366.3143 50.363599 l
366.639279 50.550339 l
366.964259 50.257022 l
367.289238 50.45173 l
367.939197 50.380098 l
368.589156 50.477525 l
369.239115 50.314161 l
369.564095 50.512003 l
370.864013 50.293914 l
371.188993 50.348907 l
371.513972 50.262672 l
372.163931 50.358802 l
372.488911 50.329958 l
372.81389 50.420392 l
373.13887 50.342055 l
373.788829 50.402366 l
374.438788 50.300517 l
374.763767 50.483024 l
375.413726 50.23564 l
376.063686 50.293924 l
376.713645 50.243286 l
377.038624 50.414067 l
377.363604 50.112 l
378.013563 50.38573 l
378.338542 50.410808 l
378.663522 50.236304 l
379.313481 50.309325 l
379.63846 50.117114 l
380.288419 50.250828 l
380.938378 50.201837 l
381.263358 50.428886 l
381.588337 50.235314 l
381.913317 50.474978 l
382.238296 50.284782 l
382.563276 50.398754 l
382.888256 50.265026 l
383.538215 50.424952 l
383.863194 50.289339 l
384.188174 50.3792 l
384.838133 50.248446 l
386.138051 50.367454 l
386.46303 50.199961 l
386.78801 50.378351 l
391.662703 50.194902 l
391.987682 50.374285 l
392.312662 50.315125 l
392.637641 50.142084 l
394.587518 50.354543 l
394.912498 50.182837 l
395.237477 50.357717 l
395.887437 50.205937 l
396.212416 50.184754 l
396.537396 50.374465 l
397.187355 50.303639 l
397.837314 50.330504 l
398.487273 50.258026 l
398.487273 50.258026 l
stroke
grestore
0.800 setlinewidth
0 setlinejoin
[] 0 setdash
0.000 setgray
gsave
57.6 38.016 m
57.6 304.128 l
stroke
grestore
gsave
414.72 38.016 m
414.72 304.128 l
stroke
grestore
gsave
57.6 38.016 m
414.72 38.016 l
stroke
grestore
gsave
57.6 304.128 m
414.72 304.128 l
stroke
grestore
/DejaVuSans findfont
12.000 scalefont
setfont
gsave
104.691250 310.128000 translate
0.000000 rotate
0.000000 0.000000 m /C glyphshow
8.378906 0.000000 m /o glyphshow
15.720703 0.000000 m /s glyphshow
21.972656 0.000000 m /t glyphshow
26.677734 0.000000 m /space glyphshow
30.492188 0.000000 m /F glyphshow
37.394531 0.000000 m /u glyphshow
45.000000 0.000000 m /n glyphshow
52.605469 0.000000 m /c glyphshow
59.203125 0.000000 m /t glyphshow
63.908203 0.000000 m /i glyphshow
67.242188 0.000000 m /o glyphshow
74.583984 0.000000 m /n glyphshow
82.189453 0.000000 m /space glyphshow
86.003906 0.000000 m /C glyphshow
94.382812 0.000000 m /o glyphshow
101.724609 0.000000 m /n glyphshow
109.330078 0.000000 m /v glyphshow
116.431641 0.000000 m /e glyphshow
123.814453 0.000000 m /r glyphshow
128.748047 0.000000 m /g glyphshow
136.365234 0.000000 m /e glyphshow
143.748047 0.000000 m /n glyphshow
151.353516 0.000000 m /c glyphshow
157.951172 0.000000 m /e glyphshow
165.333984 0.000000 m /space glyphshow
169.148438 0.000000 m /parenleft glyphshow
173.830078 0.000000 m /S glyphshow
181.447266 0.000000 m /e glyphshow
188.830078 0.000000 m /g glyphshow
196.447266 0.000000 m /m glyphshow
208.136719 0.000000 m /e glyphshow
215.519531 0.000000 m /n glyphshow
223.125000 0.000000 m /t glyphshow
227.830078 0.000000 m /a glyphshow
235.183594 0.000000 m /t glyphshow
239.888672 0.000000 m /i glyphshow
243.222656 0.000000 m /o glyphshow
250.564453 0.000000 m /n glyphshow
258.169922 0.000000 m /parenright glyphshow
grestore

end
showpage
