%!PS-Adobe-3.0 EPSF-3.0
%%Title: dataset.eps
%%Creator: matplotlib version 3.0.3, http://matplotlib.org/
%%CreationDate: Mon May 13 14:03:59 2019
%%Orientation: portrait
%%BoundingBox: 75 223 536 568
%%EndComments
%%BeginProlog
/mpldict 8 dict def
mpldict begin
/m { moveto } bind def
/l { lineto } bind def
/r { rlineto } bind def
/c { curveto } bind def
/cl { closepath } bind def
/box {
m
1 index 0 r
0 exch r
neg 0 r
cl
} bind def
/clipbox {
box
clip
newpath
} bind def
%!PS-Adobe-3.0 Resource-Font
%%Title: DejaVu Sans
%%Copyright: Copyright (c) 2003 by Bitstream, Inc. All Rights Reserved. Copyright (c) 2006 by Tavmjong Bah. All Rights Reserved. DejaVu changes are in public domain 
%%Creator: Converted from TrueType to type 3 by PPR
25 dict begin
/_d{bind def}bind def
/_m{moveto}_d
/_l{lineto}_d
/_cl{closepath eofill}_d
/_c{curveto}_d
/_sc{7 -1 roll{setcachedevice}{pop pop pop pop pop pop}ifelse}_d
/_e{exec}_d
/FontName /DejaVuSans def
/PaintType 0 def
/FontMatrix[.001 0 0 .001 0 0]def
/FontBBox[-1021 -463 1793 1232]def
/FontType 3 def
/Encoding [ /zero /one /two /four /D /a /e /s /t /x /minus ] def
/FontInfo 10 dict dup begin
/FamilyName (DejaVu Sans) def
/FullName (DejaVu Sans) def
/Notice (Copyright (c) 2003 by Bitstream, Inc. All Rights Reserved. Copyright (c) 2006 by Tavmjong Bah. All Rights Reserved. DejaVu changes are in public domain ) def
/Weight (Book) def
/Version (Version 2.35) def
/ItalicAngle 0.0 def
/isFixedPitch false def
/UnderlinePosition -130 def
/UnderlineThickness 90 def
end readonly def
/CharStrings 12 dict dup begin
/.notdef 0 def
/zero{636 0 66 -13 570 742 _sc
318 664 _m
267 664 229 639 203 589 _c
177 539 165 464 165 364 _c
165 264 177 189 203 139 _c
229 89 267 64 318 64 _c
369 64 407 89 433 139 _c
458 189 471 264 471 364 _c
471 464 458 539 433 589 _c
407 639 369 664 318 664 _c
318 742 _m
399 742 461 709 505 645 _c
548 580 570 486 570 364 _c
570 241 548 147 505 83 _c
461 19 399 -13 318 -13 _c
236 -13 173 19 130 83 _c
87 147 66 241 66 364 _c
66 486 87 580 130 645 _c
173 709 236 742 318 742 _c
_cl}_d
/one{636 0 110 0 544 729 _sc
124 83 _m
285 83 _l
285 639 _l
110 604 _l
110 694 _l
284 729 _l
383 729 _l
383 83 _l
544 83 _l
544 0 _l
124 0 _l
124 83 _l
_cl}_d
/two{{636 0 73 0 536 742 _sc
192 83 _m
536 83 _l
536 0 _l
73 0 _l
73 83 _l
110 121 161 173 226 239 _c
290 304 331 346 348 365 _c
380 400 402 430 414 455 _c
426 479 433 504 433 528 _c
433 566 419 598 392 622 _c
365 646 330 659 286 659 _c
255 659 222 653 188 643 _c
154 632 117 616 78 594 _c
78 694 _l
118 710 155 722 189 730 _c
223 738 255 742 284 742 _c
}_e{359 742 419 723 464 685 _c
509 647 532 597 532 534 _c
532 504 526 475 515 449 _c
504 422 484 390 454 354 _c
446 344 420 317 376 272 _c
332 227 271 164 192 83 _c
_cl}_e}_d
/four{636 0 49 0 580 729 _sc
378 643 _m
129 254 _l
378 254 _l
378 643 _l
352 729 _m
476 729 _l
476 254 _l
580 254 _l
580 172 _l
476 172 _l
476 0 _l
378 0 _l
378 172 _l
49 172 _l
49 267 _l
352 729 _l
_cl}_d
/D{770 0 98 0 711 729 _sc
197 648 _m
197 81 _l
316 81 _l
416 81 490 103 537 149 _c
583 195 607 267 607 365 _c
607 463 583 534 537 580 _c
490 625 416 648 316 648 _c
197 648 _l
98 729 _m
301 729 _l
442 729 546 699 612 641 _c
678 582 711 490 711 365 _c
711 239 677 147 611 88 _c
545 29 441 0 301 0 _c
98 0 _l
98 729 _l
_cl}_d
/a{{613 0 60 -13 522 560 _sc
343 275 _m
270 275 220 266 192 250 _c
164 233 150 205 150 165 _c
150 133 160 107 181 89 _c
202 70 231 61 267 61 _c
317 61 357 78 387 114 _c
417 149 432 196 432 255 _c
432 275 _l
343 275 _l
522 312 _m
522 0 _l
432 0 _l
432 83 _l
411 49 385 25 355 10 _c
325 -5 287 -13 243 -13 _c
187 -13 142 2 109 33 _c
76 64 60 106 60 159 _c
}_e{60 220 80 266 122 298 _c
163 329 224 345 306 345 _c
432 345 _l
432 354 _l
432 395 418 427 391 450 _c
364 472 326 484 277 484 _c
245 484 215 480 185 472 _c
155 464 127 453 100 439 _c
100 522 _l
132 534 164 544 195 550 _c
226 556 256 560 286 560 _c
365 560 424 539 463 498 _c
502 457 522 395 522 312 _c
_cl}_e}_d
/e{{615 0 55 -13 562 560 _sc
562 296 _m
562 252 _l
149 252 _l
153 190 171 142 205 110 _c
238 78 284 62 344 62 _c
378 62 412 66 444 74 _c
476 82 509 95 541 113 _c
541 28 _l
509 14 476 3 442 -3 _c
408 -9 373 -13 339 -13 _c
251 -13 182 12 131 62 _c
80 112 55 181 55 268 _c
55 357 79 428 127 481 _c
175 533 241 560 323 560 _c
397 560 455 536 498 489 _c
}_e{540 441 562 377 562 296 _c
472 322 _m
471 371 457 410 431 440 _c
404 469 368 484 324 484 _c
274 484 234 469 204 441 _c
174 413 156 373 152 322 _c
472 322 _l
_cl}_e}_d
/s{{521 0 54 -13 472 560 _sc
443 531 _m
443 446 _l
417 458 391 468 364 475 _c
336 481 308 485 279 485 _c
234 485 200 478 178 464 _c
156 450 145 430 145 403 _c
145 382 153 366 169 354 _c
185 342 217 330 265 320 _c
296 313 _l
360 299 405 279 432 255 _c
458 230 472 195 472 151 _c
472 100 452 60 412 31 _c
372 1 316 -13 246 -13 _c
216 -13 186 -10 154 -5 _c
}_e{122 0 89 8 54 20 _c
54 113 _l
87 95 120 82 152 74 _c
184 65 216 61 248 61 _c
290 61 323 68 346 82 _c
368 96 380 117 380 144 _c
380 168 371 187 355 200 _c
339 213 303 226 247 238 _c
216 245 _l
160 257 119 275 95 299 _c
70 323 58 356 58 399 _c
58 450 76 490 112 518 _c
148 546 200 560 268 560 _c
301 560 332 557 362 552 _c
391 547 418 540 443 531 _c
}_e{_cl}_e}_d
/t{392 0 27 0 368 702 _sc
183 702 _m
183 547 _l
368 547 _l
368 477 _l
183 477 _l
183 180 _l
183 135 189 106 201 94 _c
213 81 238 75 276 75 _c
368 75 _l
368 0 _l
276 0 _l
206 0 158 13 132 39 _c
106 65 93 112 93 180 _c
93 477 _l
27 477 _l
27 547 _l
93 547 _l
93 702 _l
183 702 _l
_cl}_d
/x{592 0 29 0 559 547 _sc
549 547 _m
351 281 _l
559 0 _l
453 0 _l
294 215 _l
135 0 _l
29 0 _l
241 286 _l
47 547 _l
153 547 _l
298 352 _l
443 547 _l
549 547 _l
_cl}_d
/minus{838 0 106 272 732 355 _sc
106 355 _m
732 355 _l
732 272 _l
106 272 _l
106 355 _l
_cl}_d
end readonly def

/BuildGlyph
 {exch begin
 CharStrings exch
 2 copy known not{pop /.notdef}if
 true 3 1 roll get exec
 end}_d

/BuildChar {
 1 index /Encoding get exch get
 1 index /BuildGlyph get exec
}_d

FontName currentdict end definefont pop
end
%%EndProlog
mpldict begin
75.6 223.2 translate
460.8 345.6 0 0 clipbox
gsave
0 0 m
460.8 0 l
460.8 345.6 l
0 345.6 l
cl
1.000 setgray
fill
grestore
gsave
57.6 38.016 m
414.72 38.016 l
414.72 304.128 l
57.6 304.128 l
cl
1.000 setgray
fill
grestore
0.800 setlinewidth
1 setlinejoin
0 setlinecap
[] 0 setdash
0.000 setgray
gsave
/o {
gsave
newpath
translate
0.8 setlinewidth
1 setlinejoin
0 setlinecap
0 0 m
0 -3.5 l

gsave
0.000 setgray
fill
grestore
stroke
grestore
} bind def
93.312 38.016 o
grestore
/DejaVuSans findfont
10.000 scalefont
setfont
gsave
85.944812 23.422250 translate
0.000000 rotate
0.000000 0.000000 m /minus glyphshow
8.378906 0.000000 m /four glyphshow
grestore
gsave
/o {
gsave
newpath
translate
0.8 setlinewidth
1 setlinejoin
0 setlinecap
0 0 m
0 -3.5 l

gsave
0.000 setgray
fill
grestore
stroke
grestore
} bind def
164.736 38.016 o
grestore
gsave
157.368812 23.422250 translate
0.000000 rotate
0.000000 0.000000 m /minus glyphshow
8.378906 0.000000 m /two glyphshow
grestore
gsave
/o {
gsave
newpath
translate
0.8 setlinewidth
1 setlinejoin
0 setlinecap
0 0 m
0 -3.5 l

gsave
0.000 setgray
fill
grestore
stroke
grestore
} bind def
236.16 38.016 o
grestore
gsave
232.980312 23.422250 translate
0.000000 rotate
0.000000 0.000000 m /zero glyphshow
grestore
gsave
/o {
gsave
newpath
translate
0.8 setlinewidth
1 setlinejoin
0 setlinecap
0 0 m
0 -3.5 l

gsave
0.000 setgray
fill
grestore
stroke
grestore
} bind def
307.584 38.016 o
grestore
gsave
304.404313 23.422250 translate
0.000000 rotate
0.000000 0.000000 m /two glyphshow
grestore
gsave
/o {
gsave
newpath
translate
0.8 setlinewidth
1 setlinejoin
0 setlinecap
0 0 m
0 -3.5 l

gsave
0.000 setgray
fill
grestore
stroke
grestore
} bind def
379.008 38.016 o
grestore
gsave
375.828313 23.422250 translate
0.000000 rotate
0.000000 0.000000 m /four glyphshow
grestore
gsave
230.019375 9.750375 translate
0.000000 rotate
0.000000 0.000000 m /x glyphshow
5.917969 0.000000 m /one glyphshow
grestore
gsave
/o {
gsave
newpath
translate
0.8 setlinewidth
1 setlinejoin
0 setlinecap
0 0 m
-3.5 0 l

gsave
0.000 setgray
fill
grestore
stroke
grestore
} bind def
57.6 64.6272 o
grestore
gsave
35.865625 60.830325 translate
0.000000 rotate
0.000000 0.000000 m /minus glyphshow
8.378906 0.000000 m /four glyphshow
grestore
gsave
/o {
gsave
newpath
translate
0.8 setlinewidth
1 setlinejoin
0 setlinecap
0 0 m
-3.5 0 l

gsave
0.000 setgray
fill
grestore
stroke
grestore
} bind def
57.6 117.85 o
grestore
gsave
35.865625 114.052725 translate
0.000000 rotate
0.000000 0.000000 m /minus glyphshow
8.378906 0.000000 m /two glyphshow
grestore
gsave
/o {
gsave
newpath
translate
0.8 setlinewidth
1 setlinejoin
0 setlinecap
0 0 m
-3.5 0 l

gsave
0.000 setgray
fill
grestore
stroke
grestore
} bind def
57.6 171.072 o
grestore
gsave
44.240625 167.275125 translate
0.000000 rotate
0.000000 0.000000 m /zero glyphshow
grestore
gsave
/o {
gsave
newpath
translate
0.8 setlinewidth
1 setlinejoin
0 setlinecap
0 0 m
-3.5 0 l

gsave
0.000 setgray
fill
grestore
stroke
grestore
} bind def
57.6 224.294 o
grestore
gsave
44.240625 220.497525 translate
0.000000 rotate
0.000000 0.000000 m /two glyphshow
grestore
gsave
/o {
gsave
newpath
translate
0.8 setlinewidth
1 setlinejoin
0 setlinecap
0 0 m
-3.5 0 l

gsave
0.000 setgray
fill
grestore
stroke
grestore
} bind def
57.6 277.517 o
grestore
gsave
44.240625 273.719925 translate
0.000000 rotate
0.000000 0.000000 m /four glyphshow
grestore
gsave
29.787500 164.931375 translate
90.000000 rotate
0.000000 0.000000 m /x glyphshow
5.917969 0.000000 m /two glyphshow
grestore
1.000 setlinewidth
1.000 0.000 0.000 setrgbcolor
gsave
357.1 266.1 57.6 38.02 clipbox
/o {
gsave
newpath
translate
1.0 setlinewidth
1 setlinejoin
0 setlinecap
-3 0 m
3 0 l
0 -3 m
0 3 l

gsave
1.000 0.000 0.000 setrgbcolor
fill
grestore
stroke
grestore
} bind def
253.592 228.336 o
272.859 183.016 o
208.896 209.896 o
213.871 275.327 o
401.743 140.054 o
340.341 178.761 o
260.46 284.328 o
335.495 269.537 o
407.084 250.682 o
222.404 245.724 o
108.794 289.404 o
152.078 244.049 o
220.5 189.283 o
276.192 202.19 o
394.631 219.457 o
295.716 216.481 o
261.229 154.733 o
410.568 65.1713 o
406.313 162.73 o
406.421 198.973 o
263.282 285.313 o
320.152 294.066 o
269.03 190.299 o
137.267 291.554 o
217.277 263.256 o
348.223 143.531 o
372.26 192.7 o
372.485 222.307 o
316.603 171.424 o
399.037 209.39 o
208.967 199.385 o
278.306 152.116 o
261.146 195.254 o
262.703 211.841 o
290.479 152.822 o
377.775 135.829 o
213.256 275.368 o
345.508 225.329 o
93.393 282.701 o
312.67 303.821 o
110.971 269.035 o
345.91 189.461 o
306.666 158.709 o
315.46 268.571 o
405.978 265.756 o
341.045 97.605 o
180.932 284.99 o
391.227 201.4 o
248.885 194.998 o
318.341 121.028 o
124.093 289.325 o
321.708 168.533 o
168.949 223.321 o
300.225 158.75 o
249.223 276.631 o
411.27 95.7349 o
267.7 259.168 o
282.222 270.239 o
155.287 250.386 o
123.894 291.565 o
395.925 232.506 o
313.605 143.412 o
184.596 288.276 o
330.913 237.244 o
254.799 193.552 o
401.127 115.76 o
296.841 246.955 o
406.683 271.265 o
178.363 293.901 o
140.345 290.641 o
393.785 250.693 o
282.746 270.675 o
162.243 263.93 o
408.231 165.316 o
235.228 208.187 o
351.195 88.5368 o
405.049 293.706 o
381.349 243.999 o
364.92 231.491 o
301.613 223.13 o
335.688 244.893 o
263.852 293.333 o
249.08 219.343 o
197.832 292.527 o
124.428 278.577 o
251.804 159.606 o
372.595 160.056 o
316.215 144.201 o
380.452 221.64 o
307.449 125.226 o
327.861 207.279 o
342.007 293.262 o
221.211 195.284 o
363.91 159.689 o
397.533 191.23 o
350.712 279.87 o
282.192 144.044 o
149.981 263.955 o
grestore
0.122 0.467 0.706 setrgbcolor
gsave
357.1 266.1 57.6 38.02 clipbox
/o {
gsave
newpath
translate
1.0 setlinewidth
1 setlinejoin
0 setlinecap
-3 -3 m
3 3 l
-3 3 m
3 -3 l

gsave
0.122 0.467 0.706 setrgbcolor
fill
grestore
stroke
grestore
} bind def
82.9684 61.2022 o
64.8204 259.586 o
99.8382 208.307 o
243.962 148.363 o
64.3102 202.376 o
185.987 154.315 o
306.738 54.0427 o
132.732 72.3248 o
170.246 134.804 o
132.194 80.9424 o
290.838 105.42 o
224.129 103.061 o
114.371 67.3881 o
291.988 74.7881 o
127.803 136.138 o
350.793 63.8558 o
356.847 63.5889 o
321.606 48.4443 o
158.596 70.0017 o
163.358 69.6109 o
171.158 148.256 o
80.5084 222.291 o
259.945 108.639 o
244.462 63.0147 o
171.367 215.622 o
104.668 228.639 o
160.953 86.7654 o
267.055 43.3669 o
353.631 39.2655 o
299.662 109.868 o
146.435 191.338 o
307.398 117.168 o
64.4543 118.269 o
293.361 115.209 o
105.98 117.393 o
115.629 201.824 o
101.819 263.681 o
203.013 56.4222 o
61.7833 133.81 o
318.294 83.6887 o
243.673 52.476 o
129.023 42.9449 o
309.16 46.4887 o
116.416 203.399 o
263.74 101.322 o
199.813 93.8579 o
138.814 105.703 o
78.3234 153.619 o
192.503 85.8107 o
66.4133 55.9119 o
294.398 108.089 o
64.9749 239.83 o
171.885 140.06 o
303.116 95.3652 o
148.288 94.7809 o
242.66 44.8452 o
131.692 151.03 o
191.224 161.379 o
156.747 194.166 o
366.1 69.2926 o
242.366 73.1609 o
259.523 86.789 o
109.328 167.894 o
380.336 60.2157 o
143.605 64.7054 o
63.4673 285.375 o
158.211 194.067 o
80.4397 167.247 o
278.256 41.5385 o
181.604 77.4381 o
189.229 74.4468 o
240.202 97.7095 o
92.5422 267.456 o
176.573 59.5981 o
203.034 99.8163 o
104.914 52.2336 o
316.724 41.057 o
332.79 77.1203 o
85.9989 61.8604 o
297.602 103.311 o
207.783 186.339 o
154.14 73.0052 o
77.3753 118.275 o
151.208 159.4 o
158.85 139.119 o
122.293 247.857 o
77.9016 223.495 o
150.245 137.492 o
267.444 110.617 o
190.039 90.4545 o
221.824 49.8879 o
343.223 58.495 o
242.886 119.662 o
288.146 47.4264 o
211.305 173.738 o
156.735 72.3073 o
143.316 80.7373 o
348.84 80.4381 o
79.996 150.856 o
69.4937 293.213 o
184.509 132.94 o
63.4312 87.3085 o
grestore
0.800 setlinewidth
0 setlinejoin
2 setlinecap
[] 0 setdash
0.000 setgray
gsave
57.6 38.016 m
57.6 304.128 l
stroke
grestore
gsave
414.72 38.016 m
414.72 304.128 l
stroke
grestore
gsave
57.6 38.016 m
414.72 38.016 l
stroke
grestore
gsave
57.6 304.128 m
414.72 304.128 l
stroke
grestore
/DejaVuSans findfont
12.000 scalefont
setfont
gsave
212.660000 310.128000 translate
0.000000 rotate
0.000000 0.000000 m /D glyphshow
9.240234 0.000000 m /a glyphshow
16.593750 0.000000 m /t glyphshow
21.298828 0.000000 m /a glyphshow
28.652344 0.000000 m /s glyphshow
34.904297 0.000000 m /e glyphshow
42.287109 0.000000 m /t glyphshow
grestore

end
showpage
