%!PS-Adobe-3.0 EPSF-3.0
%%Title: fit_comparison.eps
%%Creator: matplotlib version 2.1.2, http://matplotlib.org/
%%CreationDate: Mon Mar 18 10:38:32 2019
%%Orientation: portrait
%%BoundingBox: 75 223 536 568
%%EndComments
%%BeginProlog
/mpldict 8 dict def
mpldict begin
/m { moveto } bind def
/l { lineto } bind def
/r { rlineto } bind def
/c { curveto } bind def
/cl { closepath } bind def
/box {
m
1 index 0 r
0 exch r
neg 0 r
cl
} bind def
/clipbox {
box
clip
newpath
} bind def
%!PS-Adobe-3.0 Resource-Font
%%Title: DejaVu Sans
%%Copyright: Copyright (c) 2003 by Bitstream, Inc. All Rights Reserved. Copyright (c) 2006 by Tavmjong Bah. All Rights Reserved. DejaVu changes are in public domain 
%%Creator: Converted from TrueType to type 3 by PPR
25 dict begin
/_d{bind def}bind def
/_m{moveto}_d
/_l{lineto}_d
/_cl{closepath eofill}_d
/_c{curveto}_d
/_sc{7 -1 roll{setcachedevice}{pop pop pop pop pop pop}ifelse}_d
/_e{exec}_d
/FontName /DejaVuSans def
/PaintType 0 def
/FontMatrix[.001 0 0 .001 0 0]def
/FontBBox[-1021 -463 1793 1232]def
/FontType 3 def
/Encoding [ /space /parenleft /parenright /period /slash /zero /one /two /three /four /five /six /eight /A /C /D /F /G /H /L /P /S /T /a /b /c /d /e /g /i /l /m /n /o /p /q /r /s /t /u /v ] def
/FontInfo 10 dict dup begin
/FamilyName (DejaVu Sans) def
/FullName (DejaVu Sans) def
/Notice (Copyright (c) 2003 by Bitstream, Inc. All Rights Reserved. Copyright (c) 2006 by Tavmjong Bah. All Rights Reserved. DejaVu changes are in public domain ) def
/Weight (Book) def
/Version (Version 2.35) def
/ItalicAngle 0.0 def
/isFixedPitch false def
/UnderlinePosition -130 def
/UnderlineThickness 90 def
end readonly def
/CharStrings 42 dict dup begin
/.notdef 0 def
/space{318 0 0 0 0 0 _sc
}_d
/parenleft{390 0 86 -131 310 759 _sc
310 759 _m
266 683 234 609 213 536 _c
191 463 181 389 181 314 _c
181 238 191 164 213 91 _c
234 17 266 -56 310 -131 _c
232 -131 _l
183 -54 146 20 122 94 _c
98 168 86 241 86 314 _c
86 386 98 459 122 533 _c
146 607 182 682 232 759 _c
310 759 _l
_cl}_d
/parenright{390 0 80 -131 304 759 _sc
80 759 _m
158 759 _l
206 682 243 607 267 533 _c
291 459 304 386 304 314 _c
304 241 291 168 267 94 _c
243 20 206 -54 158 -131 _c
80 -131 _l
123 -56 155 17 177 91 _c
198 164 209 238 209 314 _c
209 389 198 463 177 536 _c
155 609 123 683 80 759 _c
_cl}_d
/period{318 0 107 0 210 124 _sc
107 124 _m
210 124 _l
210 0 _l
107 0 _l
107 124 _l
_cl}_d
/slash{337 0 0 -92 337 729 _sc
254 729 _m
337 729 _l
83 -92 _l
0 -92 _l
254 729 _l
_cl}_d
/zero{636 0 66 -13 570 742 _sc
318 664 _m
267 664 229 639 203 589 _c
177 539 165 464 165 364 _c
165 264 177 189 203 139 _c
229 89 267 64 318 64 _c
369 64 407 89 433 139 _c
458 189 471 264 471 364 _c
471 464 458 539 433 589 _c
407 639 369 664 318 664 _c
318 742 _m
399 742 461 709 505 645 _c
548 580 570 486 570 364 _c
570 241 548 147 505 83 _c
461 19 399 -13 318 -13 _c
236 -13 173 19 130 83 _c
87 147 66 241 66 364 _c
66 486 87 580 130 645 _c
173 709 236 742 318 742 _c
_cl}_d
/one{636 0 110 0 544 729 _sc
124 83 _m
285 83 _l
285 639 _l
110 604 _l
110 694 _l
284 729 _l
383 729 _l
383 83 _l
544 83 _l
544 0 _l
124 0 _l
124 83 _l
_cl}_d
/two{{636 0 73 0 536 742 _sc
192 83 _m
536 83 _l
536 0 _l
73 0 _l
73 83 _l
110 121 161 173 226 239 _c
290 304 331 346 348 365 _c
380 400 402 430 414 455 _c
426 479 433 504 433 528 _c
433 566 419 598 392 622 _c
365 646 330 659 286 659 _c
255 659 222 653 188 643 _c
154 632 117 616 78 594 _c
78 694 _l
118 710 155 722 189 730 _c
223 738 255 742 284 742 _c
}_e{359 742 419 723 464 685 _c
509 647 532 597 532 534 _c
532 504 526 475 515 449 _c
504 422 484 390 454 354 _c
446 344 420 317 376 272 _c
332 227 271 164 192 83 _c
_cl}_e}_d
/three{{636 0 76 -13 556 742 _sc
406 393 _m
453 383 490 362 516 330 _c
542 298 556 258 556 212 _c
556 140 531 84 482 45 _c
432 6 362 -13 271 -13 _c
240 -13 208 -10 176 -4 _c
144 1 110 10 76 22 _c
76 117 _l
103 101 133 89 166 81 _c
198 73 232 69 268 69 _c
330 69 377 81 409 105 _c
441 129 458 165 458 212 _c
458 254 443 288 413 312 _c
383 336 341 349 287 349 _c
}_e{202 349 _l
202 430 _l
291 430 _l
339 430 376 439 402 459 _c
428 478 441 506 441 543 _c
441 580 427 609 401 629 _c
374 649 336 659 287 659 _c
260 659 231 656 200 650 _c
169 644 135 635 98 623 _c
98 711 _l
135 721 170 729 203 734 _c
235 739 266 742 296 742 _c
370 742 429 725 473 691 _c
517 657 539 611 539 553 _c
539 513 527 479 504 451 _c
481 423 448 403 406 393 _c
_cl}_e}_d
/four{636 0 49 0 580 729 _sc
378 643 _m
129 254 _l
378 254 _l
378 643 _l
352 729 _m
476 729 _l
476 254 _l
580 254 _l
580 172 _l
476 172 _l
476 0 _l
378 0 _l
378 172 _l
49 172 _l
49 267 _l
352 729 _l
_cl}_d
/five{{636 0 77 -13 549 729 _sc
108 729 _m
495 729 _l
495 646 _l
198 646 _l
198 467 _l
212 472 227 476 241 478 _c
255 480 270 482 284 482 _c
365 482 429 459 477 415 _c
525 370 549 310 549 234 _c
549 155 524 94 475 51 _c
426 8 357 -13 269 -13 _c
238 -13 207 -10 175 -6 _c
143 -1 111 6 77 17 _c
77 116 _l
106 100 136 88 168 80 _c
199 72 232 69 267 69 _c
}_e{323 69 368 83 401 113 _c
433 143 450 183 450 234 _c
450 284 433 324 401 354 _c
368 384 323 399 267 399 _c
241 399 214 396 188 390 _c
162 384 135 375 108 363 _c
108 729 _l
_cl}_e}_d
/six{{636 0 70 -13 573 742 _sc
330 404 _m
286 404 251 388 225 358 _c
199 328 186 286 186 234 _c
186 181 199 139 225 109 _c
251 79 286 64 330 64 _c
374 64 409 79 435 109 _c
461 139 474 181 474 234 _c
474 286 461 328 435 358 _c
409 388 374 404 330 404 _c
526 713 _m
526 623 _l
501 635 476 644 451 650 _c
425 656 400 659 376 659 _c
310 659 260 637 226 593 _c
}_e{192 549 172 482 168 394 _c
187 422 211 444 240 459 _c
269 474 301 482 336 482 _c
409 482 467 459 509 415 _c
551 371 573 310 573 234 _c
573 159 550 99 506 54 _c
462 9 403 -13 330 -13 _c
246 -13 181 19 137 83 _c
92 147 70 241 70 364 _c
70 479 97 571 152 639 _c
206 707 280 742 372 742 _c
396 742 421 739 447 735 _c
472 730 498 723 526 713 _c
_cl}_e}_d
/eight{{636 0 68 -13 568 742 _sc
318 346 _m
271 346 234 333 207 308 _c
180 283 167 249 167 205 _c
167 161 180 126 207 101 _c
234 76 271 64 318 64 _c
364 64 401 76 428 102 _c
455 127 469 161 469 205 _c
469 249 455 283 429 308 _c
402 333 365 346 318 346 _c
219 388 _m
177 398 144 418 120 447 _c
96 476 85 511 85 553 _c
85 611 105 657 147 691 _c
188 725 245 742 318 742 _c
}_e{390 742 447 725 489 691 _c
530 657 551 611 551 553 _c
551 511 539 476 515 447 _c
491 418 459 398 417 388 _c
464 377 501 355 528 323 _c
554 291 568 251 568 205 _c
568 134 546 80 503 43 _c
459 5 398 -13 318 -13 _c
237 -13 175 5 132 43 _c
89 80 68 134 68 205 _c
68 251 81 291 108 323 _c
134 355 171 377 219 388 _c
183 544 _m
183 506 194 476 218 455 _c
}_e{242 434 275 424 318 424 _c
360 424 393 434 417 455 _c
441 476 453 506 453 544 _c
453 582 441 611 417 632 _c
393 653 360 664 318 664 _c
275 664 242 653 218 632 _c
194 611 183 582 183 544 _c
_cl}_e}_d
/A{684 0 8 0 676 729 _sc
342 632 _m
208 269 _l
476 269 _l
342 632 _l
286 729 _m
398 729 _l
676 0 _l
573 0 _l
507 187 _l
178 187 _l
112 0 _l
8 0 _l
286 729 _l
_cl}_d
/C{{698 0 56 -13 644 742 _sc
644 673 _m
644 569 _l
610 599 575 622 537 638 _c
499 653 460 661 418 661 _c
334 661 270 635 226 584 _c
182 533 160 460 160 364 _c
160 268 182 194 226 143 _c
270 92 334 67 418 67 _c
460 67 499 74 537 90 _c
575 105 610 128 644 159 _c
644 56 _l
609 32 572 15 534 4 _c
496 -7 455 -13 412 -13 _c
302 -13 215 20 151 87 _c
}_e{87 154 56 246 56 364 _c
56 481 87 573 151 641 _c
215 708 302 742 412 742 _c
456 742 497 736 535 725 _c
573 713 610 696 644 673 _c
_cl}_e}_d
/D{770 0 98 0 711 729 _sc
197 648 _m
197 81 _l
316 81 _l
416 81 490 103 537 149 _c
583 195 607 267 607 365 _c
607 463 583 534 537 580 _c
490 625 416 648 316 648 _c
197 648 _l
98 729 _m
301 729 _l
442 729 546 699 612 641 _c
678 582 711 490 711 365 _c
711 239 677 147 611 88 _c
545 29 441 0 301 0 _c
98 0 _l
98 729 _l
_cl}_d
/F{575 0 98 0 517 729 _sc
98 729 _m
517 729 _l
517 646 _l
197 646 _l
197 431 _l
486 431 _l
486 348 _l
197 348 _l
197 0 _l
98 0 _l
98 729 _l
_cl}_d
/G{{775 0 56 -13 693 742 _sc
595 104 _m
595 300 _l
434 300 _l
434 381 _l
693 381 _l
693 68 _l
655 40 613 20 567 7 _c
521 -6 472 -13 420 -13 _c
306 -13 216 20 152 86 _c
88 152 56 245 56 364 _c
56 482 88 575 152 642 _c
216 708 306 742 420 742 _c
467 742 512 736 555 724 _c
598 712 638 695 674 673 _c
674 568 _l
637 598 598 621 557 637 _c
516 653 473 661 428 661 _c
}_e{338 661 271 636 227 586 _c
182 536 160 462 160 364 _c
160 265 182 191 227 141 _c
271 91 338 67 428 67 _c
462 67 493 70 521 76 _c
549 82 573 91 595 104 _c
_cl}_e}_d
/H{752 0 98 0 654 729 _sc
98 729 _m
197 729 _l
197 430 _l
555 430 _l
555 729 _l
654 729 _l
654 0 _l
555 0 _l
555 347 _l
197 347 _l
197 0 _l
98 0 _l
98 729 _l
_cl}_d
/L{557 0 98 0 552 729 _sc
98 729 _m
197 729 _l
197 83 _l
552 83 _l
552 0 _l
98 0 _l
98 729 _l
_cl}_d
/P{603 0 98 0 569 729 _sc
197 648 _m
197 374 _l
321 374 _l
367 374 402 385 427 409 _c
452 433 465 467 465 511 _c
465 555 452 588 427 612 _c
402 636 367 648 321 648 _c
197 648 _l
98 729 _m
321 729 _l
402 729 464 710 506 673 _c
548 636 569 582 569 511 _c
569 439 548 384 506 348 _c
464 311 402 293 321 293 _c
197 293 _l
197 0 _l
98 0 _l
98 729 _l
_cl}_d
/S{{635 0 66 -13 579 742 _sc
535 705 _m
535 609 _l
497 627 462 640 429 649 _c
395 657 363 662 333 662 _c
279 662 237 651 208 631 _c
179 610 165 580 165 542 _c
165 510 174 485 194 469 _c
213 452 250 439 304 429 _c
364 417 _l
437 403 491 378 526 343 _c
561 307 579 260 579 201 _c
579 130 555 77 508 41 _c
460 5 391 -13 300 -13 _c
265 -13 228 -9 189 -2 _c
}_e{150 5 110 16 69 32 _c
69 134 _l
109 111 148 94 186 83 _c
224 71 262 66 300 66 _c
356 66 399 77 430 99 _c
460 121 476 152 476 194 _c
476 230 465 258 443 278 _c
421 298 385 313 335 323 _c
275 335 _l
201 349 148 372 115 404 _c
82 435 66 478 66 534 _c
66 598 88 649 134 686 _c
179 723 242 742 322 742 _c
356 742 390 739 426 733 _c
461 727 497 717 535 705 _c
}_e{_cl}_e}_d
/T{611 0 -2 0 614 729 _sc
-2 729 _m
614 729 _l
614 646 _l
355 646 _l
355 0 _l
256 0 _l
256 646 _l
-2 646 _l
-2 729 _l
_cl}_d
/a{{613 0 60 -13 522 560 _sc
343 275 _m
270 275 220 266 192 250 _c
164 233 150 205 150 165 _c
150 133 160 107 181 89 _c
202 70 231 61 267 61 _c
317 61 357 78 387 114 _c
417 149 432 196 432 255 _c
432 275 _l
343 275 _l
522 312 _m
522 0 _l
432 0 _l
432 83 _l
411 49 385 25 355 10 _c
325 -5 287 -13 243 -13 _c
187 -13 142 2 109 33 _c
76 64 60 106 60 159 _c
}_e{60 220 80 266 122 298 _c
163 329 224 345 306 345 _c
432 345 _l
432 354 _l
432 395 418 427 391 450 _c
364 472 326 484 277 484 _c
245 484 215 480 185 472 _c
155 464 127 453 100 439 _c
100 522 _l
132 534 164 544 195 550 _c
226 556 256 560 286 560 _c
365 560 424 539 463 498 _c
502 457 522 395 522 312 _c
_cl}_e}_d
/b{{635 0 91 -13 580 760 _sc
487 273 _m
487 339 473 390 446 428 _c
418 466 381 485 334 485 _c
286 485 249 466 222 428 _c
194 390 181 339 181 273 _c
181 207 194 155 222 117 _c
249 79 286 61 334 61 _c
381 61 418 79 446 117 _c
473 155 487 207 487 273 _c
181 464 _m
199 496 223 520 252 536 _c
281 552 316 560 356 560 _c
422 560 476 533 518 481 _c
559 428 580 359 580 273 _c
}_e{580 187 559 117 518 65 _c
476 13 422 -13 356 -13 _c
316 -13 281 -5 252 10 _c
223 25 199 49 181 82 _c
181 0 _l
91 0 _l
91 760 _l
181 760 _l
181 464 _l
_cl}_e}_d
/c{{550 0 55 -13 488 560 _sc
488 526 _m
488 442 _l
462 456 437 466 411 473 _c
385 480 360 484 334 484 _c
276 484 230 465 198 428 _c
166 391 150 339 150 273 _c
150 206 166 154 198 117 _c
230 80 276 62 334 62 _c
360 62 385 65 411 72 _c
437 79 462 90 488 104 _c
488 21 _l
462 9 436 0 410 -5 _c
383 -10 354 -13 324 -13 _c
242 -13 176 12 128 64 _c
}_e{79 115 55 185 55 273 _c
55 362 79 432 128 483 _c
177 534 244 560 330 560 _c
358 560 385 557 411 551 _c
437 545 463 537 488 526 _c
_cl}_e}_d
/d{{635 0 55 -13 544 760 _sc
454 464 _m
454 760 _l
544 760 _l
544 0 _l
454 0 _l
454 82 _l
435 49 411 25 382 10 _c
353 -5 319 -13 279 -13 _c
213 -13 159 13 117 65 _c
75 117 55 187 55 273 _c
55 359 75 428 117 481 _c
159 533 213 560 279 560 _c
319 560 353 552 382 536 _c
411 520 435 496 454 464 _c
148 273 _m
148 207 161 155 188 117 _c
215 79 253 61 301 61 _c
}_e{348 61 385 79 413 117 _c
440 155 454 207 454 273 _c
454 339 440 390 413 428 _c
385 466 348 485 301 485 _c
253 485 215 466 188 428 _c
161 390 148 339 148 273 _c
_cl}_e}_d
/e{{615 0 55 -13 562 560 _sc
562 296 _m
562 252 _l
149 252 _l
153 190 171 142 205 110 _c
238 78 284 62 344 62 _c
378 62 412 66 444 74 _c
476 82 509 95 541 113 _c
541 28 _l
509 14 476 3 442 -3 _c
408 -9 373 -13 339 -13 _c
251 -13 182 12 131 62 _c
80 112 55 181 55 268 _c
55 357 79 428 127 481 _c
175 533 241 560 323 560 _c
397 560 455 536 498 489 _c
}_e{540 441 562 377 562 296 _c
472 322 _m
471 371 457 410 431 440 _c
404 469 368 484 324 484 _c
274 484 234 469 204 441 _c
174 413 156 373 152 322 _c
472 322 _l
_cl}_e}_d
/g{{635 0 55 -207 544 560 _sc
454 280 _m
454 344 440 395 414 431 _c
387 467 349 485 301 485 _c
253 485 215 467 188 431 _c
161 395 148 344 148 280 _c
148 215 161 165 188 129 _c
215 93 253 75 301 75 _c
349 75 387 93 414 129 _c
440 165 454 215 454 280 _c
544 68 _m
544 -24 523 -93 482 -139 _c
440 -184 377 -207 292 -207 _c
260 -207 231 -204 203 -200 _c
175 -195 147 -188 121 -178 _c
}_e{121 -91 _l
147 -105 173 -115 199 -122 _c
225 -129 251 -133 278 -133 _c
336 -133 380 -117 410 -87 _c
439 -56 454 -10 454 52 _c
454 96 _l
435 64 411 40 382 24 _c
353 8 319 0 279 0 _c
211 0 157 25 116 76 _c
75 127 55 195 55 280 _c
55 364 75 432 116 483 _c
157 534 211 560 279 560 _c
319 560 353 552 382 536 _c
411 520 435 496 454 464 _c
454 547 _l
544 547 _l
}_e{544 68 _l
_cl}_e}_d
/i{278 0 94 0 184 760 _sc
94 547 _m
184 547 _l
184 0 _l
94 0 _l
94 547 _l
94 760 _m
184 760 _l
184 646 _l
94 646 _l
94 760 _l
_cl}_d
/l{278 0 94 0 184 760 _sc
94 760 _m
184 760 _l
184 0 _l
94 0 _l
94 760 _l
_cl}_d
/m{{974 0 91 0 889 560 _sc
520 442 _m
542 482 569 511 600 531 _c
631 550 668 560 711 560 _c
767 560 811 540 842 500 _c
873 460 889 403 889 330 _c
889 0 _l
799 0 _l
799 327 _l
799 379 789 418 771 444 _c
752 469 724 482 686 482 _c
639 482 602 466 575 435 _c
548 404 535 362 535 309 _c
535 0 _l
445 0 _l
445 327 _l
445 379 435 418 417 444 _c
398 469 369 482 331 482 _c
}_e{285 482 248 466 221 435 _c
194 404 181 362 181 309 _c
181 0 _l
91 0 _l
91 547 _l
181 547 _l
181 462 _l
201 495 226 520 255 536 _c
283 552 317 560 357 560 _c
397 560 430 550 458 530 _c
486 510 506 480 520 442 _c
_cl}_e}_d
/n{634 0 91 0 549 560 _sc
549 330 _m
549 0 _l
459 0 _l
459 327 _l
459 379 448 417 428 443 _c
408 469 378 482 338 482 _c
289 482 251 466 223 435 _c
195 404 181 362 181 309 _c
181 0 _l
91 0 _l
91 547 _l
181 547 _l
181 462 _l
202 494 227 519 257 535 _c
286 551 320 560 358 560 _c
420 560 468 540 500 501 _c
532 462 549 405 549 330 _c
_cl}_d
/o{612 0 55 -13 557 560 _sc
306 484 _m
258 484 220 465 192 427 _c
164 389 150 338 150 273 _c
150 207 163 156 191 118 _c
219 80 257 62 306 62 _c
354 62 392 80 420 118 _c
448 156 462 207 462 273 _c
462 337 448 389 420 427 _c
392 465 354 484 306 484 _c
306 560 _m
384 560 445 534 490 484 _c
534 433 557 363 557 273 _c
557 183 534 113 490 63 _c
445 12 384 -13 306 -13 _c
227 -13 165 12 121 63 _c
77 113 55 183 55 273 _c
55 363 77 433 121 484 _c
165 534 227 560 306 560 _c
_cl}_d
/p{{635 0 91 -207 580 560 _sc
181 82 _m
181 -207 _l
91 -207 _l
91 547 _l
181 547 _l
181 464 _l
199 496 223 520 252 536 _c
281 552 316 560 356 560 _c
422 560 476 533 518 481 _c
559 428 580 359 580 273 _c
580 187 559 117 518 65 _c
476 13 422 -13 356 -13 _c
316 -13 281 -5 252 10 _c
223 25 199 49 181 82 _c
487 273 _m
487 339 473 390 446 428 _c
418 466 381 485 334 485 _c
}_e{286 485 249 466 222 428 _c
194 390 181 339 181 273 _c
181 207 194 155 222 117 _c
249 79 286 61 334 61 _c
381 61 418 79 446 117 _c
473 155 487 207 487 273 _c
_cl}_e}_d
/q{{635 0 55 -207 544 560 _sc
148 273 _m
148 207 161 155 188 117 _c
215 79 253 61 301 61 _c
348 61 385 79 413 117 _c
440 155 454 207 454 273 _c
454 339 440 390 413 428 _c
385 466 348 485 301 485 _c
253 485 215 466 188 428 _c
161 390 148 339 148 273 _c
454 82 _m
435 49 411 25 382 10 _c
353 -5 319 -13 279 -13 _c
213 -13 159 13 117 65 _c
75 117 55 187 55 273 _c
}_e{55 359 75 428 117 481 _c
159 533 213 560 279 560 _c
319 560 353 552 382 536 _c
411 520 435 496 454 464 _c
454 547 _l
544 547 _l
544 -207 _l
454 -207 _l
454 82 _l
_cl}_e}_d
/r{411 0 91 0 411 560 _sc
411 463 _m
401 469 390 473 378 476 _c
366 478 353 480 339 480 _c
288 480 249 463 222 430 _c
194 397 181 350 181 288 _c
181 0 _l
91 0 _l
91 547 _l
181 547 _l
181 462 _l
199 495 224 520 254 536 _c
284 552 321 560 365 560 _c
371 560 378 559 386 559 _c
393 558 401 557 411 555 _c
411 463 _l
_cl}_d
/s{{521 0 54 -13 472 560 _sc
443 531 _m
443 446 _l
417 458 391 468 364 475 _c
336 481 308 485 279 485 _c
234 485 200 478 178 464 _c
156 450 145 430 145 403 _c
145 382 153 366 169 354 _c
185 342 217 330 265 320 _c
296 313 _l
360 299 405 279 432 255 _c
458 230 472 195 472 151 _c
472 100 452 60 412 31 _c
372 1 316 -13 246 -13 _c
216 -13 186 -10 154 -5 _c
}_e{122 0 89 8 54 20 _c
54 113 _l
87 95 120 82 152 74 _c
184 65 216 61 248 61 _c
290 61 323 68 346 82 _c
368 96 380 117 380 144 _c
380 168 371 187 355 200 _c
339 213 303 226 247 238 _c
216 245 _l
160 257 119 275 95 299 _c
70 323 58 356 58 399 _c
58 450 76 490 112 518 _c
148 546 200 560 268 560 _c
301 560 332 557 362 552 _c
391 547 418 540 443 531 _c
}_e{_cl}_e}_d
/t{392 0 27 0 368 702 _sc
183 702 _m
183 547 _l
368 547 _l
368 477 _l
183 477 _l
183 180 _l
183 135 189 106 201 94 _c
213 81 238 75 276 75 _c
368 75 _l
368 0 _l
276 0 _l
206 0 158 13 132 39 _c
106 65 93 112 93 180 _c
93 477 _l
27 477 _l
27 547 _l
93 547 _l
93 702 _l
183 702 _l
_cl}_d
/u{634 0 85 -13 543 560 _sc
85 216 _m
85 547 _l
175 547 _l
175 219 _l
175 167 185 129 205 103 _c
225 77 255 64 296 64 _c
344 64 383 79 411 110 _c
439 141 453 183 453 237 _c
453 547 _l
543 547 _l
543 0 _l
453 0 _l
453 84 _l
431 50 405 26 377 10 _c
348 -5 315 -13 277 -13 _c
214 -13 166 6 134 45 _c
101 83 85 140 85 216 _c
311 560 _m
311 560 _l
_cl}_d
/v{592 0 30 0 562 547 _sc
30 547 _m
125 547 _l
296 88 _l
467 547 _l
562 547 _l
357 0 _l
235 0 _l
30 547 _l
_cl}_d
end readonly def

/BuildGlyph
 {exch begin
 CharStrings exch
 2 copy known not{pop /.notdef}if
 true 3 1 roll get exec
 end}_d

/BuildChar {
 1 index /Encoding get exch get
 1 index /BuildGlyph get exec
}_d

FontName currentdict end definefont pop
end
%%EndProlog
mpldict begin
75.6 223.2 translate
460.8 345.6 0 0 clipbox
gsave
0 0 m
460.8 0 l
460.8 345.6 l
0 345.6 l
cl
1.000 setgray
fill
grestore
gsave
57.6 38.016 m
414.72 38.016 l
414.72 304.128 l
57.6 304.128 l
cl
1.000 setgray
fill
grestore
0.800 setlinewidth
1 setlinejoin
0 setlinecap
[] 0 setdash
0.000 setgray
gsave
/o {
gsave
newpath
translate
0.8 setlinewidth
1 setlinejoin
0 setlinecap
0 0 m
0 -3.5 l

gsave
0.000 setgray
fill
grestore
stroke
grestore
} bind def
73.8327 38.016 o
grestore
/DejaVuSans findfont
10.000 scalefont
setfont
gsave
65.879602 23.422250 translate
0.000000 rotate
0.000000 0.000000 m /zero glyphshow
6.362305 0.000000 m /period glyphshow
9.541016 0.000000 m /zero glyphshow
grestore
gsave
/o {
gsave
newpath
translate
0.8 setlinewidth
1 setlinejoin
0 setlinecap
0 0 m
0 -3.5 l

gsave
0.000 setgray
fill
grestore
stroke
grestore
} bind def
117.683 38.016 o
grestore
gsave
109.729543 23.422250 translate
0.000000 rotate
0.000000 0.000000 m /zero glyphshow
6.362305 0.000000 m /period glyphshow
9.541016 0.000000 m /two glyphshow
grestore
gsave
/o {
gsave
newpath
translate
0.8 setlinewidth
1 setlinejoin
0 setlinecap
0 0 m
0 -3.5 l

gsave
0.000 setgray
fill
grestore
stroke
grestore
} bind def
161.533 38.016 o
grestore
gsave
153.579483 23.422250 translate
0.000000 rotate
0.000000 0.000000 m /zero glyphshow
6.362305 0.000000 m /period glyphshow
9.541016 0.000000 m /four glyphshow
grestore
gsave
/o {
gsave
newpath
translate
0.8 setlinewidth
1 setlinejoin
0 setlinecap
0 0 m
0 -3.5 l

gsave
0.000 setgray
fill
grestore
stroke
grestore
} bind def
205.383 38.016 o
grestore
gsave
197.429424 23.422250 translate
0.000000 rotate
0.000000 0.000000 m /zero glyphshow
6.362305 0.000000 m /period glyphshow
9.541016 0.000000 m /six glyphshow
grestore
gsave
/o {
gsave
newpath
translate
0.8 setlinewidth
1 setlinejoin
0 setlinecap
0 0 m
0 -3.5 l

gsave
0.000 setgray
fill
grestore
stroke
grestore
} bind def
249.232 38.016 o
grestore
gsave
241.279364 23.422250 translate
0.000000 rotate
0.000000 0.000000 m /zero glyphshow
6.362305 0.000000 m /period glyphshow
9.541016 0.000000 m /eight glyphshow
grestore
gsave
/o {
gsave
newpath
translate
0.8 setlinewidth
1 setlinejoin
0 setlinecap
0 0 m
0 -3.5 l

gsave
0.000 setgray
fill
grestore
stroke
grestore
} bind def
293.082 38.016 o
grestore
gsave
285.129305 23.422250 translate
0.000000 rotate
0.000000 0.000000 m /one glyphshow
6.362305 0.000000 m /period glyphshow
9.541016 0.000000 m /zero glyphshow
grestore
gsave
/o {
gsave
newpath
translate
0.8 setlinewidth
1 setlinejoin
0 setlinecap
0 0 m
0 -3.5 l

gsave
0.000 setgray
fill
grestore
stroke
grestore
} bind def
336.932 38.016 o
grestore
gsave
328.979246 23.422250 translate
0.000000 rotate
0.000000 0.000000 m /one glyphshow
6.362305 0.000000 m /period glyphshow
9.541016 0.000000 m /two glyphshow
grestore
gsave
/o {
gsave
newpath
translate
0.8 setlinewidth
1 setlinejoin
0 setlinecap
0 0 m
0 -3.5 l

gsave
0.000 setgray
fill
grestore
stroke
grestore
} bind def
380.782 38.016 o
grestore
gsave
372.829186 23.422250 translate
0.000000 rotate
0.000000 0.000000 m /one glyphshow
6.362305 0.000000 m /period glyphshow
9.541016 0.000000 m /four glyphshow
grestore
gsave
215.652187 9.750375 translate
0.000000 rotate
0.000000 0.000000 m /T glyphshow
6.108398 0.000000 m /i glyphshow
8.886719 0.000000 m /m glyphshow
18.627930 0.000000 m /e glyphshow
24.780273 0.000000 m /space glyphshow
27.958984 0.000000 m /parenleft glyphshow
31.860352 0.000000 m /s glyphshow
37.070312 0.000000 m /parenright glyphshow
grestore
gsave
/o {
gsave
newpath
translate
0.8 setlinewidth
1 setlinejoin
0 setlinecap
0 0 m
-3.5 0 l

gsave
0.000 setgray
fill
grestore
stroke
grestore
} bind def
57.6 71.6801 o
grestore
gsave
28.334375 67.883207 translate
0.000000 rotate
0.000000 0.000000 m /zero glyphshow
6.362305 0.000000 m /period glyphshow
9.541016 0.000000 m /three glyphshow
15.903320 0.000000 m /zero glyphshow
grestore
gsave
/o {
gsave
newpath
translate
0.8 setlinewidth
1 setlinejoin
0 setlinecap
0 0 m
-3.5 0 l

gsave
0.000 setgray
fill
grestore
stroke
grestore
} bind def
57.6 118.898 o
grestore
gsave
28.334375 115.100860 translate
0.000000 rotate
0.000000 0.000000 m /zero glyphshow
6.362305 0.000000 m /period glyphshow
9.541016 0.000000 m /three glyphshow
15.903320 0.000000 m /five glyphshow
grestore
gsave
/o {
gsave
newpath
translate
0.8 setlinewidth
1 setlinejoin
0 setlinecap
0 0 m
-3.5 0 l

gsave
0.000 setgray
fill
grestore
stroke
grestore
} bind def
57.6 166.115 o
grestore
gsave
28.334375 162.318513 translate
0.000000 rotate
0.000000 0.000000 m /zero glyphshow
6.362305 0.000000 m /period glyphshow
9.541016 0.000000 m /four glyphshow
15.903320 0.000000 m /zero glyphshow
grestore
gsave
/o {
gsave
newpath
translate
0.8 setlinewidth
1 setlinejoin
0 setlinecap
0 0 m
-3.5 0 l

gsave
0.000 setgray
fill
grestore
stroke
grestore
} bind def
57.6 213.333 o
grestore
gsave
28.334375 209.536166 translate
0.000000 rotate
0.000000 0.000000 m /zero glyphshow
6.362305 0.000000 m /period glyphshow
9.541016 0.000000 m /four glyphshow
15.903320 0.000000 m /five glyphshow
grestore
gsave
/o {
gsave
newpath
translate
0.8 setlinewidth
1 setlinejoin
0 setlinecap
0 0 m
-3.5 0 l

gsave
0.000 setgray
fill
grestore
stroke
grestore
} bind def
57.6 260.551 o
grestore
gsave
28.334375 256.753819 translate
0.000000 rotate
0.000000 0.000000 m /zero glyphshow
6.362305 0.000000 m /period glyphshow
9.541016 0.000000 m /five glyphshow
15.903320 0.000000 m /zero glyphshow
grestore
gsave
22.256250 140.728250 translate
90.000000 rotate
0.000000 0.000000 m /S glyphshow
6.347656 0.000000 m /p glyphshow
12.695312 0.000000 m /e glyphshow
18.847656 0.000000 m /e glyphshow
25.000000 0.000000 m /d glyphshow
31.347656 0.000000 m /space glyphshow
34.526367 0.000000 m /parenleft glyphshow
38.427734 0.000000 m /m glyphshow
48.168945 0.000000 m /slash glyphshow
51.538086 0.000000 m /s glyphshow
56.748047 0.000000 m /parenright glyphshow
grestore
1.000 setlinewidth
2 setlinejoin
gsave
357.1 266.1 57.6 38.02 clipbox
/o {
gsave
newpath
translate
1.0 setlinewidth
2 setlinejoin
0 setlinecap
0 3 m
-0.673542 0.927051 l
-2.85317 0.927051 l
-1.089814 -0.354102 l
-1.763356 -2.427051 l
-0 -1.145898 l
1.763356 -2.427051 l
1.089814 -0.354102 l
2.85317 0.927051 l
0.673542 0.927051 l
cl

gsave
0.000 setgray
fill
grestore
stroke
grestore
} bind def
73.8327 157.549 o
77.7605 178.717 o
81.3602 193.54 o
85.035 176.475 o
88.8768 176.324 o
92.4072 196.542 o
95.6041 155.577 o
100.059 188.358 o
103.17 235.679 o
106.677 127.44 o
111.391 189.34 o
114.046 173.812 o
118.975 183.45 o
120.966 292.032 o
124.467 187.246 o
128.13 182.727 o
131.787 167.425 o
135.556 163.459 o
139.405 133.517 o
143.515 155.773 o
147.109 192.031 o
150.639 146.321 o
154.371 152.453 o
157.901 163.821 o
161.475 149.079 o
165.119 158.966 o
168.798 160.483 o
172.816 179.103 o
176.12 188.792 o
179.829 157.968 o
183.6 160.636 o
187.085 140.144 o
190.867 129.053 o
194.515 148.671 o
197.874 168.688 o
201.194 164.59 o
204.847 141.914 o
208.519 150.928 o
212.155 143.204 o
215.834 116.293 o
220.007 119.601 o
223.654 119.977 o
227.304 115.248 o
230.979 146.281 o
234.213 151.368 o
237.793 154.963 o
241.403 134.666 o
245.068 115.685 o
248.702 128.234 o
252.36 87.8784 o
256.959 95.7635 o
260.194 114.6 o
263.82 109.042 o
267.502 103.594 o
271.42 100.817 o
274.744 119.349 o
278.414 111.227 o
282.295 117.874 o
285.705 119.908 o
289.362 99.0381 o
293.033 96.721 o
296.698 90.2974 o
300.404 90.8086 o
303.988 97.3133 o
307.652 71.5413 o
311.289 79.0011 o
314.473 99.3508 o
318.161 96.6693 o
321.851 90.0444 o
325.49 95.5371 o
329.084 65.7846 o
333.771 67.55 o
336.988 106.533 o
340.551 73.09 o
344.201 79.6053 o
347.678 100.423 o
351.088 80.9354 o
354.668 67.7808 o
358.323 65.7514 o
361.967 70.252 o
365.591 56.6823 o
369.809 63.4269 o
373.456 71.1472 o
377.106 56.4099 o
380.796 50.112 o
384.543 84.2022 o
387.555 87.6831 o
391.329 60.8361 o
394.867 60.6085 o
398.487 53.6318 o
grestore
1.500 setlinewidth
1 setlinejoin
2 setlinecap
0.839 0.153 0.157 setrgbcolor
gsave
357.1 266.1 57.6 38.02 clipbox
73.832727 197.631063 m
77.76052 195.92201 l
81.360183 194.355732 l
85.03505 192.756733 l
88.876809 191.085115 l
92.407233 189.548964 l
95.604113 188.157945 l
100.059048 186.219523 l
103.169543 184.866091 l
106.676881 183.339986 l
111.390969 181.288802 l
114.045863 180.13361 l
118.974597 177.989031 l
120.966261 177.122422 l
124.466582 175.59937 l
128.129807 174.005436 l
131.786672 172.414268 l
135.555794 170.774256 l
139.405161 169.099328 l
143.514777 167.311161 l
147.109157 165.747182 l
150.639077 164.211251 l
154.371146 162.587361 l
157.901066 161.05143 l
161.475494 159.496133 l
165.118985 157.910785 l
168.798434 156.309791 l
172.815965 154.561691 l
176.120278 153.123926 l
179.828886 151.510245 l
183.599762 149.869469 l
187.084517 148.35319 l
190.867451 146.707168 l
194.514889 145.120103 l
197.873795 143.658583 l
201.193674 142.214045 l
204.847032 140.624404 l
208.519026 139.026654 l
212.154624 137.44474 l
215.833634 135.843937 l
220.007491 134.027818 l
223.654052 132.441134 l
227.30434 130.852828 l
230.979404 129.253743 l
234.212679 127.846887 l
237.793465 126.288823 l
241.402973 124.718262 l
245.068389 123.123374 l
248.702453 121.542128 l
252.360415 119.950483 l
256.959178 117.94948 l
260.193549 116.542147 l
263.820159 114.964145 l
267.502458 113.361911 l
271.420231 111.657218 l
274.744275 110.210867 l
278.413638 108.614262 l
282.294577 106.925596 l
285.705445 105.441467 l
289.362311 103.850299 l
293.032551 102.253312 l
296.698406 100.658234 l
300.403726 99.045983 l
303.988458 97.486202 l
307.652121 95.892077 l
311.289473 94.3094 l
314.472979 92.9242 l
318.160759 91.319581 l
321.850732 89.714008 l
325.490277 88.130377 l
329.083779 86.56678 l
333.771338 84.52714 l
336.987731 83.12763 l
340.550539 81.577389 l
344.201046 79.988988 l
347.678347 78.475953 l
351.087679 76.992491 l
354.668027 75.434618 l
358.32292 73.844309 l
361.96685 72.25877 l
365.591047 70.681817 l
369.809412 68.846332 l
373.455534 67.259839 l
377.106042 65.671438 l
380.796014 64.065865 l
384.542992 62.435488 l
387.555483 61.1247 l
391.32877 59.482875 l
394.86746 57.943128 l
398.487273 56.368083 l
stroke
grestore
0.122 0.467 0.706 setrgbcolor
gsave
357.1 266.1 57.6 38.02 clipbox
73.832727 197.629084 m
77.76052 195.920074 l
81.360183 194.353835 l
85.03505 192.754874 l
88.876809 191.083298 l
92.407233 189.547185 l
95.604113 188.1562 l
100.059048 186.217827 l
103.169543 184.864428 l
106.676881 183.338361 l
111.390969 181.287228 l
114.045863 180.132065 l
118.974597 177.987538 l
120.966261 177.120951 l
124.466582 175.597936 l
128.129807 174.004042 l
131.786672 172.412914 l
135.555794 170.772942 l
139.405161 169.098056 l
143.514777 167.309932 l
147.109157 165.745993 l
150.639077 164.210099 l
154.371146 162.58625 l
157.901066 161.050357 l
161.475494 159.495098 l
165.118985 157.909789 l
168.798434 156.308835 l
172.815965 154.560779 l
176.120278 153.123049 l
179.828886 151.509408 l
183.599762 149.868673 l
187.084517 148.352432 l
190.867451 146.70645 l
194.514889 145.119424 l
197.873795 143.657941 l
201.193674 142.213438 l
204.847032 140.623836 l
208.519026 139.026126 l
212.154624 137.444251 l
215.833634 135.843488 l
220.007491 134.027413 l
223.654052 132.440769 l
227.30434 130.852503 l
230.979404 129.253457 l
234.212679 127.846636 l
237.793465 126.288611 l
241.402973 124.718088 l
245.068389 123.12324 l
248.702453 121.542033 l
252.360415 119.950428 l
256.959178 117.949474 l
260.193549 116.542176 l
263.820159 114.964213 l
267.502458 113.362018 l
271.420231 111.657368 l
274.744275 110.211053 l
278.413638 108.614487 l
282.294577 106.925863 l
285.705445 105.44177 l
289.362311 103.850642 l
293.032551 102.253695 l
296.698406 100.658656 l
300.403726 99.046445 l
303.988458 97.486702 l
307.652121 95.892617 l
311.289473 94.309979 l
314.472979 92.924813 l
318.160759 91.320234 l
321.850732 89.714701 l
325.490277 88.131109 l
329.083779 86.567551 l
333.771338 84.527961 l
336.987731 83.128486 l
340.550539 81.578283 l
344.201046 79.989922 l
347.678347 78.476924 l
351.087679 76.993499 l
354.668027 75.435664 l
358.32292 73.845395 l
361.96685 72.259895 l
365.591047 70.682981 l
369.809412 68.847541 l
373.455534 67.261088 l
377.106042 65.672726 l
380.796014 64.067193 l
384.542992 62.436857 l
387.555483 61.126101 l
391.32877 59.484317 l
394.86746 57.944608 l
398.487273 56.369602 l
stroke
grestore
1.000 0.498 0.055 setrgbcolor
gsave
357.1 266.1 57.6 38.02 clipbox
73.832727 197.667409 m
77.76052 195.955396 l
81.360183 194.386405 l
85.03505 192.784635 l
88.876809 191.110122 l
92.407233 189.57131 l
95.604113 188.177881 l
100.059048 186.236101 l
103.169543 184.880325 l
106.676881 183.351576 l
111.390969 181.296839 l
114.045863 180.139646 l
118.974597 177.991351 l
120.966261 177.123241 l
124.466582 175.597551 l
128.129807 174.000855 l
131.786672 172.406932 l
135.555794 170.764079 l
139.405161 169.086249 l
143.514777 167.294984 l
147.109157 165.728296 l
150.639077 164.189704 l
154.371146 162.563001 l
157.901066 161.02441 l
161.475494 159.466418 l
165.118985 157.878324 l
168.798434 156.274557 l
172.815965 154.523429 l
176.120278 153.083173 l
179.828886 151.466696 l
183.599762 149.823078 l
187.084517 148.304173 l
190.867451 146.655299 l
194.514889 145.065485 l
197.873795 143.601433 l
201.193674 142.154392 l
204.847032 140.561997 l
208.519026 138.96148 l
212.154624 137.376826 l
215.833634 135.77325 l
220.007491 133.953984 l
223.654052 132.364552 l
227.30434 130.773495 l
230.979404 129.171639 l
234.212679 127.762346 l
237.793465 126.201583 l
241.402973 124.628302 l
245.068389 123.030651 l
248.702453 121.446666 l
252.360415 119.852264 l
256.959178 117.847794 l
260.193549 116.438023 l
263.820159 114.857287 l
267.502458 113.252278 l
271.420231 111.544632 l
274.744275 110.095776 l
278.413638 108.496404 l
282.294577 106.804813 l
285.705445 105.318113 l
289.362311 103.724189 l
293.032551 102.124436 l
296.698406 100.526594 l
300.403726 98.91155 l
303.988458 97.349067 l
307.652121 95.752181 l
311.289473 94.166762 l
314.472979 92.779163 l
318.160759 91.171764 l
321.850732 89.56341 l
325.490277 87.977036 l
329.083779 86.41073 l
333.771338 84.367557 l
336.987731 82.965622 l
340.550539 81.412696 l
344.201046 79.821543 l
347.678347 78.305887 l
351.087679 76.819855 l
354.668027 75.259284 l
358.32292 73.66622 l
361.96685 72.077934 l
365.591047 70.49825 l
369.809412 68.659584 l
373.455534 67.070343 l
377.106042 65.479191 l
380.796014 63.870837 l
384.542992 62.237636 l
387.555483 60.924577 l
391.32877 59.279908 l
394.86746 57.737493 l
398.487273 56.15972 l
stroke
grestore
0.173 0.627 0.173 setrgbcolor
gsave
357.1 266.1 57.6 38.02 clipbox
73.832727 198.201252 m
77.76052 196.486713 l
81.360183 194.915406 l
85.03505 193.311273 l
88.876809 191.634288 l
92.407233 190.093206 l
95.604113 188.69772 l
100.059048 186.753075 l
103.169543 185.395298 l
106.676881 183.864294 l
111.390969 181.806524 l
114.045863 180.647624 l
118.974597 178.496159 l
120.966261 177.626768 l
124.466582 176.098826 l
128.129807 174.499774 l
131.786672 172.903498 l
135.555794 171.258221 l
139.405161 169.577915 l
143.514777 167.784007 l
147.109157 166.215007 l
150.639077 164.674145 l
154.371146 163.045042 l
157.901066 161.50418 l
161.475494 159.943889 l
165.118985 158.353451 l
168.798434 156.747317 l
172.815965 154.993605 l
176.120278 153.551224 l
179.828886 151.932362 l
183.599762 150.286319 l
187.084517 148.765172 l
190.867451 147.113865 l
194.514889 145.521704 l
197.873795 144.055493 l
201.193674 142.606316 l
204.847032 141.011572 l
208.519026 139.408692 l
212.154624 137.821699 l
215.833634 136.215757 l
220.007491 134.393807 l
223.654052 132.802029 l
227.30434 131.208624 l
230.979404 129.604405 l
234.212679 128.193032 l
237.793465 126.629966 l
241.402973 125.054363 l
245.068389 123.454354 l
248.702453 121.868032 l
252.360415 120.271277 l
256.959178 118.263849 l
260.193549 116.851998 l
263.820159 115.26893 l
267.502458 113.661552 l
271.420231 111.951386 l
274.744275 110.500391 l
278.413638 108.89866 l
282.294577 107.204573 l
285.705445 105.715679 l
289.362311 104.119403 l
293.032551 102.517289 l
296.698406 100.917089 l
300.403726 99.299662 l
303.988458 97.734873 l
307.652121 96.13563 l
311.289473 94.547872 l
314.472979 93.158225 l
318.160759 91.548454 l
321.850732 89.937727 l
325.490277 88.349012 l
329.083779 86.780395 l
333.771338 84.734206 l
336.987731 83.330203 l
340.550539 81.774985 l
344.201046 80.181484 l
347.678347 78.663591 l
351.087679 77.175367 l
354.668027 75.612492 l
358.32292 74.017078 l
361.96685 72.426448 l
365.591047 70.844432 l
369.809412 69.003054 l
373.455534 67.411468 l
377.106042 65.817967 l
380.796014 64.20724 l
384.542992 62.571629 l
387.555483 61.256632 l
391.32877 59.609536 l
394.86746 58.064846 l
398.487273 56.484744 l
stroke
grestore
0.800 setlinewidth
0 setlinejoin
[] 0 setdash
0.000 setgray
gsave
57.6 38.016 m
57.6 304.128 l
stroke
grestore
gsave
414.72 38.016 m
414.72 304.128 l
stroke
grestore
gsave
57.6 38.016 m
414.72 38.016 l
stroke
grestore
gsave
57.6 304.128 m
414.72 304.128 l
stroke
grestore
/DejaVuSans findfont
12.000 scalefont
setfont
gsave
209.074062 310.128000 translate
0.000000 rotate
0.000000 0.000000 m /C glyphshow
8.378906 0.000000 m /u glyphshow
15.984375 0.000000 m /r glyphshow
20.917969 0.000000 m /v glyphshow
28.019531 0.000000 m /e glyphshow
35.402344 0.000000 m /space glyphshow
39.216797 0.000000 m /F glyphshow
46.119141 0.000000 m /i glyphshow
49.453125 0.000000 m /t glyphshow
grestore
1.000 setlinewidth
0 setlinecap
0.800 setgray
gsave
271.923125 222.768625 m
407.72 222.768625 l
409.053333 222.768625 409.72 223.435292 409.72 224.768625 c
409.72 297.128 l
409.72 298.461333 409.053333 299.128 407.72 299.128 c
271.923125 299.128 l
270.589792 299.128 269.923125 298.461333 269.923125 297.128 c
269.923125 224.768625 l
269.923125 223.435292 270.589792 222.768625 271.923125 222.768625 c
cl
gsave
1.000 setgray
fill
grestore
stroke
grestore
2 setlinejoin
[] 0 setdash
0.000 setgray
gsave
/o {
gsave
newpath
translate
1.0 setlinewidth
2 setlinejoin
0 setlinecap
0 3 m
-0.673542 0.927051 l
-2.85317 0.927051 l
-1.089814 -0.354102 l
-1.763356 -2.427051 l
-0 -1.145898 l
1.763356 -2.427051 l
1.089814 -0.354102 l
2.85317 0.927051 l
0.673542 0.927051 l
cl

gsave
0.000 setgray
fill
grestore
stroke
grestore
} bind def
283.923 291.034 o
grestore
/DejaVuSans findfont
10.000 scalefont
setfont
gsave
301.923125 287.534250 translate
0.000000 rotate
0.000000 0.000000 m /D glyphshow
7.700195 0.000000 m /a glyphshow
13.828125 0.000000 m /t glyphshow
17.749023 0.000000 m /a glyphshow
23.876953 0.000000 m /space glyphshow
27.055664 0.000000 m /P glyphshow
33.085938 0.000000 m /o glyphshow
39.204102 0.000000 m /i glyphshow
41.982422 0.000000 m /n glyphshow
48.320312 0.000000 m /t glyphshow
52.241211 0.000000 m /s glyphshow
grestore
1.500 setlinewidth
1 setlinejoin
2 setlinecap
0.839 0.153 0.157 setrgbcolor
gsave
273.923125 276.362375 m
293.923125 276.362375 l
stroke
grestore
0.000 setgray
gsave
301.923125 272.862375 translate
0.000000 rotate
0.000000 0.000000 m /L glyphshow
5.571289 0.000000 m /e glyphshow
11.723633 0.000000 m /a glyphshow
17.851562 0.000000 m /s glyphshow
23.061523 0.000000 m /t glyphshow
26.982422 0.000000 m /space glyphshow
30.161133 0.000000 m /S glyphshow
36.508789 0.000000 m /q glyphshow
42.856445 0.000000 m /u glyphshow
49.194336 0.000000 m /a glyphshow
55.322266 0.000000 m /r glyphshow
59.433594 0.000000 m /e glyphshow
65.585938 0.000000 m /s glyphshow
grestore
0.122 0.467 0.706 setrgbcolor
gsave
273.923125 261.6905 m
293.923125 261.6905 l
stroke
grestore
0.000 setgray
gsave
301.923125 258.190500 translate
0.000000 rotate
0.000000 0.000000 m /G glyphshow
7.749023 0.000000 m /r glyphshow
11.860352 0.000000 m /a glyphshow
17.988281 0.000000 m /d glyphshow
24.335938 0.000000 m /i glyphshow
27.114258 0.000000 m /e glyphshow
33.266602 0.000000 m /n glyphshow
39.604492 0.000000 m /t glyphshow
43.525391 0.000000 m /space glyphshow
46.704102 0.000000 m /D glyphshow
54.404297 0.000000 m /e glyphshow
60.556641 0.000000 m /s glyphshow
65.766602 0.000000 m /c glyphshow
71.264648 0.000000 m /e glyphshow
77.416992 0.000000 m /n glyphshow
83.754883 0.000000 m /t glyphshow
grestore
1.000 0.498 0.055 setrgbcolor
gsave
273.923125 247.018625 m
293.923125 247.018625 l
stroke
grestore
0.000 setgray
gsave
301.923125 243.518625 translate
0.000000 rotate
0.000000 0.000000 m /H glyphshow
7.519531 0.000000 m /i glyphshow
10.297852 0.000000 m /l glyphshow
13.076172 0.000000 m /l glyphshow
15.854492 0.000000 m /space glyphshow
19.033203 0.000000 m /C glyphshow
26.015625 0.000000 m /l glyphshow
28.793945 0.000000 m /i glyphshow
31.572266 0.000000 m /m glyphshow
41.313477 0.000000 m /b glyphshow
47.661133 0.000000 m /i glyphshow
50.439453 0.000000 m /n glyphshow
56.777344 0.000000 m /g glyphshow
grestore
0.173 0.627 0.173 setrgbcolor
gsave
273.923125 232.34675 m
293.923125 232.34675 l
stroke
grestore
0.000 setgray
gsave
301.923125 228.846750 translate
0.000000 rotate
0.000000 0.000000 m /S glyphshow
6.347656 0.000000 m /i glyphshow
9.125977 0.000000 m /m glyphshow
18.867188 0.000000 m /u glyphshow
25.205078 0.000000 m /l glyphshow
27.983398 0.000000 m /a glyphshow
34.111328 0.000000 m /t glyphshow
38.032227 0.000000 m /e glyphshow
44.184570 0.000000 m /d glyphshow
50.532227 0.000000 m /space glyphshow
53.710938 0.000000 m /A glyphshow
60.551758 0.000000 m /n glyphshow
66.889648 0.000000 m /n glyphshow
73.227539 0.000000 m /e glyphshow
79.379883 0.000000 m /a glyphshow
85.507812 0.000000 m /l glyphshow
88.286133 0.000000 m /i glyphshow
91.064453 0.000000 m /n glyphshow
97.402344 0.000000 m /g glyphshow
grestore

end
showpage
