%!PS-Adobe-3.0 EPSF-3.0
%%Title: gradient_descent.eps
%%Creator: matplotlib version 2.1.2, http://matplotlib.org/
%%CreationDate: Mon Mar 18 10:38:31 2019
%%Orientation: portrait
%%BoundingBox: 75 223 536 568
%%EndComments
%%BeginProlog
/mpldict 8 dict def
mpldict begin
/m { moveto } bind def
/l { lineto } bind def
/r { rlineto } bind def
/c { curveto } bind def
/cl { closepath } bind def
/box {
m
1 index 0 r
0 exch r
neg 0 r
cl
} bind def
/clipbox {
box
clip
newpath
} bind def
%!PS-Adobe-3.0 Resource-Font
%%Title: DejaVu Sans
%%Copyright: Copyright (c) 2003 by Bitstream, Inc. All Rights Reserved. Copyright (c) 2006 by Tavmjong Bah. All Rights Reserved. DejaVu changes are in public domain 
%%Creator: Converted from TrueType to type 3 by PPR
25 dict begin
/_d{bind def}bind def
/_m{moveto}_d
/_l{lineto}_d
/_cl{closepath eofill}_d
/_c{curveto}_d
/_sc{7 -1 roll{setcachedevice}{pop pop pop pop pop pop}ifelse}_d
/_e{exec}_d
/FontName /DejaVuSans def
/PaintType 0 def
/FontMatrix[.001 0 0 .001 0 0]def
/FontBBox[-1021 -463 1793 1232]def
/FontType 3 def
/Encoding [ /space /parenleft /parenright /period /slash /zero /two /four /D /G /asciicircum /underscore /a /c /d /e /f /i /m /n /r /s /t /v /minus ] def
/FontInfo 10 dict dup begin
/FamilyName (DejaVu Sans) def
/FullName (DejaVu Sans) def
/Notice (Copyright (c) 2003 by Bitstream, Inc. All Rights Reserved. Copyright (c) 2006 by Tavmjong Bah. All Rights Reserved. DejaVu changes are in public domain ) def
/Weight (Book) def
/Version (Version 2.35) def
/ItalicAngle 0.0 def
/isFixedPitch false def
/UnderlinePosition -130 def
/UnderlineThickness 90 def
end readonly def
/CharStrings 26 dict dup begin
/.notdef 0 def
/space{318 0 0 0 0 0 _sc
}_d
/parenleft{390 0 86 -131 310 759 _sc
310 759 _m
266 683 234 609 213 536 _c
191 463 181 389 181 314 _c
181 238 191 164 213 91 _c
234 17 266 -56 310 -131 _c
232 -131 _l
183 -54 146 20 122 94 _c
98 168 86 241 86 314 _c
86 386 98 459 122 533 _c
146 607 182 682 232 759 _c
310 759 _l
_cl}_d
/parenright{390 0 80 -131 304 759 _sc
80 759 _m
158 759 _l
206 682 243 607 267 533 _c
291 459 304 386 304 314 _c
304 241 291 168 267 94 _c
243 20 206 -54 158 -131 _c
80 -131 _l
123 -56 155 17 177 91 _c
198 164 209 238 209 314 _c
209 389 198 463 177 536 _c
155 609 123 683 80 759 _c
_cl}_d
/period{318 0 107 0 210 124 _sc
107 124 _m
210 124 _l
210 0 _l
107 0 _l
107 124 _l
_cl}_d
/slash{337 0 0 -92 337 729 _sc
254 729 _m
337 729 _l
83 -92 _l
0 -92 _l
254 729 _l
_cl}_d
/zero{636 0 66 -13 570 742 _sc
318 664 _m
267 664 229 639 203 589 _c
177 539 165 464 165 364 _c
165 264 177 189 203 139 _c
229 89 267 64 318 64 _c
369 64 407 89 433 139 _c
458 189 471 264 471 364 _c
471 464 458 539 433 589 _c
407 639 369 664 318 664 _c
318 742 _m
399 742 461 709 505 645 _c
548 580 570 486 570 364 _c
570 241 548 147 505 83 _c
461 19 399 -13 318 -13 _c
236 -13 173 19 130 83 _c
87 147 66 241 66 364 _c
66 486 87 580 130 645 _c
173 709 236 742 318 742 _c
_cl}_d
/two{{636 0 73 0 536 742 _sc
192 83 _m
536 83 _l
536 0 _l
73 0 _l
73 83 _l
110 121 161 173 226 239 _c
290 304 331 346 348 365 _c
380 400 402 430 414 455 _c
426 479 433 504 433 528 _c
433 566 419 598 392 622 _c
365 646 330 659 286 659 _c
255 659 222 653 188 643 _c
154 632 117 616 78 594 _c
78 694 _l
118 710 155 722 189 730 _c
223 738 255 742 284 742 _c
}_e{359 742 419 723 464 685 _c
509 647 532 597 532 534 _c
532 504 526 475 515 449 _c
504 422 484 390 454 354 _c
446 344 420 317 376 272 _c
332 227 271 164 192 83 _c
_cl}_e}_d
/four{636 0 49 0 580 729 _sc
378 643 _m
129 254 _l
378 254 _l
378 643 _l
352 729 _m
476 729 _l
476 254 _l
580 254 _l
580 172 _l
476 172 _l
476 0 _l
378 0 _l
378 172 _l
49 172 _l
49 267 _l
352 729 _l
_cl}_d
/D{770 0 98 0 711 729 _sc
197 648 _m
197 81 _l
316 81 _l
416 81 490 103 537 149 _c
583 195 607 267 607 365 _c
607 463 583 534 537 580 _c
490 625 416 648 316 648 _c
197 648 _l
98 729 _m
301 729 _l
442 729 546 699 612 641 _c
678 582 711 490 711 365 _c
711 239 677 147 611 88 _c
545 29 441 0 301 0 _c
98 0 _l
98 729 _l
_cl}_d
/G{{775 0 56 -13 693 742 _sc
595 104 _m
595 300 _l
434 300 _l
434 381 _l
693 381 _l
693 68 _l
655 40 613 20 567 7 _c
521 -6 472 -13 420 -13 _c
306 -13 216 20 152 86 _c
88 152 56 245 56 364 _c
56 482 88 575 152 642 _c
216 708 306 742 420 742 _c
467 742 512 736 555 724 _c
598 712 638 695 674 673 _c
674 568 _l
637 598 598 621 557 637 _c
516 653 473 661 428 661 _c
}_e{338 661 271 636 227 586 _c
182 536 160 462 160 364 _c
160 265 182 191 227 141 _c
271 91 338 67 428 67 _c
462 67 493 70 521 76 _c
549 82 573 91 595 104 _c
_cl}_e}_d
/asciicircum{838 0 106 457 732 729 _sc
467 729 _m
732 457 _l
634 457 _l
419 650 _l
204 457 _l
106 457 _l
371 729 _l
467 729 _l
_cl}_d
/underscore{500 0 -9 -235 510 -165 _sc
510 -165 _m
510 -235 _l
-9 -235 _l
-9 -165 _l
510 -165 _l
_cl}_d
/a{{613 0 60 -13 522 560 _sc
343 275 _m
270 275 220 266 192 250 _c
164 233 150 205 150 165 _c
150 133 160 107 181 89 _c
202 70 231 61 267 61 _c
317 61 357 78 387 114 _c
417 149 432 196 432 255 _c
432 275 _l
343 275 _l
522 312 _m
522 0 _l
432 0 _l
432 83 _l
411 49 385 25 355 10 _c
325 -5 287 -13 243 -13 _c
187 -13 142 2 109 33 _c
76 64 60 106 60 159 _c
}_e{60 220 80 266 122 298 _c
163 329 224 345 306 345 _c
432 345 _l
432 354 _l
432 395 418 427 391 450 _c
364 472 326 484 277 484 _c
245 484 215 480 185 472 _c
155 464 127 453 100 439 _c
100 522 _l
132 534 164 544 195 550 _c
226 556 256 560 286 560 _c
365 560 424 539 463 498 _c
502 457 522 395 522 312 _c
_cl}_e}_d
/c{{550 0 55 -13 488 560 _sc
488 526 _m
488 442 _l
462 456 437 466 411 473 _c
385 480 360 484 334 484 _c
276 484 230 465 198 428 _c
166 391 150 339 150 273 _c
150 206 166 154 198 117 _c
230 80 276 62 334 62 _c
360 62 385 65 411 72 _c
437 79 462 90 488 104 _c
488 21 _l
462 9 436 0 410 -5 _c
383 -10 354 -13 324 -13 _c
242 -13 176 12 128 64 _c
}_e{79 115 55 185 55 273 _c
55 362 79 432 128 483 _c
177 534 244 560 330 560 _c
358 560 385 557 411 551 _c
437 545 463 537 488 526 _c
_cl}_e}_d
/d{{635 0 55 -13 544 760 _sc
454 464 _m
454 760 _l
544 760 _l
544 0 _l
454 0 _l
454 82 _l
435 49 411 25 382 10 _c
353 -5 319 -13 279 -13 _c
213 -13 159 13 117 65 _c
75 117 55 187 55 273 _c
55 359 75 428 117 481 _c
159 533 213 560 279 560 _c
319 560 353 552 382 536 _c
411 520 435 496 454 464 _c
148 273 _m
148 207 161 155 188 117 _c
215 79 253 61 301 61 _c
}_e{348 61 385 79 413 117 _c
440 155 454 207 454 273 _c
454 339 440 390 413 428 _c
385 466 348 485 301 485 _c
253 485 215 466 188 428 _c
161 390 148 339 148 273 _c
_cl}_e}_d
/e{{615 0 55 -13 562 560 _sc
562 296 _m
562 252 _l
149 252 _l
153 190 171 142 205 110 _c
238 78 284 62 344 62 _c
378 62 412 66 444 74 _c
476 82 509 95 541 113 _c
541 28 _l
509 14 476 3 442 -3 _c
408 -9 373 -13 339 -13 _c
251 -13 182 12 131 62 _c
80 112 55 181 55 268 _c
55 357 79 428 127 481 _c
175 533 241 560 323 560 _c
397 560 455 536 498 489 _c
}_e{540 441 562 377 562 296 _c
472 322 _m
471 371 457 410 431 440 _c
404 469 368 484 324 484 _c
274 484 234 469 204 441 _c
174 413 156 373 152 322 _c
472 322 _l
_cl}_e}_d
/f{352 0 23 0 371 760 _sc
371 760 _m
371 685 _l
285 685 _l
253 685 230 678 218 665 _c
205 652 199 629 199 595 _c
199 547 _l
347 547 _l
347 477 _l
199 477 _l
199 0 _l
109 0 _l
109 477 _l
23 477 _l
23 547 _l
109 547 _l
109 585 _l
109 645 123 690 151 718 _c
179 746 224 760 286 760 _c
371 760 _l
_cl}_d
/i{278 0 94 0 184 760 _sc
94 547 _m
184 547 _l
184 0 _l
94 0 _l
94 547 _l
94 760 _m
184 760 _l
184 646 _l
94 646 _l
94 760 _l
_cl}_d
/m{{974 0 91 0 889 560 _sc
520 442 _m
542 482 569 511 600 531 _c
631 550 668 560 711 560 _c
767 560 811 540 842 500 _c
873 460 889 403 889 330 _c
889 0 _l
799 0 _l
799 327 _l
799 379 789 418 771 444 _c
752 469 724 482 686 482 _c
639 482 602 466 575 435 _c
548 404 535 362 535 309 _c
535 0 _l
445 0 _l
445 327 _l
445 379 435 418 417 444 _c
398 469 369 482 331 482 _c
}_e{285 482 248 466 221 435 _c
194 404 181 362 181 309 _c
181 0 _l
91 0 _l
91 547 _l
181 547 _l
181 462 _l
201 495 226 520 255 536 _c
283 552 317 560 357 560 _c
397 560 430 550 458 530 _c
486 510 506 480 520 442 _c
_cl}_e}_d
/n{634 0 91 0 549 560 _sc
549 330 _m
549 0 _l
459 0 _l
459 327 _l
459 379 448 417 428 443 _c
408 469 378 482 338 482 _c
289 482 251 466 223 435 _c
195 404 181 362 181 309 _c
181 0 _l
91 0 _l
91 547 _l
181 547 _l
181 462 _l
202 494 227 519 257 535 _c
286 551 320 560 358 560 _c
420 560 468 540 500 501 _c
532 462 549 405 549 330 _c
_cl}_d
/r{411 0 91 0 411 560 _sc
411 463 _m
401 469 390 473 378 476 _c
366 478 353 480 339 480 _c
288 480 249 463 222 430 _c
194 397 181 350 181 288 _c
181 0 _l
91 0 _l
91 547 _l
181 547 _l
181 462 _l
199 495 224 520 254 536 _c
284 552 321 560 365 560 _c
371 560 378 559 386 559 _c
393 558 401 557 411 555 _c
411 463 _l
_cl}_d
/s{{521 0 54 -13 472 560 _sc
443 531 _m
443 446 _l
417 458 391 468 364 475 _c
336 481 308 485 279 485 _c
234 485 200 478 178 464 _c
156 450 145 430 145 403 _c
145 382 153 366 169 354 _c
185 342 217 330 265 320 _c
296 313 _l
360 299 405 279 432 255 _c
458 230 472 195 472 151 _c
472 100 452 60 412 31 _c
372 1 316 -13 246 -13 _c
216 -13 186 -10 154 -5 _c
}_e{122 0 89 8 54 20 _c
54 113 _l
87 95 120 82 152 74 _c
184 65 216 61 248 61 _c
290 61 323 68 346 82 _c
368 96 380 117 380 144 _c
380 168 371 187 355 200 _c
339 213 303 226 247 238 _c
216 245 _l
160 257 119 275 95 299 _c
70 323 58 356 58 399 _c
58 450 76 490 112 518 _c
148 546 200 560 268 560 _c
301 560 332 557 362 552 _c
391 547 418 540 443 531 _c
}_e{_cl}_e}_d
/t{392 0 27 0 368 702 _sc
183 702 _m
183 547 _l
368 547 _l
368 477 _l
183 477 _l
183 180 _l
183 135 189 106 201 94 _c
213 81 238 75 276 75 _c
368 75 _l
368 0 _l
276 0 _l
206 0 158 13 132 39 _c
106 65 93 112 93 180 _c
93 477 _l
27 477 _l
27 547 _l
93 547 _l
93 702 _l
183 702 _l
_cl}_d
/v{592 0 30 0 562 547 _sc
30 547 _m
125 547 _l
296 88 _l
467 547 _l
562 547 _l
357 0 _l
235 0 _l
30 547 _l
_cl}_d
/minus{838 0 106 272 732 355 _sc
106 355 _m
732 355 _l
732 272 _l
106 272 _l
106 355 _l
_cl}_d
end readonly def

/BuildGlyph
 {exch begin
 CharStrings exch
 2 copy known not{pop /.notdef}if
 true 3 1 roll get exec
 end}_d

/BuildChar {
 1 index /Encoding get exch get
 1 index /BuildGlyph get exec
}_d

FontName currentdict end definefont pop
end
%%EndProlog
mpldict begin
75.6 223.2 translate
460.8 345.6 0 0 clipbox
gsave
0 0 m
460.8 0 l
460.8 345.6 l
0 345.6 l
cl
1.000 setgray
fill
grestore
gsave
57.6 38.016 m
414.72 38.016 l
414.72 304.128 l
57.6 304.128 l
cl
1.000 setgray
fill
grestore
gsave
357.1 266.1 57.6 38.02 clipbox
349.789091 40.088559 m
352.351735 38.016 l
353.396364 38.016 l
357.003636 38.016 l
360.610909 38.016 l
364.218182 38.016 l
367.825455 38.016 l
371.432727 38.016 l
375.04 38.016 l
378.647273 38.016 l
382.254545 38.016 l
385.861818 38.016 l
389.469091 38.016 l
393.076364 38.016 l
396.683636 38.016 l
400.290909 38.016 l
403.898182 38.016 l
407.505455 38.016 l
411.112727 38.016 l
414.72 38.016 l
414.72 40.704 l
414.72 43.392 l
414.72 46.08 l
414.72 48.768 l
414.72 51.456 l
414.72 54.144 l
414.72 56.832 l
414.72 59.52 l
414.72 62.208 l
414.72 64.896 l
414.72 67.584 l
414.72 70.272 l
414.72 72.96 l
414.72 75.648 l
414.72 78.336 l
414.72 81.024 l
414.72 83.712 l
414.72 86.4 l
414.72 89.088 l
414.72 91.776 l
414.72 94.464 l
414.72 97.152 l
414.72 99.84 l
414.72 102.528 l
414.72 105.216 l
414.72 107.904 l
414.72 110.592 l
414.72 113.28 l
414.72 115.968 l
414.72 118.656 l
414.72 121.344 l
414.72 124.032 l
414.72 126.72 l
414.72 129.408 l
414.72 132.096 l
414.72 134.784 l
414.72 137.472 l
414.72 140.16 l
414.72 142.848 l
414.72 145.536 l
414.72 148.224 l
414.72 150.912 l
414.72 153.6 l
414.72 156.288 l
414.72 158.976 l
414.72 161.664 l
414.72 164.352 l
414.72 167.04 l
414.72 169.728 l
414.72 172.416 l
414.72 175.104 l
414.72 177.792 l
414.72 180.48 l
414.72 183.168 l
414.72 185.856 l
414.72 188.544 l
414.72 191.232 l
414.72 193.92 l
414.72 196.608 l
414.72 199.296 l
414.72 201.984 l
414.72 204.672 l
414.72 207.36 l
414.72 210.048 l
414.72 212.736 l
414.72 215.424 l
414.72 218.112 l
414.72 220.8 l
414.72 223.488 l
414.72 226.176 l
414.72 228.864 l
414.72 231.552 l
414.72 234.24 l
414.72 236.928 l
414.72 239.616 l
414.72 242.304 l
414.72 244.992 l
414.72 247.68 l
414.72 250.368 l
414.72 253.056 l
414.72 255.744 l
414.72 258.432 l
414.72 261.12 l
414.72 263.808 l
414.72 266.496 l
414.72 269.184 l
414.72 269.572247 l
411.7542 271.872 l
411.112727 272.369477 l
408.26979 274.56 l
407.505455 275.149006 l
404.763833 277.248 l
403.898182 277.910829 l
401.235902 279.936 l
400.290909 280.654938 l
397.685561 282.624 l
396.683636 283.381327 l
394.11236 285.312 l
393.076364 286.089989 l
390.51584 288 l
389.469091 288.780917 l
386.895526 290.688 l
385.861818 291.454104 l
383.250933 293.376 l
382.254545 294.109543 l
379.581561 296.064 l
378.647273 296.747229 l
375.886898 298.752 l
375.04 299.367153 l
372.166415 301.44 l
371.432727 301.96931 l
368.419571 304.128 l
367.825455 304.128 l
364.218182 304.128 l
360.610909 304.128 l
357.003636 304.128 l
353.396364 304.128 l
349.789091 304.128 l
346.181818 304.128 l
342.574545 304.128 l
338.967273 304.128 l
335.36 304.128 l
331.752727 304.128 l
328.145455 304.128 l
324.538182 304.128 l
320.930909 304.128 l
317.323636 304.128 l
313.716364 304.128 l
310.109091 304.128 l
306.501818 304.128 l
302.894545 304.128 l
299.287273 304.128 l
295.68 304.128 l
292.072727 304.128 l
288.465455 304.128 l
284.858182 304.128 l
281.250909 304.128 l
277.643636 304.128 l
274.036364 304.128 l
270.429091 304.128 l
266.821818 304.128 l
263.214545 304.128 l
259.607273 304.128 l
256 304.128 l
252.392727 304.128 l
248.785455 304.128 l
245.178182 304.128 l
241.570909 304.128 l
237.963636 304.128 l
234.356364 304.128 l
230.749091 304.128 l
227.141818 304.128 l
223.534545 304.128 l
219.927273 304.128 l
216.32 304.128 l
212.712727 304.128 l
209.105455 304.128 l
205.498182 304.128 l
201.890909 304.128 l
198.283636 304.128 l
194.676364 304.128 l
191.069091 304.128 l
187.461818 304.128 l
183.854545 304.128 l
180.247273 304.128 l
176.64 304.128 l
173.032727 304.128 l
169.425455 304.128 l
165.818182 304.128 l
162.210909 304.128 l
158.603636 304.128 l
154.996364 304.128 l
151.389091 304.128 l
147.781818 304.128 l
144.174545 304.128 l
140.567273 304.128 l
136.96 304.128 l
133.352727 304.128 l
129.745455 304.128 l
126.138182 304.128 l
122.530909 304.128 l
118.923636 304.128 l
115.316364 304.128 l
111.709091 304.128 l
108.101818 304.128 l
104.494545 304.128 l
104.124094 304.128 l
104.494545 303.504551 l
105.72993 301.44 l
107.352987 298.752 l
108.101818 297.52986 l
109.006221 296.064 l
110.684568 293.376 l
111.709091 291.751772 l
112.384694 290.688 l
114.114976 288 l
115.316364 286.147084 l
115.86148 285.312 l
117.64054 282.624 l
118.923636 280.696104 l
119.432901 279.936 l
121.257769 277.248 l
122.530909 275.382014 l
123.095464 274.56 l
124.96334 271.872 l
126.138182 270.190361 l
126.845842 269.184 l
128.75409 266.496 l
129.745455 265.108661 l
130.680872 263.808 l
132.627003 261.12 l
133.352727 260.126068 l
134.597537 258.432 l
136.579206 255.744 l
136.96 255.233119 l
138.592965 253.056 l
140.567273 250.423233 l
140.608954 250.368 l
142.664415 247.68 l
144.174545 245.705454 l
144.723611 244.992 l
146.809273 242.304 l
147.781818 241.05612 l
148.911133 239.616 l
151.025042 236.928 l
151.389091 236.469262 l
153.169028 234.24 l
154.996364 231.950929 l
155.316783 231.552 l
157.494914 228.864 l
158.603636 227.498963 l
159.684724 226.176 l
161.886519 223.488 l
162.210909 223.095209 l
164.117834 220.8 l
165.818182 218.753055 l
166.353914 218.112 l
168.613946 215.424 l
169.425455 214.462533 l
170.891426 212.736 l
173.032727 210.213654 l
173.174204 210.048 l
175.489314 207.36 l
176.64 206.025126 l
177.813366 204.672 l
180.1456 201.984 l
180.247273 201.867778 l
182.510364 199.296 l
183.854545 197.768213 l
184.881375 196.608 l
187.263315 193.92 l
187.461818 193.697554 l
189.674885 191.232 l
191.069091 189.678474 l
192.093222 188.544 l
194.521982 185.856 l
194.676364 185.6863 l
196.980708 183.168 l
198.283636 181.743867 l
199.44672 180.48 l
201.890909 177.823588 l
201.920145 177.792 l
204.425709 175.104 l
205.498182 173.95348 l
206.939727 172.416 l
209.105455 170.10578 l
209.461685 169.728 l
212.007805 167.04 l
212.712727 166.2974 l
214.570144 164.352 l
216.32 162.518974 l
217.140948 161.664 l
219.724956 158.976 l
219.927273 158.766604 l
222.335914 156.288 l
223.534545 155.054367 l
224.955859 153.6 l
227.141818 151.362868 l
227.584947 150.912 l
230.23502 148.224 l
230.749091 147.703926 l
232.904386 145.536 l
234.356364 144.075297 l
235.583425 142.848 l
237.963636 140.46698 l
238.272307 140.16 l
240.984537 137.472 l
241.570909 136.89187 l
243.713789 134.784 l
245.178182 133.343324 l
246.453418 132.096 l
248.785455 129.814679 l
249.203608 129.408 l
251.97407 126.72 l
252.392727 126.314756 l
254.764692 124.032 l
256 122.842984 l
257.566415 121.344 l
259.607273 119.390722 l
260.379435 118.656 l
263.204185 115.968 l
263.214545 115.958184 l
266.057669 113.28 l
266.821818 112.560082 l
268.922995 110.592 l
270.429091 109.181109 l
271.800372 107.904 l
274.036364 105.821275 l
274.690013 105.216 l
277.593291 102.528 l
277.643636 102.481555 l
280.523737 99.84 l
281.250909 99.172966 l
283.467007 97.152 l
284.858182 95.88315 l
286.42333 94.464 l
288.465455 92.612116 l
289.392937 91.776 l
292.072727 89.359871 l
292.376067 89.088 l
295.379931 86.4 l
295.68 86.131903 l
298.404497 83.712 l
299.287273 82.927813 l
301.44317 81.024 l
302.894545 79.74216 l
304.496202 78.336 l
306.501818 76.574953 l
307.563852 75.648 l
310.109091 73.426198 l
310.646387 72.96 l
313.716364 70.295904 l
313.744077 70.272 l
316.867984 67.584 l
317.323636 67.191937 l
320.00802 64.896 l
320.930909 64.106555 l
323.163828 62.208 l
324.538182 61.039293 l
326.335697 59.52 l
328.145455 57.99016 l
329.523923 56.832 l
331.752727 54.959162 l
332.728808 54.144 l
335.36 51.946306 l
335.950662 51.456 l
338.967273 48.951599 l
339.189804 48.768 l
342.449592 46.08 l
342.574545 45.977074 l
345.732244 43.392 l
346.181818 43.023906 l
349.032847 40.704 l
cl
0.282 0.095 0.417 setrgbcolor
fill
grestore
gsave
357.1 266.1 57.6 38.02 clipbox
281.250909 38.334712 m
281.620747 38.016 l
284.858182 38.016 l
288.465455 38.016 l
292.072727 38.016 l
295.68 38.016 l
299.287273 38.016 l
302.894545 38.016 l
306.501818 38.016 l
310.109091 38.016 l
313.716364 38.016 l
317.323636 38.016 l
320.930909 38.016 l
324.538182 38.016 l
328.145455 38.016 l
331.752727 38.016 l
335.36 38.016 l
338.967273 38.016 l
342.574545 38.016 l
346.181818 38.016 l
349.789091 38.016 l
352.351735 38.016 l
349.789091 40.088559 l
349.032847 40.704 l
346.181818 43.023906 l
345.732244 43.392 l
342.574545 45.977074 l
342.449592 46.08 l
339.189804 48.768 l
338.967273 48.951599 l
335.950662 51.456 l
335.36 51.946306 l
332.728808 54.144 l
331.752727 54.959162 l
329.523923 56.832 l
328.145455 57.99016 l
326.335697 59.52 l
324.538182 61.039293 l
323.163828 62.208 l
320.930909 64.106555 l
320.00802 64.896 l
317.323636 67.191937 l
316.867984 67.584 l
313.744077 70.272 l
313.716364 70.295904 l
310.646387 72.96 l
310.109091 73.426198 l
307.563852 75.648 l
306.501818 76.574953 l
304.496202 78.336 l
302.894545 79.74216 l
301.44317 81.024 l
299.287273 82.927813 l
298.404497 83.712 l
295.68 86.131903 l
295.379931 86.4 l
292.376067 89.088 l
292.072727 89.359871 l
289.392937 91.776 l
288.465455 92.612116 l
286.42333 94.464 l
284.858182 95.88315 l
283.467007 97.152 l
281.250909 99.172966 l
280.523737 99.84 l
277.643636 102.481555 l
277.593291 102.528 l
274.690013 105.216 l
274.036364 105.821275 l
271.800372 107.904 l
270.429091 109.181109 l
268.922995 110.592 l
266.821818 112.560082 l
266.057669 113.28 l
263.214545 115.958184 l
263.204185 115.968 l
260.379435 118.656 l
259.607273 119.390722 l
257.566415 121.344 l
256 122.842984 l
254.764692 124.032 l
252.392727 126.314756 l
251.97407 126.72 l
249.203608 129.408 l
248.785455 129.814679 l
246.453418 132.096 l
245.178182 133.343324 l
243.713789 134.784 l
241.570909 136.89187 l
240.984537 137.472 l
238.272307 140.16 l
237.963636 140.46698 l
235.583425 142.848 l
234.356364 144.075297 l
232.904386 145.536 l
230.749091 147.703926 l
230.23502 148.224 l
227.584947 150.912 l
227.141818 151.362868 l
224.955859 153.6 l
223.534545 155.054367 l
222.335914 156.288 l
219.927273 158.766604 l
219.724956 158.976 l
217.140948 161.664 l
216.32 162.518974 l
214.570144 164.352 l
212.712727 166.2974 l
212.007805 167.04 l
209.461685 169.728 l
209.105455 170.10578 l
206.939727 172.416 l
205.498182 173.95348 l
204.425709 175.104 l
201.920145 177.792 l
201.890909 177.823588 l
199.44672 180.48 l
198.283636 181.743867 l
196.980708 183.168 l
194.676364 185.6863 l
194.521982 185.856 l
192.093222 188.544 l
191.069091 189.678474 l
189.674885 191.232 l
187.461818 193.697554 l
187.263315 193.92 l
184.881375 196.608 l
183.854545 197.768213 l
182.510364 199.296 l
180.247273 201.867778 l
180.1456 201.984 l
177.813366 204.672 l
176.64 206.025126 l
175.489314 207.36 l
173.174204 210.048 l
173.032727 210.213654 l
170.891426 212.736 l
169.425455 214.462533 l
168.613946 215.424 l
166.353914 218.112 l
165.818182 218.753055 l
164.117834 220.8 l
162.210909 223.095209 l
161.886519 223.488 l
159.684724 226.176 l
158.603636 227.498963 l
157.494914 228.864 l
155.316783 231.552 l
154.996364 231.950929 l
153.169028 234.24 l
151.389091 236.469262 l
151.025042 236.928 l
148.911133 239.616 l
147.781818 241.05612 l
146.809273 242.304 l
144.723611 244.992 l
144.174545 245.705454 l
142.664415 247.68 l
140.608954 250.368 l
140.567273 250.423233 l
138.592965 253.056 l
136.96 255.233119 l
136.579206 255.744 l
134.597537 258.432 l
133.352727 260.126068 l
132.627003 261.12 l
130.680872 263.808 l
129.745455 265.108661 l
128.75409 266.496 l
126.845842 269.184 l
126.138182 270.190361 l
124.96334 271.872 l
123.095464 274.56 l
122.530909 275.382014 l
121.257769 277.248 l
119.432901 279.936 l
118.923636 280.696104 l
117.64054 282.624 l
115.86148 285.312 l
115.316364 286.147084 l
114.114976 288 l
112.384694 290.688 l
111.709091 291.751772 l
110.684568 293.376 l
109.006221 296.064 l
108.101818 297.52986 l
107.352987 298.752 l
105.72993 301.44 l
104.494545 303.504551 l
104.124094 304.128 l
100.887273 304.128 l
97.28 304.128 l
93.672727 304.128 l
90.065455 304.128 l
86.458182 304.128 l
82.850909 304.128 l
79.243636 304.128 l
75.636364 304.128 l
72.029091 304.128 l
68.421818 304.128 l
64.814545 304.128 l
61.207273 304.128 l
57.6 304.128 l
57.6 301.44 l
57.6 298.752 l
57.6 296.064 l
57.6 293.376 l
57.6 290.688 l
57.6 288 l
57.6 285.312 l
57.6 282.624 l
57.6 279.936 l
57.6 277.248 l
57.6 274.56 l
57.6 271.872 l
57.6 269.184 l
57.6 266.496 l
57.6 265.538469 l
59.003042 263.808 l
61.182451 261.12 l
61.207273 261.08962 l
63.387917 258.432 l
64.814545 256.693094 l
65.596537 255.744 l
67.818388 253.056 l
68.421818 252.328978 l
70.056357 250.368 l
72.029091 248.000978 l
72.297745 247.68 l
74.560427 244.992 l
75.636364 243.715489 l
76.83111 242.304 l
79.107712 239.616 l
79.243636 239.456497 l
81.407413 236.928 l
82.850909 235.240981 l
83.711014 234.24 l
86.025651 231.552 l
86.458182 231.051859 l
88.358205 228.864 l
90.065455 226.897878 l
90.694922 226.176 l
93.046083 223.488 l
93.672727 222.77377 l
95.411681 220.8 l
97.28 218.679143 l
97.781705 218.112 l
100.167908 215.424 l
100.887273 214.615573 l
102.566735 212.736 l
104.494545 210.578233 l
104.970249 210.048 l
107.390042 207.36 l
108.101818 206.571072 l
109.822275 204.672 l
111.709091 202.589057 l
112.259457 201.984 l
114.711415 199.296 l
115.316364 198.634488 l
117.177226 196.608 l
118.923636 194.705935 l
119.648247 193.92 l
122.130974 191.232 l
122.530909 190.800428 l
124.630529 188.544 l
126.138182 186.923568 l
127.135552 185.856 l
129.64768 183.168 l
129.745455 183.063852 l
132.181137 180.48 l
133.352727 179.237002 l
134.720323 177.792 l
136.96 175.425296 l
137.265309 175.104 l
139.828022 172.416 l
140.567273 171.641604 l
142.401523 169.728 l
144.174545 167.878072 l
144.981085 167.04 l
147.570167 164.352 l
147.781818 164.133034 l
150.17813 161.664 l
151.389091 160.416155 l
152.792415 158.976 l
154.996364 156.713966 l
155.413102 156.288 l
158.049136 153.6 l
158.603636 153.03555 l
160.698286 150.912 l
162.210909 149.378346 l
163.354101 148.224 l
165.818182 145.735616 l
166.016663 145.536 l
168.6977 142.848 l
169.425455 142.118909 l
171.388777 140.16 l
173.032727 138.519575 l
174.086867 137.472 l
176.64 134.934504 l
176.792057 134.784 l
179.516139 132.096 l
180.247273 131.374947 l
182.249885 129.408 l
183.854545 127.831757 l
184.990999 126.72 l
187.461818 124.302629 l
187.739573 124.032 l
190.504737 121.344 l
191.069091 120.795983 l
193.281898 118.656 l
194.676364 117.307291 l
196.066787 115.968 l
198.283636 113.832462 l
198.859502 113.28 l
201.663779 110.592 l
201.890909 110.374787 l
204.4851 107.904 l
205.498182 106.939014 l
207.314519 105.216 l
209.105455 103.516913 l
210.152135 102.528 l
212.712727 100.108488 l
212.99805 99.84 l
215.859779 97.152 l
216.32 96.720182 l
218.734483 94.464 l
219.927273 93.349305 l
221.617763 91.776 l
223.534545 89.991916 l
224.509727 89.088 l
227.141818 86.648021 l
227.410482 86.4 l
230.32697 83.712 l
230.749091 83.323334 l
233.25668 81.024 l
234.356364 80.015547 l
236.195463 78.336 l
237.963636 76.721071 l
239.143435 75.648 l
241.570909 73.439909 l
242.10071 72.96 l
245.069177 70.272 l
245.178182 70.173493 l
248.055556 67.584 l
248.785455 66.927065 l
251.051525 64.896 l
252.392727 63.693774 l
254.057205 62.208 l
256 60.473624 l
257.072718 59.52 l
259.607273 57.266619 l
260.09819 56.832 l
263.13505 54.144 l
263.214545 54.073766 l
266.189927 51.456 l
266.821818 50.900004 l
269.255056 48.768 l
270.429091 47.739214 l
272.33057 46.08 l
274.036364 44.5914 l
275.416599 43.392 l
277.643636 41.456564 l
278.513279 40.704 l
cl
0.259 0.252 0.525 setrgbcolor
fill
grestore
gsave
357.1 266.1 57.6 38.02 clipbox
414.72 269.572247 m
414.72 271.872 l
414.72 274.56 l
414.72 277.248 l
414.72 279.936 l
414.72 282.624 l
414.72 285.312 l
414.72 288 l
414.72 290.688 l
414.72 293.376 l
414.72 296.064 l
414.72 298.752 l
414.72 301.44 l
414.72 304.128 l
411.112727 304.128 l
407.505455 304.128 l
403.898182 304.128 l
400.290909 304.128 l
396.683636 304.128 l
393.076364 304.128 l
389.469091 304.128 l
385.861818 304.128 l
382.254545 304.128 l
378.647273 304.128 l
375.04 304.128 l
371.432727 304.128 l
368.419571 304.128 l
371.432727 301.96931 l
372.166415 301.44 l
375.04 299.367153 l
375.886898 298.752 l
378.647273 296.747229 l
379.581561 296.064 l
382.254545 294.109543 l
383.250933 293.376 l
385.861818 291.454104 l
386.895526 290.688 l
389.469091 288.780917 l
390.51584 288 l
393.076364 286.089989 l
394.11236 285.312 l
396.683636 283.381327 l
397.685561 282.624 l
400.290909 280.654938 l
401.235902 279.936 l
403.898182 277.910829 l
404.763833 277.248 l
407.505455 275.149006 l
408.26979 274.56 l
411.112727 272.369477 l
411.7542 271.872 l
cl
0.259 0.252 0.525 setrgbcolor
fill
grestore
gsave
357.1 266.1 57.6 38.02 clipbox
227.141818 39.387817 m
228.688469 38.016 l
230.749091 38.016 l
234.356364 38.016 l
237.963636 38.016 l
241.570909 38.016 l
245.178182 38.016 l
248.785455 38.016 l
252.392727 38.016 l
256 38.016 l
259.607273 38.016 l
263.214545 38.016 l
266.821818 38.016 l
270.429091 38.016 l
274.036364 38.016 l
277.643636 38.016 l
281.250909 38.016 l
281.620747 38.016 l
281.250909 38.334712 l
278.513279 40.704 l
277.643636 41.456564 l
275.416599 43.392 l
274.036364 44.5914 l
272.33057 46.08 l
270.429091 47.739214 l
269.255056 48.768 l
266.821818 50.900004 l
266.189927 51.456 l
263.214545 54.073766 l
263.13505 54.144 l
260.09819 56.832 l
259.607273 57.266619 l
257.072718 59.52 l
256 60.473624 l
254.057205 62.208 l
252.392727 63.693774 l
251.051525 64.896 l
248.785455 66.927065 l
248.055556 67.584 l
245.178182 70.173493 l
245.069177 70.272 l
242.10071 72.96 l
241.570909 73.439909 l
239.143435 75.648 l
237.963636 76.721071 l
236.195463 78.336 l
234.356364 80.015547 l
233.25668 81.024 l
230.749091 83.323334 l
230.32697 83.712 l
227.410482 86.4 l
227.141818 86.648021 l
224.509727 89.088 l
223.534545 89.991916 l
221.617763 91.776 l
219.927273 93.349305 l
218.734483 94.464 l
216.32 96.720182 l
215.859779 97.152 l
212.99805 99.84 l
212.712727 100.108488 l
210.152135 102.528 l
209.105455 103.516913 l
207.314519 105.216 l
205.498182 106.939014 l
204.4851 107.904 l
201.890909 110.374787 l
201.663779 110.592 l
198.859502 113.28 l
198.283636 113.832462 l
196.066787 115.968 l
194.676364 117.307291 l
193.281898 118.656 l
191.069091 120.795983 l
190.504737 121.344 l
187.739573 124.032 l
187.461818 124.302629 l
184.990999 126.72 l
183.854545 127.831757 l
182.249885 129.408 l
180.247273 131.374947 l
179.516139 132.096 l
176.792057 134.784 l
176.64 134.934504 l
174.086867 137.472 l
173.032727 138.519575 l
171.388777 140.16 l
169.425455 142.118909 l
168.6977 142.848 l
166.016663 145.536 l
165.818182 145.735616 l
163.354101 148.224 l
162.210909 149.378346 l
160.698286 150.912 l
158.603636 153.03555 l
158.049136 153.6 l
155.413102 156.288 l
154.996364 156.713966 l
152.792415 158.976 l
151.389091 160.416155 l
150.17813 161.664 l
147.781818 164.133034 l
147.570167 164.352 l
144.981085 167.04 l
144.174545 167.878072 l
142.401523 169.728 l
140.567273 171.641604 l
139.828022 172.416 l
137.265309 175.104 l
136.96 175.425296 l
134.720323 177.792 l
133.352727 179.237002 l
132.181137 180.48 l
129.745455 183.063852 l
129.64768 183.168 l
127.135552 185.856 l
126.138182 186.923568 l
124.630529 188.544 l
122.530909 190.800428 l
122.130974 191.232 l
119.648247 193.92 l
118.923636 194.705935 l
117.177226 196.608 l
115.316364 198.634488 l
114.711415 199.296 l
112.259457 201.984 l
111.709091 202.589057 l
109.822275 204.672 l
108.101818 206.571072 l
107.390042 207.36 l
104.970249 210.048 l
104.494545 210.578233 l
102.566735 212.736 l
100.887273 214.615573 l
100.167908 215.424 l
97.781705 218.112 l
97.28 218.679143 l
95.411681 220.8 l
93.672727 222.77377 l
93.046083 223.488 l
90.694922 226.176 l
90.065455 226.897878 l
88.358205 228.864 l
86.458182 231.051859 l
86.025651 231.552 l
83.711014 234.24 l
82.850909 235.240981 l
81.407413 236.928 l
79.243636 239.456497 l
79.107712 239.616 l
76.83111 242.304 l
75.636364 243.715489 l
74.560427 244.992 l
72.297745 247.68 l
72.029091 248.000978 l
70.056357 250.368 l
68.421818 252.328978 l
67.818388 253.056 l
65.596537 255.744 l
64.814545 256.693094 l
63.387917 258.432 l
61.207273 261.08962 l
61.182451 261.12 l
59.003042 263.808 l
57.6 265.538469 l
57.6 263.808 l
57.6 261.12 l
57.6 258.432 l
57.6 255.744 l
57.6 253.056 l
57.6 250.368 l
57.6 247.68 l
57.6 244.992 l
57.6 242.304 l
57.6 239.616 l
57.6 236.928 l
57.6 234.24 l
57.6 231.552 l
57.6 228.864 l
57.6 226.176 l
57.6 223.488 l
57.6 220.8 l
57.6 218.112 l
57.6 215.424 l
57.6 212.736 l
57.6 210.048 l
57.6 207.36 l
57.6 205.140802 l
58.032326 204.672 l
60.517636 201.984 l
61.207273 201.239295 l
63.012922 199.296 l
64.814545 197.35686 l
65.512647 196.608 l
68.022087 193.92 l
68.421818 193.492924 l
70.54508 191.232 l
72.029091 189.651629 l
73.072685 188.544 l
75.605355 185.856 l
75.636364 185.823215 l
78.156158 183.168 l
79.243636 182.021976 l
80.711748 180.48 l
82.850909 178.233012 l
83.272172 177.792 l
85.845476 175.104 l
86.458182 174.464928 l
88.42915 172.416 l
90.065455 170.714822 l
91.017832 169.728 l
93.612359 167.04 l
93.672727 166.977669 l
96.224213 164.352 l
97.28 163.265422 l
98.84125 161.664 l
100.887273 159.565149 l
101.463522 158.976 l
104.096268 156.288 l
104.494545 155.882175 l
106.741754 153.6 l
108.101818 152.218654 l
109.39265 150.912 l
111.709091 148.566963 l
112.049011 148.224 l
114.718678 145.536 l
115.316364 144.934889 l
117.398288 142.848 l
118.923636 141.318885 l
120.08354 140.16 l
122.530909 137.714572 l
122.77449 137.472 l
125.479777 134.784 l
126.138182 134.130309 l
128.194006 132.096 l
129.745455 130.560659 l
130.91411 129.408 l
133.352727 127.002563 l
133.640151 126.72 l
136.379753 124.032 l
136.96 123.463205 l
139.129096 121.344 l
140.567273 119.938787 l
141.884554 118.656 l
144.174545 116.425789 l
144.646188 115.968 l
147.418796 113.28 l
147.781818 112.928597 l
150.20375 110.592 l
151.389091 109.44833 l
152.995061 107.904 l
154.996364 105.979353 l
155.792792 105.216 l
158.597094 102.528 l
158.603636 102.521746 l
161.418159 99.84 l
162.210909 99.084587 l
164.245825 97.152 l
165.818182 95.65859 l
167.080159 94.464 l
169.425455 92.243758 l
169.921229 91.776 l
172.772512 89.088 l
173.032727 88.843075 l
175.637036 86.4 l
176.64 85.459055 l
178.50848 83.712 l
180.247273 82.086075 l
181.386914 81.024 l
183.854545 78.724137 l
184.272409 78.336 l
187.168889 75.648 l
187.461818 75.376511 l
190.077951 72.96 l
191.069091 72.044416 l
192.994261 70.272 l
194.676364 68.723242 l
195.917891 67.584 l
198.283636 65.41299 l
198.848918 64.896 l
201.788766 62.208 l
201.890909 62.114773 l
204.743464 59.52 l
205.498182 58.833432 l
207.705748 56.832 l
209.105455 55.562893 l
210.675694 54.144 l
212.712727 52.303161 l
213.653383 51.456 l
216.32 49.054237 l
216.638892 48.768 l
219.636175 46.08 l
219.927273 45.81919 l
222.645564 43.392 l
223.534545 42.598158 l
225.662967 40.704 l
cl
0.199 0.388 0.555 setrgbcolor
fill
grestore
gsave
357.1 266.1 57.6 38.02 clipbox
183.854545 38.583139 m
184.483626 38.016 l
187.461818 38.016 l
191.069091 38.016 l
194.676364 38.016 l
198.283636 38.016 l
201.890909 38.016 l
205.498182 38.016 l
209.105455 38.016 l
212.712727 38.016 l
216.32 38.016 l
219.927273 38.016 l
223.534545 38.016 l
227.141818 38.016 l
228.688469 38.016 l
227.141818 39.387817 l
225.662967 40.704 l
223.534545 42.598158 l
222.645564 43.392 l
219.927273 45.81919 l
219.636175 46.08 l
216.638892 48.768 l
216.32 49.054237 l
213.653383 51.456 l
212.712727 52.303161 l
210.675694 54.144 l
209.105455 55.562893 l
207.705748 56.832 l
205.498182 58.833432 l
204.743464 59.52 l
201.890909 62.114773 l
201.788766 62.208 l
198.848918 64.896 l
198.283636 65.41299 l
195.917891 67.584 l
194.676364 68.723242 l
192.994261 70.272 l
191.069091 72.044416 l
190.077951 72.96 l
187.461818 75.376511 l
187.168889 75.648 l
184.272409 78.336 l
183.854545 78.724137 l
181.386914 81.024 l
180.247273 82.086075 l
178.50848 83.712 l
176.64 85.459055 l
175.637036 86.4 l
173.032727 88.843075 l
172.772512 89.088 l
169.921229 91.776 l
169.425455 92.243758 l
167.080159 94.464 l
165.818182 95.65859 l
164.245825 97.152 l
162.210909 99.084587 l
161.418159 99.84 l
158.603636 102.521746 l
158.597094 102.528 l
155.792792 105.216 l
154.996364 105.979353 l
152.995061 107.904 l
151.389091 109.44833 l
150.20375 110.592 l
147.781818 112.928597 l
147.418796 113.28 l
144.646188 115.968 l
144.174545 116.425789 l
141.884554 118.656 l
140.567273 119.938787 l
139.129096 121.344 l
136.96 123.463205 l
136.379753 124.032 l
133.640151 126.72 l
133.352727 127.002563 l
130.91411 129.408 l
129.745455 130.560659 l
128.194006 132.096 l
126.138182 134.130309 l
125.479777 134.784 l
122.77449 137.472 l
122.530909 137.714572 l
120.08354 140.16 l
118.923636 141.318885 l
117.398288 142.848 l
115.316364 144.934889 l
114.718678 145.536 l
112.049011 148.224 l
111.709091 148.566963 l
109.39265 150.912 l
108.101818 152.218654 l
106.741754 153.6 l
104.494545 155.882175 l
104.096268 156.288 l
101.463522 158.976 l
100.887273 159.565149 l
98.84125 161.664 l
97.28 163.265422 l
96.224213 164.352 l
93.672727 166.977669 l
93.612359 167.04 l
91.017832 169.728 l
90.065455 170.714822 l
88.42915 172.416 l
86.458182 174.464928 l
85.845476 175.104 l
83.272172 177.792 l
82.850909 178.233012 l
80.711748 180.48 l
79.243636 182.021976 l
78.156158 183.168 l
75.636364 185.823215 l
75.605355 185.856 l
73.072685 188.544 l
72.029091 189.651629 l
70.54508 191.232 l
68.421818 193.492924 l
68.022087 193.92 l
65.512647 196.608 l
64.814545 197.35686 l
63.012922 199.296 l
61.207273 201.239295 l
60.517636 201.984 l
58.032326 204.672 l
57.6 205.140802 l
57.6 204.672 l
57.6 201.984 l
57.6 199.296 l
57.6 196.608 l
57.6 193.92 l
57.6 191.232 l
57.6 188.544 l
57.6 185.856 l
57.6 183.168 l
57.6 180.48 l
57.6 177.792 l
57.6 175.104 l
57.6 172.416 l
57.6 169.728 l
57.6 167.04 l
57.6 164.352 l
57.6 161.664 l
57.6 159.594829 l
58.206661 158.976 l
60.844627 156.288 l
61.207273 155.919148 l
63.493994 153.6 l
64.814545 152.260622 l
66.148066 150.912 l
68.421818 148.612329 l
68.806886 148.224 l
71.476717 145.536 l
72.029091 144.980488 l
74.155663 142.848 l
75.636364 141.363071 l
76.839488 140.16 l
79.243636 137.755781 l
79.528235 137.472 l
82.228956 134.784 l
82.850909 134.16547 l
84.937851 132.096 l
86.458182 130.588288 l
87.651802 129.408 l
90.065455 127.021131 l
90.370851 126.72 l
93.101485 124.032 l
93.672727 123.470155 l
95.840701 121.344 l
97.28 119.932363 l
98.585151 118.656 l
100.887273 116.404494 l
101.334879 115.968 l
104.094445 113.28 l
104.494545 112.890769 l
106.864355 110.592 l
108.101818 109.391547 l
109.639679 107.904 l
111.709091 105.902149 l
112.420463 105.216 l
115.207978 102.528 l
115.316364 102.423697 l
118.008956 99.84 l
118.923636 98.96225 l
120.815529 97.152 l
122.530909 95.510531 l
123.627748 94.464 l
126.138182 92.068541 l
126.44566 91.776 l
129.274647 89.088 l
129.745455 88.641028 l
132.112847 86.4 l
133.352727 85.226219 l
134.956878 83.712 l
136.96 81.821045 l
137.806792 81.024 l
140.567273 78.425508 l
140.66264 78.336 l
143.531775 75.648 l
144.174545 75.045935 l
146.407999 72.96 l
147.781818 71.676833 l
149.290296 70.272 l
151.389091 68.317275 l
152.17872 67.584 l
154.996364 64.967263 l
155.073324 64.896 l
157.981257 62.208 l
158.603636 61.63278 l
160.89632 59.52 l
162.210909 58.308482 l
163.817705 56.832 l
165.818182 54.993639 l
166.745466 54.144 l
169.425455 51.688251 l
169.679661 51.456 l
172.625009 48.768 l
173.032727 48.39615 l
175.579741 46.08 l
176.64 45.115779 l
178.541049 43.392 l
180.247273 41.844775 l
181.508991 40.704 l
cl
0.149 0.508 0.557 setrgbcolor
fill
grestore
gsave
357.1 266.1 57.6 38.02 clipbox
144.174545 39.445082 m
145.741412 38.016 l
147.781818 38.016 l
151.389091 38.016 l
154.996364 38.016 l
158.603636 38.016 l
162.210909 38.016 l
165.818182 38.016 l
169.425455 38.016 l
173.032727 38.016 l
176.64 38.016 l
180.247273 38.016 l
183.854545 38.016 l
184.483626 38.016 l
183.854545 38.583139 l
181.508991 40.704 l
180.247273 41.844775 l
178.541049 43.392 l
176.64 45.115779 l
175.579741 46.08 l
173.032727 48.39615 l
172.625009 48.768 l
169.679661 51.456 l
169.425455 51.688251 l
166.745466 54.144 l
165.818182 54.993639 l
163.817705 56.832 l
162.210909 58.308482 l
160.89632 59.52 l
158.603636 61.63278 l
157.981257 62.208 l
155.073324 64.896 l
154.996364 64.967263 l
152.17872 67.584 l
151.389091 68.317275 l
149.290296 70.272 l
147.781818 71.676833 l
146.407999 72.96 l
144.174545 75.045935 l
143.531775 75.648 l
140.66264 78.336 l
140.567273 78.425508 l
137.806792 81.024 l
136.96 81.821045 l
134.956878 83.712 l
133.352727 85.226219 l
132.112847 86.4 l
129.745455 88.641028 l
129.274647 89.088 l
126.44566 91.776 l
126.138182 92.068541 l
123.627748 94.464 l
122.530909 95.510531 l
120.815529 97.152 l
118.923636 98.96225 l
118.008956 99.84 l
115.316364 102.423697 l
115.207978 102.528 l
112.420463 105.216 l
111.709091 105.902149 l
109.639679 107.904 l
108.101818 109.391547 l
106.864355 110.592 l
104.494545 112.890769 l
104.094445 113.28 l
101.334879 115.968 l
100.887273 116.404494 l
98.585151 118.656 l
97.28 119.932363 l
95.840701 121.344 l
93.672727 123.470155 l
93.101485 124.032 l
90.370851 126.72 l
90.065455 127.021131 l
87.651802 129.408 l
86.458182 130.588288 l
84.937851 132.096 l
82.850909 134.16547 l
82.228956 134.784 l
79.528235 137.472 l
79.243636 137.755781 l
76.839488 140.16 l
75.636364 141.363071 l
74.155663 142.848 l
72.029091 144.980488 l
71.476717 145.536 l
68.806886 148.224 l
68.421818 148.612329 l
66.148066 150.912 l
64.814545 152.260622 l
63.493994 153.6 l
61.207273 155.919148 l
60.844627 156.288 l
58.206661 158.976 l
57.6 159.594829 l
57.6 158.976 l
57.6 156.288 l
57.6 153.6 l
57.6 150.912 l
57.6 148.224 l
57.6 145.536 l
57.6 142.848 l
57.6 140.16 l
57.6 137.472 l
57.6 134.784 l
57.6 132.096 l
57.6 129.408 l
57.6 126.72 l
57.6 124.032 l
57.6 121.453574 l
57.711454 121.344 l
60.451026 118.656 l
61.207273 117.914165 l
63.196386 115.968 l
64.814545 114.384677 l
65.94646 113.28 l
68.421818 110.864052 l
68.701286 110.592 l
71.466574 107.904 l
72.029091 107.357579 l
74.239467 105.216 l
75.636364 103.862495 l
77.017219 102.528 l
79.243636 100.376195 l
79.799868 99.84 l
82.590085 97.152 l
82.850909 96.901085 l
85.39081 94.464 l
86.458182 93.439772 l
88.196541 91.776 l
90.065455 89.987164 l
91.007317 89.088 l
93.672727 86.543264 l
93.823177 86.4 l
96.650531 83.712 l
97.28 83.113756 l
99.484543 81.024 l
100.887273 79.694225 l
102.323748 78.336 l
104.494545 76.283326 l
105.168188 75.648 l
108.018745 72.96 l
108.101818 72.881796 l
110.881339 70.272 l
111.709091 69.494744 l
113.749278 67.584 l
115.316364 66.116249 l
116.622603 64.896 l
118.923636 62.746312 l
119.501358 62.208 l
122.387045 59.52 l
122.530909 59.386183 l
125.284022 56.832 l
126.138182 56.03951 l
128.186539 54.144 l
129.745455 52.701321 l
131.09464 51.456 l
133.352727 49.371619 l
134.00837 48.768 l
136.928097 46.08 l
136.96 46.050676 l
139.860113 43.392 l
140.567273 42.743672 l
142.797869 40.704 l
cl
0.121 0.626 0.533 setrgbcolor
fill
grestore
gsave
357.1 266.1 57.6 38.02 clipbox
108.101818 40.521105 m
110.824942 38.016 l
111.709091 38.016 l
115.316364 38.016 l
118.923636 38.016 l
122.530909 38.016 l
126.138182 38.016 l
129.745455 38.016 l
133.352727 38.016 l
136.96 38.016 l
140.567273 38.016 l
144.174545 38.016 l
145.741412 38.016 l
144.174545 39.445082 l
142.797869 40.704 l
140.567273 42.743672 l
139.860113 43.392 l
136.96 46.050676 l
136.928097 46.08 l
134.00837 48.768 l
133.352727 49.371619 l
131.09464 51.456 l
129.745455 52.701321 l
128.186539 54.144 l
126.138182 56.03951 l
125.284022 56.832 l
122.530909 59.386183 l
122.387045 59.52 l
119.501358 62.208 l
118.923636 62.746312 l
116.622603 64.896 l
115.316364 66.116249 l
113.749278 67.584 l
111.709091 69.494744 l
110.881339 70.272 l
108.101818 72.881796 l
108.018745 72.96 l
105.168188 75.648 l
104.494545 76.283326 l
102.323748 78.336 l
100.887273 79.694225 l
99.484543 81.024 l
97.28 83.113756 l
96.650531 83.712 l
93.823177 86.4 l
93.672727 86.543264 l
91.007317 89.088 l
90.065455 89.987164 l
88.196541 91.776 l
86.458182 93.439772 l
85.39081 94.464 l
82.850909 96.901085 l
82.590085 97.152 l
79.799868 99.84 l
79.243636 100.376195 l
77.017219 102.528 l
75.636364 103.862495 l
74.239467 105.216 l
72.029091 107.357579 l
71.466574 107.904 l
68.701286 110.592 l
68.421818 110.864052 l
65.94646 113.28 l
64.814545 114.384677 l
63.196386 115.968 l
61.207273 117.914165 l
60.451026 118.656 l
57.711454 121.344 l
57.6 121.453574 l
57.6 121.344 l
57.6 118.656 l
57.6 115.968 l
57.6 113.28 l
57.6 110.592 l
57.6 107.904 l
57.6 105.216 l
57.6 102.528 l
57.6 99.84 l
57.6 97.152 l
57.6 94.464 l
57.6 91.776 l
57.6 89.088 l
57.6 87.976353 l
59.247399 86.4 l
61.207273 84.524541 l
62.058406 83.712 l
64.814545 81.080678 l
64.874054 81.024 l
67.701032 78.336 l
68.421818 77.650707 l
70.533252 75.648 l
72.029091 74.229107 l
73.370205 72.96 l
75.636364 70.815393 l
76.211924 70.272 l
79.060139 67.584 l
79.243636 67.411052 l
81.918433 64.896 l
82.850909 64.019164 l
84.781586 62.208 l
86.458182 60.635099 l
87.649631 59.52 l
90.065455 57.258858 l
90.522604 56.832 l
93.403039 54.144 l
93.672727 53.892586 l
96.292645 51.456 l
97.28 50.537684 l
99.187271 48.768 l
100.887273 47.190545 l
102.086954 46.08 l
104.494545 43.851169 l
104.991731 43.392 l
107.903479 40.704 l
cl
0.246 0.739 0.452 setrgbcolor
fill
grestore
gsave
357.1 266.1 57.6 38.02 clipbox
79.243636 38.016 m
82.850909 38.016 l
86.458182 38.016 l
90.065455 38.016 l
93.672727 38.016 l
97.28 38.016 l
100.887273 38.016 l
104.494545 38.016 l
108.101818 38.016 l
110.824942 38.016 l
108.101818 40.521105 l
107.903479 40.704 l
104.991731 43.392 l
104.494545 43.851169 l
102.086954 46.08 l
100.887273 47.190545 l
99.187271 48.768 l
97.28 50.537684 l
96.292645 51.456 l
93.672727 53.892586 l
93.403039 54.144 l
90.522604 56.832 l
90.065455 57.258858 l
87.649631 59.52 l
86.458182 60.635099 l
84.781586 62.208 l
82.850909 64.019164 l
81.918433 64.896 l
79.243636 67.411052 l
79.060139 67.584 l
76.211924 70.272 l
75.636364 70.815393 l
73.370205 72.96 l
72.029091 74.229107 l
70.533252 75.648 l
68.421818 77.650707 l
67.701032 78.336 l
64.874054 81.024 l
64.814545 81.080678 l
62.058406 83.712 l
61.207273 84.524541 l
59.247399 86.4 l
57.6 87.976353 l
57.6 86.4 l
57.6 83.712 l
57.6 81.024 l
57.6 78.336 l
57.6 75.648 l
57.6 72.96 l
57.6 70.272 l
57.6 67.584 l
57.6 64.896 l
57.6 62.208 l
57.6 59.52 l
57.6 57.776866 l
58.606382 56.832 l
61.207273 54.389965 l
61.469817 54.144 l
64.341852 51.456 l
64.814545 51.013827 l
67.220681 48.768 l
68.421818 47.64683 l
70.104109 46.08 l
72.029091 44.287042 l
72.992165 43.392 l
75.636364 40.934464 l
75.884882 40.704 l
78.78622 38.016 l
cl
0.516 0.831 0.294 setrgbcolor
fill
grestore
gsave
357.1 266.1 57.6 38.02 clipbox
61.207273 38.016 m
64.814545 38.016 l
68.421818 38.016 l
72.029091 38.016 l
75.636364 38.016 l
78.78622 38.016 l
75.884882 40.704 l
75.636364 40.934464 l
72.992165 43.392 l
72.029091 44.287042 l
70.104109 46.08 l
68.421818 47.64683 l
67.220681 48.768 l
64.814545 51.013827 l
64.341852 51.456 l
61.469817 54.144 l
61.207273 54.389965 l
58.606382 56.832 l
57.6 57.776866 l
57.6 56.832 l
57.6 54.144 l
57.6 51.456 l
57.6 48.768 l
57.6 46.08 l
57.6 43.392 l
57.6 40.704 l
57.6 38.016 l
cl
0.846 0.887 0.100 setrgbcolor
fill
grestore
0.800 setlinewidth
1 setlinejoin
0 setlinecap
[] 0 setdash
0.000 setgray
gsave
/o {
gsave
newpath
translate
0.8 setlinewidth
1 setlinejoin
0 setlinecap
0 0 m
0 -3.5 l

gsave
0.000 setgray
fill
grestore
stroke
grestore
} bind def
93.6727 38.016 o
grestore
/DejaVuSans findfont
10.000 scalefont
setfont
gsave
81.532102 23.422250 translate
0.000000 rotate
0.000000 0.000000 m /minus glyphshow
8.378906 0.000000 m /zero glyphshow
14.741211 0.000000 m /period glyphshow
17.919922 0.000000 m /four glyphshow
grestore
gsave
/o {
gsave
newpath
translate
0.8 setlinewidth
1 setlinejoin
0 setlinecap
0 0 m
0 -3.5 l

gsave
0.000 setgray
fill
grestore
stroke
grestore
} bind def
165.818 38.016 o
grestore
gsave
153.677557 23.422250 translate
0.000000 rotate
0.000000 0.000000 m /minus glyphshow
8.378906 0.000000 m /zero glyphshow
14.741211 0.000000 m /period glyphshow
17.919922 0.000000 m /two glyphshow
grestore
gsave
/o {
gsave
newpath
translate
0.8 setlinewidth
1 setlinejoin
0 setlinecap
0 0 m
0 -3.5 l

gsave
0.000 setgray
fill
grestore
stroke
grestore
} bind def
237.964 38.016 o
grestore
gsave
230.010511 23.422250 translate
0.000000 rotate
0.000000 0.000000 m /zero glyphshow
6.362305 0.000000 m /period glyphshow
9.541016 0.000000 m /zero glyphshow
grestore
gsave
/o {
gsave
newpath
translate
0.8 setlinewidth
1 setlinejoin
0 setlinecap
0 0 m
0 -3.5 l

gsave
0.000 setgray
fill
grestore
stroke
grestore
} bind def
310.109 38.016 o
grestore
gsave
302.155966 23.422250 translate
0.000000 rotate
0.000000 0.000000 m /zero glyphshow
6.362305 0.000000 m /period glyphshow
9.541016 0.000000 m /two glyphshow
grestore
gsave
/o {
gsave
newpath
translate
0.8 setlinewidth
1 setlinejoin
0 setlinecap
0 0 m
0 -3.5 l

gsave
0.000 setgray
fill
grestore
stroke
grestore
} bind def
382.255 38.016 o
grestore
gsave
374.301420 23.422250 translate
0.000000 rotate
0.000000 0.000000 m /zero glyphshow
6.362305 0.000000 m /period glyphshow
9.541016 0.000000 m /four glyphshow
grestore
gsave
212.847500 9.750375 translate
0.000000 rotate
0.000000 0.000000 m /v glyphshow
5.917969 0.000000 m /underscore glyphshow
10.917969 0.000000 m /zero glyphshow
17.280273 0.000000 m /space glyphshow
20.458984 0.000000 m /parenleft glyphshow
24.360352 0.000000 m /m glyphshow
34.101562 0.000000 m /slash glyphshow
37.470703 0.000000 m /s glyphshow
42.680664 0.000000 m /parenright glyphshow
grestore
gsave
/o {
gsave
newpath
translate
0.8 setlinewidth
1 setlinejoin
0 setlinecap
0 0 m
-3.5 0 l

gsave
0.000 setgray
fill
grestore
stroke
grestore
} bind def
57.6 64.896 o
grestore
gsave
26.318750 61.099125 translate
0.000000 rotate
0.000000 0.000000 m /minus glyphshow
8.378906 0.000000 m /zero glyphshow
14.741211 0.000000 m /period glyphshow
17.919922 0.000000 m /four glyphshow
grestore
gsave
/o {
gsave
newpath
translate
0.8 setlinewidth
1 setlinejoin
0 setlinecap
0 0 m
-3.5 0 l

gsave
0.000 setgray
fill
grestore
stroke
grestore
} bind def
57.6 118.656 o
grestore
gsave
26.318750 114.859125 translate
0.000000 rotate
0.000000 0.000000 m /minus glyphshow
8.378906 0.000000 m /zero glyphshow
14.741211 0.000000 m /period glyphshow
17.919922 0.000000 m /two glyphshow
grestore
gsave
/o {
gsave
newpath
translate
0.8 setlinewidth
1 setlinejoin
0 setlinecap
0 0 m
-3.5 0 l

gsave
0.000 setgray
fill
grestore
stroke
grestore
} bind def
57.6 172.416 o
grestore
gsave
34.693750 168.619125 translate
0.000000 rotate
0.000000 0.000000 m /zero glyphshow
6.362305 0.000000 m /period glyphshow
9.541016 0.000000 m /zero glyphshow
grestore
gsave
/o {
gsave
newpath
translate
0.8 setlinewidth
1 setlinejoin
0 setlinecap
0 0 m
-3.5 0 l

gsave
0.000 setgray
fill
grestore
stroke
grestore
} bind def
57.6 226.176 o
grestore
gsave
34.693750 222.379125 translate
0.000000 rotate
0.000000 0.000000 m /zero glyphshow
6.362305 0.000000 m /period glyphshow
9.541016 0.000000 m /two glyphshow
grestore
gsave
/o {
gsave
newpath
translate
0.8 setlinewidth
1 setlinejoin
0 setlinecap
0 0 m
-3.5 0 l

gsave
0.000 setgray
fill
grestore
stroke
grestore
} bind def
57.6 279.936 o
grestore
gsave
34.693750 276.139125 translate
0.000000 rotate
0.000000 0.000000 m /zero glyphshow
6.362305 0.000000 m /period glyphshow
9.541016 0.000000 m /four glyphshow
grestore
gsave
20.240625 147.275125 translate
90.000000 rotate
0.000000 0.000000 m /f glyphshow
3.520508 0.000000 m /space glyphshow
6.699219 0.000000 m /parenleft glyphshow
10.600586 0.000000 m /m glyphshow
20.341797 0.000000 m /slash glyphshow
23.710938 0.000000 m /s glyphshow
28.920898 0.000000 m /asciicircum glyphshow
37.299805 0.000000 m /two glyphshow
43.662109 0.000000 m /parenright glyphshow
grestore
1.500 setlinewidth
2 setlinecap
0.122 0.467 0.706 setrgbcolor
gsave
357.1 266.1 57.6 38.02 clipbox
237.963636 172.416 m
250.895597 179.050796 l
261.874417 184.48283 l
271.215046 188.908533 l
279.181399 192.492482 l
285.994631 195.372556 l
291.840067 197.66427 l
296.873009 199.464397 l
301.223604 200.854008 l
305.000917 201.901014 l
308.296357 202.662306 l
311.186529 203.185534 l
313.73564 203.51061 l
315.997506 203.670962 l
319.832641 203.604913 l
322.972169 203.161013 l
325.613075 202.460947 l
327.893893 201.589939 l
329.912117 200.607619 l
332.591594 199.013012 l
335.732681 196.790612 l
339.227077 194.008637 l
344.791436 189.242293 l
359.361002 176.330374 l
394.292257 145.262238 l
394.292257 145.262238 l
stroke
grestore
1.000 setlinewidth
0 setlinecap
gsave
357.1 266.1 57.6 38.02 clipbox
/o {
gsave
newpath
translate
1.0 setlinewidth
1 setlinejoin
0 setlinecap
0 -1.25 m
0.331504 -1.25 0.649475 -1.118292 0.883883 -0.883883 c
1.118292 -0.649475 1.25 -0.331504 1.25 0 c
1.25 0.331504 1.118292 0.649475 0.883883 0.883883 c
0.649475 1.118292 0.331504 1.25 0 1.25 c
-0.331504 1.25 -0.649475 1.118292 -0.883883 0.883883 c
-1.118292 0.649475 -1.25 0.331504 -1.25 0 c
-1.25 -0.331504 -1.118292 -0.649475 -0.883883 -0.883883 c
-0.649475 -1.118292 -0.331504 -1.25 0 -1.25 c
cl

gsave
0.122 0.467 0.706 setrgbcolor
fill
grestore
stroke
grestore
} bind def
237.964 172.416 o
250.896 179.051 o
261.874 184.483 o
271.215 188.909 o
279.181 192.492 o
285.995 195.373 o
291.84 197.664 o
296.873 199.464 o
301.224 200.854 o
305.001 201.901 o
308.296 202.662 o
311.187 203.186 o
313.736 203.511 o
315.998 203.671 o
318.017 203.695 o
319.833 203.605 o
321.475 203.422 o
322.972 203.161 o
324.345 202.837 o
325.613 202.461 o
326.792 202.043 o
327.894 201.59 o
328.931 201.11 o
329.912 200.608 o
330.845 200.088 o
331.736 199.556 o
332.592 199.013 o
333.415 198.463 o
334.211 197.908 o
334.983 197.35 o
335.733 196.791 o
336.463 196.231 o
337.176 195.672 o
337.874 195.115 o
338.557 194.56 o
339.227 194.009 o
339.885 193.461 o
340.532 192.917 o
341.168 192.377 o
341.794 191.842 o
342.41 191.312 o
343.018 190.787 o
343.617 190.267 o
344.208 189.752 o
344.791 189.242 o
345.367 188.738 o
345.935 188.239 o
346.496 187.745 o
347.05 187.257 o
347.597 186.774 o
348.138 186.297 o
348.671 185.825 o
349.199 185.358 o
349.72 184.896 o
350.235 184.439 o
350.744 183.988 o
351.247 183.542 o
351.744 183.101 o
352.235 182.665 o
352.72 182.234 o
353.2 181.807 o
353.674 181.386 o
354.143 180.97 o
354.606 180.558 o
355.064 180.151 o
355.517 179.749 o
355.964 179.351 o
356.406 178.958 o
356.843 178.569 o
357.275 178.185 o
357.702 177.806 o
358.124 177.43 o
358.541 177.06 o
358.953 176.693 o
359.361 176.33 o
359.764 175.972 o
360.162 175.618 o
360.556 175.268 o
360.945 174.922 o
361.329 174.58 o
361.71 174.242 o
362.085 173.907 o
362.457 173.577 o
362.824 173.251 o
363.187 172.928 o
363.546 172.609 o
363.9 172.293 o
364.251 171.982 o
364.597 171.673 o
364.94 171.369 o
365.278 171.068 o
365.613 170.77 o
365.943 170.476 o
366.27 170.185 o
366.594 169.898 o
366.913 169.614 o
367.229 169.333 o
367.541 169.055 o
367.849 168.781 o
368.154 168.51 o
368.456 168.242 o
368.754 167.977 o
369.048 167.715 o
369.339 167.456 o
369.627 167.2 o
369.912 166.947 o
370.193 166.697 o
370.471 166.449 o
370.746 166.205 o
371.017 165.964 o
371.285 165.725 o
371.551 165.489 o
371.813 165.256 o
372.072 165.025 o
372.329 164.797 o
372.582 164.572 o
372.832 164.349 o
373.08 164.129 o
373.324 163.911 o
373.566 163.696 o
373.805 163.484 o
374.042 163.274 o
374.275 163.066 o
374.506 162.86 o
374.734 162.658 o
374.96 162.457 o
375.183 162.259 o
375.403 162.063 o
375.621 161.869 o
375.836 161.677 o
376.049 161.488 o
376.259 161.301 o
376.467 161.116 o
376.673 160.933 o
376.876 160.752 o
377.077 160.574 o
377.276 160.397 o
377.472 160.223 o
377.666 160.05 o
377.858 159.879 o
378.047 159.711 o
378.234 159.544 o
378.42 159.38 o
378.603 159.217 o
378.784 159.056 o
378.963 158.897 o
379.139 158.739 o
379.314 158.584 o
379.487 158.43 o
379.658 158.279 o
379.826 158.128 o
379.993 157.98 o
380.158 157.833 o
380.321 157.688 o
380.482 157.545 o
380.642 157.403 o
380.799 157.263 o
380.955 157.125 o
381.108 156.988 o
381.26 156.853 o
381.411 156.719 o
381.559 156.587 o
381.706 156.456 o
381.851 156.327 o
381.995 156.2 o
382.137 156.074 o
382.277 155.949 o
382.415 155.826 o
382.552 155.704 o
382.688 155.583 o
382.822 155.464 o
382.954 155.347 o
383.085 155.23 o
383.214 155.115 o
383.342 155.002 o
383.468 154.889 o
383.593 154.778 o
383.716 154.669 o
383.838 154.56 o
383.959 154.453 o
384.078 154.347 o
384.196 154.242 o
384.312 154.139 o
384.427 154.036 o
384.541 153.935 o
384.654 153.835 o
384.765 153.736 o
384.875 153.638 o
384.983 153.542 o
385.091 153.446 o
385.197 153.352 o
385.302 153.259 o
385.405 153.166 o
385.508 153.075 o
385.609 152.985 o
385.709 152.896 o
385.808 152.808 o
385.906 152.721 o
386.003 152.635 o
386.098 152.55 o
386.193 152.466 o
386.286 152.383 o
386.379 152.301 o
386.47 152.22 o
386.56 152.139 o
386.649 152.06 o
386.737 151.982 o
386.825 151.904 o
386.911 151.827 o
386.996 151.752 o
387.08 151.677 o
387.163 151.603 o
387.245 151.53 o
387.327 151.457 o
387.407 151.386 o
387.486 151.315 o
387.565 151.246 o
387.643 151.177 o
387.719 151.108 o
387.795 151.041 o
387.87 150.974 o
387.944 150.908 o
388.017 150.843 o
388.09 150.779 o
388.161 150.715 o
388.232 150.652 o
388.302 150.59 o
388.371 150.529 o
388.439 150.468 o
388.507 150.408 o
388.573 150.349 o
388.639 150.29 o
388.705 150.232 o
388.769 150.175 o
388.833 150.118 o
388.896 150.062 o
388.958 150.007 o
389.019 149.952 o
389.08 149.898 o
389.14 149.844 o
389.2 149.792 o
389.259 149.739 o
389.317 149.688 o
389.374 149.637 o
389.431 149.586 o
389.487 149.536 o
389.542 149.487 o
389.597 149.438 o
389.651 149.39 o
389.705 149.342 o
389.758 149.295 o
389.81 149.249 o
389.862 149.203 o
389.913 149.157 o
389.963 149.113 o
390.013 149.068 o
390.063 149.024 o
390.111 148.981 o
390.16 148.938 o
390.207 148.896 o
390.254 148.854 o
390.301 148.812 o
390.347 148.771 o
390.392 148.731 o
390.437 148.691 o
390.482 148.651 o
390.526 148.612 o
390.569 148.573 o
390.612 148.535 o
390.655 148.498 o
390.697 148.46 o
390.738 148.423 o
390.779 148.387 o
390.82 148.351 o
390.86 148.315 o
390.899 148.28 o
390.938 148.245 o
390.977 148.211 o
391.015 148.177 o
391.053 148.143 o
391.091 148.11 o
391.127 148.077 o
391.164 148.045 o
391.2 148.012 o
391.236 147.981 o
391.271 147.949 o
391.306 147.918 o
391.34 147.888 o
391.374 147.857 o
391.408 147.828 o
391.441 147.798 o
391.474 147.769 o
391.507 147.74 o
391.539 147.711 o
391.571 147.683 o
391.602 147.655 o
391.633 147.627 o
391.664 147.6 o
391.694 147.573 o
391.724 147.547 o
391.754 147.52 o
391.783 147.494 o
391.812 147.468 o
391.84 147.443 o
391.869 147.418 o
391.897 147.393 o
391.924 147.368 o
391.952 147.344 o
391.979 147.32 o
392.005 147.296 o
392.032 147.273 o
392.058 147.25 o
392.084 147.227 o
392.109 147.204 o
392.134 147.182 o
392.159 147.159 o
392.184 147.138 o
392.208 147.116 o
392.232 147.095 o
392.256 147.073 o
392.279 147.053 o
392.303 147.032 o
392.326 147.011 o
392.348 146.991 o
392.371 146.971 o
392.393 146.952 o
392.415 146.932 o
392.436 146.913 o
392.458 146.894 o
392.479 146.875 o
392.5 146.856 o
392.521 146.838 o
392.541 146.82 o
392.561 146.802 o
392.581 146.784 o
392.601 146.767 o
392.62 146.749 o
392.64 146.732 o
392.659 146.715 o
392.678 146.698 o
392.696 146.682 o
392.715 146.665 o
392.733 146.649 o
392.751 146.633 o
392.769 146.617 o
392.786 146.602 o
392.804 146.586 o
392.821 146.571 o
392.838 146.556 o
392.855 146.541 o
392.871 146.526 o
392.888 146.512 o
392.904 146.497 o
392.92 146.483 o
392.936 146.469 o
392.951 146.455 o
392.967 146.441 o
392.982 146.428 o
392.997 146.414 o
393.012 146.401 o
393.027 146.388 o
393.041 146.375 o
393.056 146.362 o
393.07 146.349 o
393.084 146.337 o
393.098 146.324 o
393.112 146.312 o
393.126 146.3 o
393.139 146.288 o
393.152 146.276 o
393.166 146.264 o
393.179 146.253 o
393.191 146.241 o
393.204 146.23 o
393.217 146.219 o
393.229 146.208 o
393.241 146.197 o
393.253 146.186 o
393.265 146.175 o
393.277 146.165 o
393.289 146.155 o
393.301 146.144 o
393.312 146.134 o
393.323 146.124 o
393.335 146.114 o
393.346 146.104 o
393.357 146.094 o
393.367 146.085 o
393.378 146.075 o
393.389 146.066 o
393.399 146.057 o
393.409 146.048 o
393.419 146.038 o
393.43 146.03 o
393.44 146.021 o
393.449 146.012 o
393.459 146.003 o
393.469 145.995 o
393.478 145.986 o
393.488 145.978 o
393.497 145.97 o
393.506 145.961 o
393.515 145.953 o
393.524 145.945 o
393.533 145.938 o
393.542 145.93 o
393.55 145.922 o
393.559 145.914 o
393.567 145.907 o
393.576 145.899 o
393.584 145.892 o
393.592 145.885 o
393.6 145.878 o
393.608 145.871 o
393.616 145.864 o
393.624 145.857 o
393.632 145.85 o
393.639 145.843 o
393.647 145.836 o
393.654 145.83 o
393.662 145.823 o
393.669 145.817 o
393.676 145.81 o
393.683 145.804 o
393.69 145.798 o
393.697 145.791 o
393.704 145.785 o
393.711 145.779 o
393.718 145.773 o
393.724 145.767 o
393.731 145.762 o
393.737 145.756 o
393.744 145.75 o
393.75 145.744 o
393.756 145.739 o
393.763 145.733 o
393.769 145.728 o
393.775 145.723 o
393.781 145.717 o
393.787 145.712 o
393.792 145.707 o
393.798 145.702 o
393.804 145.697 o
393.81 145.692 o
393.815 145.687 o
393.821 145.682 o
393.826 145.677 o
393.831 145.672 o
393.837 145.667 o
393.842 145.663 o
393.847 145.658 o
393.852 145.653 o
393.857 145.649 o
393.862 145.644 o
393.867 145.64 o
393.872 145.636 o
393.877 145.631 o
393.882 145.627 o
393.887 145.623 o
393.891 145.619 o
393.896 145.615 o
393.901 145.611 o
393.905 145.607 o
393.91 145.603 o
393.914 145.599 o
393.918 145.595 o
393.923 145.591 o
393.927 145.587 o
393.931 145.583 o
393.935 145.58 o
393.94 145.576 o
393.944 145.572 o
393.948 145.569 o
393.952 145.565 o
393.956 145.562 o
393.959 145.558 o
393.963 145.555 o
393.967 145.551 o
393.971 145.548 o
393.975 145.545 o
393.978 145.542 o
393.982 145.538 o
393.985 145.535 o
393.989 145.532 o
393.993 145.529 o
393.996 145.526 o
393.999 145.523 o
394.003 145.52 o
394.006 145.517 o
394.009 145.514 o
394.013 145.511 o
394.016 145.508 o
394.019 145.505 o
394.022 145.502 o
394.025 145.5 o
394.029 145.497 o
394.032 145.494 o
394.035 145.491 o
394.038 145.489 o
394.041 145.486 o
394.043 145.484 o
394.046 145.481 o
394.049 145.478 o
394.052 145.476 o
394.055 145.473 o
394.057 145.471 o
394.06 145.469 o
394.063 145.466 o
394.066 145.464 o
394.068 145.462 o
394.071 145.459 o
394.073 145.457 o
394.076 145.455 o
394.078 145.452 o
394.081 145.45 o
394.083 145.448 o
394.086 145.446 o
394.088 145.444 o
394.09 145.442 o
394.093 145.44 o
394.095 145.438 o
394.097 145.436 o
394.1 145.434 o
394.102 145.432 o
394.104 145.43 o
394.106 145.428 o
394.108 145.426 o
394.111 145.424 o
394.113 145.422 o
394.115 145.42 o
394.117 145.418 o
394.119 145.417 o
394.121 145.415 o
394.123 145.413 o
394.125 145.411 o
394.127 145.409 o
394.129 145.408 o
394.131 145.406 o
394.132 145.404 o
394.134 145.403 o
394.136 145.401 o
394.138 145.4 o
394.14 145.398 o
394.141 145.396 o
394.143 145.395 o
394.145 145.393 o
394.147 145.392 o
394.148 145.39 o
394.15 145.389 o
394.152 145.387 o
394.153 145.386 o
394.155 145.384 o
394.156 145.383 o
394.158 145.382 o
394.16 145.38 o
394.161 145.379 o
394.163 145.378 o
394.164 145.376 o
394.166 145.375 o
394.167 145.374 o
394.169 145.372 o
394.17 145.371 o
394.171 145.37 o
394.173 145.368 o
394.174 145.367 o
394.176 145.366 o
394.177 145.365 o
394.178 145.364 o
394.18 145.362 o
394.181 145.361 o
394.182 145.36 o
394.183 145.359 o
394.185 145.358 o
394.186 145.357 o
394.187 145.356 o
394.188 145.355 o
394.19 145.353 o
394.191 145.352 o
394.192 145.351 o
394.193 145.35 o
394.194 145.349 o
394.195 145.348 o
394.197 145.347 o
394.198 145.346 o
394.199 145.345 o
394.2 145.344 o
394.201 145.343 o
394.202 145.342 o
394.203 145.342 o
394.204 145.341 o
394.205 145.34 o
394.206 145.339 o
394.207 145.338 o
394.208 145.337 o
394.209 145.336 o
394.21 145.335 o
394.211 145.334 o
394.212 145.334 o
394.213 145.333 o
394.214 145.332 o
394.215 145.331 o
394.216 145.33 o
394.217 145.33 o
394.217 145.329 o
394.218 145.328 o
394.219 145.327 o
394.22 145.326 o
394.221 145.326 o
394.222 145.325 o
394.223 145.324 o
394.223 145.324 o
394.224 145.323 o
394.225 145.322 o
394.226 145.321 o
394.226 145.321 o
394.227 145.32 o
394.228 145.319 o
394.229 145.319 o
394.23 145.318 o
394.23 145.317 o
394.231 145.317 o
394.232 145.316 o
394.232 145.315 o
394.233 145.315 o
394.234 145.314 o
394.234 145.314 o
394.235 145.313 o
394.236 145.312 o
394.236 145.312 o
394.237 145.311 o
394.238 145.311 o
394.238 145.31 o
394.239 145.31 o
394.24 145.309 o
394.24 145.308 o
394.241 145.308 o
394.241 145.307 o
394.242 145.307 o
394.243 145.306 o
394.243 145.306 o
394.244 145.305 o
394.244 145.305 o
394.245 145.304 o
394.245 145.304 o
394.246 145.303 o
394.247 145.303 o
394.247 145.302 o
394.248 145.302 o
394.248 145.301 o
394.249 145.301 o
394.249 145.301 o
394.25 145.3 o
394.25 145.3 o
394.251 145.299 o
394.251 145.299 o
394.252 145.298 o
394.252 145.298 o
394.253 145.297 o
394.253 145.297 o
394.254 145.297 o
394.254 145.296 o
394.254 145.296 o
394.255 145.295 o
394.255 145.295 o
394.256 145.295 o
394.256 145.294 o
394.257 145.294 o
394.257 145.294 o
394.257 145.293 o
394.258 145.293 o
394.258 145.292 o
394.259 145.292 o
394.259 145.292 o
394.259 145.291 o
394.26 145.291 o
394.26 145.291 o
394.261 145.29 o
394.261 145.29 o
394.261 145.29 o
394.262 145.289 o
394.262 145.289 o
394.262 145.289 o
394.263 145.288 o
394.263 145.288 o
394.263 145.288 o
394.264 145.288 o
394.264 145.287 o
394.264 145.287 o
394.265 145.287 o
394.265 145.286 o
394.265 145.286 o
394.266 145.286 o
394.266 145.286 o
394.266 145.285 o
394.267 145.285 o
394.267 145.285 o
394.267 145.284 o
394.268 145.284 o
394.268 145.284 o
394.268 145.284 o
394.268 145.283 o
394.269 145.283 o
394.269 145.283 o
394.269 145.283 o
394.27 145.282 o
394.27 145.282 o
394.27 145.282 o
394.27 145.282 o
394.271 145.281 o
394.271 145.281 o
394.271 145.281 o
394.271 145.281 o
394.272 145.281 o
394.272 145.28 o
394.272 145.28 o
394.272 145.28 o
394.273 145.28 o
394.273 145.279 o
394.273 145.279 o
394.273 145.279 o
394.274 145.279 o
394.274 145.279 o
394.274 145.278 o
394.274 145.278 o
394.274 145.278 o
394.275 145.278 o
394.275 145.278 o
394.275 145.278 o
394.275 145.277 o
394.275 145.277 o
394.276 145.277 o
394.276 145.277 o
394.276 145.277 o
394.276 145.276 o
394.276 145.276 o
394.277 145.276 o
394.277 145.276 o
394.277 145.276 o
394.277 145.276 o
394.277 145.275 o
394.278 145.275 o
394.278 145.275 o
394.278 145.275 o
394.278 145.275 o
394.278 145.275 o
394.278 145.275 o
394.279 145.274 o
394.279 145.274 o
394.279 145.274 o
394.279 145.274 o
394.279 145.274 o
394.279 145.274 o
394.28 145.274 o
394.28 145.273 o
394.28 145.273 o
394.28 145.273 o
394.28 145.273 o
394.28 145.273 o
394.28 145.273 o
394.281 145.273 o
394.281 145.272 o
394.281 145.272 o
394.281 145.272 o
394.281 145.272 o
394.281 145.272 o
394.281 145.272 o
394.282 145.272 o
394.282 145.272 o
394.282 145.271 o
394.282 145.271 o
394.282 145.271 o
394.282 145.271 o
394.282 145.271 o
394.282 145.271 o
394.283 145.271 o
394.283 145.271 o
394.283 145.271 o
394.283 145.27 o
394.283 145.27 o
394.283 145.27 o
394.283 145.27 o
394.283 145.27 o
394.284 145.27 o
394.284 145.27 o
394.284 145.27 o
394.284 145.27 o
394.284 145.27 o
394.284 145.27 o
394.284 145.269 o
394.284 145.269 o
394.284 145.269 o
394.284 145.269 o
394.285 145.269 o
394.285 145.269 o
394.285 145.269 o
394.285 145.269 o
394.285 145.269 o
394.285 145.269 o
394.285 145.269 o
394.285 145.268 o
394.285 145.268 o
394.285 145.268 o
394.285 145.268 o
394.286 145.268 o
394.286 145.268 o
394.286 145.268 o
394.286 145.268 o
394.286 145.268 o
394.286 145.268 o
394.286 145.268 o
394.286 145.268 o
394.286 145.268 o
394.286 145.268 o
394.286 145.267 o
394.286 145.267 o
394.287 145.267 o
394.287 145.267 o
394.287 145.267 o
394.287 145.267 o
394.287 145.267 o
394.287 145.267 o
394.287 145.267 o
394.287 145.267 o
394.287 145.267 o
394.287 145.267 o
394.287 145.267 o
394.287 145.267 o
394.287 145.267 o
394.287 145.267 o
394.288 145.266 o
394.288 145.266 o
394.288 145.266 o
394.288 145.266 o
394.288 145.266 o
394.288 145.266 o
394.288 145.266 o
394.288 145.266 o
394.288 145.266 o
394.288 145.266 o
394.288 145.266 o
394.288 145.266 o
394.288 145.266 o
394.288 145.266 o
394.288 145.266 o
394.288 145.266 o
394.288 145.266 o
394.289 145.266 o
394.289 145.266 o
394.289 145.265 o
394.289 145.265 o
394.289 145.265 o
394.289 145.265 o
394.289 145.265 o
394.289 145.265 o
394.289 145.265 o
394.289 145.265 o
394.289 145.265 o
394.289 145.265 o
394.289 145.265 o
394.289 145.265 o
394.289 145.265 o
394.289 145.265 o
394.289 145.265 o
394.289 145.265 o
394.289 145.265 o
394.289 145.265 o
394.289 145.265 o
394.289 145.265 o
394.29 145.265 o
394.29 145.265 o
394.29 145.265 o
394.29 145.265 o
394.29 145.265 o
394.29 145.264 o
394.29 145.264 o
394.29 145.264 o
394.29 145.264 o
394.29 145.264 o
394.29 145.264 o
394.29 145.264 o
394.29 145.264 o
394.29 145.264 o
394.29 145.264 o
394.29 145.264 o
394.29 145.264 o
394.29 145.264 o
394.29 145.264 o
394.29 145.264 o
394.29 145.264 o
394.29 145.264 o
394.29 145.264 o
394.29 145.264 o
394.29 145.264 o
394.29 145.264 o
394.29 145.264 o
394.29 145.264 o
394.29 145.264 o
394.291 145.264 o
394.291 145.264 o
394.291 145.264 o
394.291 145.264 o
394.291 145.264 o
394.291 145.264 o
394.291 145.264 o
394.291 145.264 o
394.291 145.264 o
394.291 145.264 o
394.291 145.264 o
394.291 145.264 o
394.291 145.263 o
394.291 145.263 o
394.291 145.263 o
394.291 145.263 o
394.291 145.263 o
394.291 145.263 o
394.291 145.263 o
394.291 145.263 o
394.291 145.263 o
394.291 145.263 o
394.291 145.263 o
394.291 145.263 o
394.291 145.263 o
394.291 145.263 o
394.291 145.263 o
394.291 145.263 o
394.291 145.263 o
394.291 145.263 o
394.291 145.263 o
394.291 145.263 o
394.291 145.263 o
394.291 145.263 o
394.291 145.263 o
394.291 145.263 o
394.291 145.263 o
394.291 145.263 o
394.291 145.263 o
394.291 145.263 o
394.291 145.263 o
394.291 145.263 o
394.291 145.263 o
394.291 145.263 o
394.292 145.263 o
394.292 145.263 o
394.292 145.263 o
394.292 145.263 o
394.292 145.263 o
394.292 145.263 o
394.292 145.263 o
394.292 145.263 o
394.292 145.263 o
394.292 145.263 o
394.292 145.263 o
394.292 145.263 o
394.292 145.263 o
394.292 145.263 o
394.292 145.263 o
394.292 145.263 o
394.292 145.263 o
394.292 145.263 o
394.292 145.263 o
394.292 145.263 o
394.292 145.263 o
394.292 145.263 o
394.292 145.263 o
394.292 145.263 o
394.292 145.263 o
394.292 145.263 o
394.292 145.263 o
394.292 145.263 o
394.292 145.263 o
394.292 145.263 o
394.292 145.263 o
394.292 145.262 o
394.292 145.262 o
394.292 145.262 o
394.292 145.262 o
394.292 145.262 o
394.292 145.262 o
394.292 145.262 o
394.292 145.262 o
394.292 145.262 o
394.292 145.262 o
394.292 145.262 o
394.292 145.262 o
394.292 145.262 o
394.292 145.262 o
394.292 145.262 o
394.292 145.262 o
394.292 145.262 o
394.292 145.262 o
394.292 145.262 o
394.292 145.262 o
394.292 145.262 o
394.292 145.262 o
394.292 145.262 o
394.292 145.262 o
394.292 145.262 o
394.292 145.262 o
394.292 145.262 o
394.292 145.262 o
394.292 145.262 o
grestore
2 setlinejoin
0.750 0.750 0.000 setrgbcolor
gsave
357.1 266.1 57.6 38.02 clipbox
/o {
gsave
newpath
translate
1.0 setlinewidth
2 setlinejoin
0 setlinecap
0 3 m
-0.673542 0.927051 l
-2.85317 0.927051 l
-1.089814 -0.354102 l
-1.763356 -2.427051 l
-0 -1.145898 l
1.763356 -2.427051 l
1.089814 -0.354102 l
2.85317 0.927051 l
0.673542 0.927051 l
cl

gsave
0.750 0.750 0.000 setrgbcolor
fill
grestore
stroke
grestore
} bind def
237.964 172.416 o
grestore
1 setlinejoin
1.000 0.000 0.000 setrgbcolor
gsave
357.1 266.1 57.6 38.02 clipbox
/o {
gsave
newpath
translate
1.0 setlinewidth
1 setlinejoin
0 setlinecap
-3 -3 m
3 3 l
-3 3 m
3 -3 l

gsave
1.000 0.000 0.000 setrgbcolor
fill
grestore
stroke
grestore
} bind def
394.292 145.262 o
grestore
0.800 setlinewidth
0 setlinejoin
2 setlinecap
[] 0 setdash
0.000 setgray
gsave
57.6 38.016 m
57.6 304.128 l
stroke
grestore
gsave
414.72 38.016 m
414.72 304.128 l
stroke
grestore
gsave
57.6 38.016 m
414.72 38.016 l
stroke
grestore
gsave
57.6 304.128 m
414.72 304.128 l
stroke
grestore
/DejaVuSans findfont
12.000 scalefont
setfont
gsave
183.542812 310.128000 translate
0.000000 rotate
0.000000 0.000000 m /G glyphshow
9.298828 0.000000 m /r glyphshow
14.232422 0.000000 m /a glyphshow
21.585938 0.000000 m /d glyphshow
29.203125 0.000000 m /i glyphshow
32.537109 0.000000 m /e glyphshow
39.919922 0.000000 m /n glyphshow
47.525391 0.000000 m /t glyphshow
52.230469 0.000000 m /space glyphshow
56.044922 0.000000 m /D glyphshow
65.285156 0.000000 m /e glyphshow
72.667969 0.000000 m /s glyphshow
78.919922 0.000000 m /c glyphshow
85.517578 0.000000 m /e glyphshow
92.900391 0.000000 m /n glyphshow
100.505859 0.000000 m /t glyphshow
grestore

end
showpage
