%!PS-Adobe-3.0 EPSF-3.0
%%Title: hill_climbing.eps
%%Creator: matplotlib version 2.1.2, http://matplotlib.org/
%%CreationDate: Mon Mar 18 10:38:32 2019
%%Orientation: portrait
%%BoundingBox: 75 223 536 568
%%EndComments
%%BeginProlog
/mpldict 8 dict def
mpldict begin
/m { moveto } bind def
/l { lineto } bind def
/r { rlineto } bind def
/c { curveto } bind def
/cl { closepath } bind def
/box {
m
1 index 0 r
0 exch r
neg 0 r
cl
} bind def
/clipbox {
box
clip
newpath
} bind def
%!PS-Adobe-3.0 Resource-Font
%%Title: DejaVu Sans
%%Copyright: Copyright (c) 2003 by Bitstream, Inc. All Rights Reserved. Copyright (c) 2006 by Tavmjong Bah. All Rights Reserved. DejaVu changes are in public domain 
%%Creator: Converted from TrueType to type 3 by PPR
25 dict begin
/_d{bind def}bind def
/_m{moveto}_d
/_l{lineto}_d
/_cl{closepath eofill}_d
/_c{curveto}_d
/_sc{7 -1 roll{setcachedevice}{pop pop pop pop pop pop}ifelse}_d
/_e{exec}_d
/FontName /DejaVuSans def
/PaintType 0 def
/FontMatrix[.001 0 0 .001 0 0]def
/FontBBox[-1021 -463 1793 1232]def
/FontType 3 def
/Encoding [ /space /parenleft /parenright /period /slash /zero /two /four /C /H /asciicircum /underscore /b /f /g /i /l /m /n /s /v /minus ] def
/FontInfo 10 dict dup begin
/FamilyName (DejaVu Sans) def
/FullName (DejaVu Sans) def
/Notice (Copyright (c) 2003 by Bitstream, Inc. All Rights Reserved. Copyright (c) 2006 by Tavmjong Bah. All Rights Reserved. DejaVu changes are in public domain ) def
/Weight (Book) def
/Version (Version 2.35) def
/ItalicAngle 0.0 def
/isFixedPitch false def
/UnderlinePosition -130 def
/UnderlineThickness 90 def
end readonly def
/CharStrings 23 dict dup begin
/.notdef 0 def
/space{318 0 0 0 0 0 _sc
}_d
/parenleft{390 0 86 -131 310 759 _sc
310 759 _m
266 683 234 609 213 536 _c
191 463 181 389 181 314 _c
181 238 191 164 213 91 _c
234 17 266 -56 310 -131 _c
232 -131 _l
183 -54 146 20 122 94 _c
98 168 86 241 86 314 _c
86 386 98 459 122 533 _c
146 607 182 682 232 759 _c
310 759 _l
_cl}_d
/parenright{390 0 80 -131 304 759 _sc
80 759 _m
158 759 _l
206 682 243 607 267 533 _c
291 459 304 386 304 314 _c
304 241 291 168 267 94 _c
243 20 206 -54 158 -131 _c
80 -131 _l
123 -56 155 17 177 91 _c
198 164 209 238 209 314 _c
209 389 198 463 177 536 _c
155 609 123 683 80 759 _c
_cl}_d
/period{318 0 107 0 210 124 _sc
107 124 _m
210 124 _l
210 0 _l
107 0 _l
107 124 _l
_cl}_d
/slash{337 0 0 -92 337 729 _sc
254 729 _m
337 729 _l
83 -92 _l
0 -92 _l
254 729 _l
_cl}_d
/zero{636 0 66 -13 570 742 _sc
318 664 _m
267 664 229 639 203 589 _c
177 539 165 464 165 364 _c
165 264 177 189 203 139 _c
229 89 267 64 318 64 _c
369 64 407 89 433 139 _c
458 189 471 264 471 364 _c
471 464 458 539 433 589 _c
407 639 369 664 318 664 _c
318 742 _m
399 742 461 709 505 645 _c
548 580 570 486 570 364 _c
570 241 548 147 505 83 _c
461 19 399 -13 318 -13 _c
236 -13 173 19 130 83 _c
87 147 66 241 66 364 _c
66 486 87 580 130 645 _c
173 709 236 742 318 742 _c
_cl}_d
/two{{636 0 73 0 536 742 _sc
192 83 _m
536 83 _l
536 0 _l
73 0 _l
73 83 _l
110 121 161 173 226 239 _c
290 304 331 346 348 365 _c
380 400 402 430 414 455 _c
426 479 433 504 433 528 _c
433 566 419 598 392 622 _c
365 646 330 659 286 659 _c
255 659 222 653 188 643 _c
154 632 117 616 78 594 _c
78 694 _l
118 710 155 722 189 730 _c
223 738 255 742 284 742 _c
}_e{359 742 419 723 464 685 _c
509 647 532 597 532 534 _c
532 504 526 475 515 449 _c
504 422 484 390 454 354 _c
446 344 420 317 376 272 _c
332 227 271 164 192 83 _c
_cl}_e}_d
/four{636 0 49 0 580 729 _sc
378 643 _m
129 254 _l
378 254 _l
378 643 _l
352 729 _m
476 729 _l
476 254 _l
580 254 _l
580 172 _l
476 172 _l
476 0 _l
378 0 _l
378 172 _l
49 172 _l
49 267 _l
352 729 _l
_cl}_d
/C{{698 0 56 -13 644 742 _sc
644 673 _m
644 569 _l
610 599 575 622 537 638 _c
499 653 460 661 418 661 _c
334 661 270 635 226 584 _c
182 533 160 460 160 364 _c
160 268 182 194 226 143 _c
270 92 334 67 418 67 _c
460 67 499 74 537 90 _c
575 105 610 128 644 159 _c
644 56 _l
609 32 572 15 534 4 _c
496 -7 455 -13 412 -13 _c
302 -13 215 20 151 87 _c
}_e{87 154 56 246 56 364 _c
56 481 87 573 151 641 _c
215 708 302 742 412 742 _c
456 742 497 736 535 725 _c
573 713 610 696 644 673 _c
_cl}_e}_d
/H{752 0 98 0 654 729 _sc
98 729 _m
197 729 _l
197 430 _l
555 430 _l
555 729 _l
654 729 _l
654 0 _l
555 0 _l
555 347 _l
197 347 _l
197 0 _l
98 0 _l
98 729 _l
_cl}_d
/asciicircum{838 0 106 457 732 729 _sc
467 729 _m
732 457 _l
634 457 _l
419 650 _l
204 457 _l
106 457 _l
371 729 _l
467 729 _l
_cl}_d
/underscore{500 0 -9 -235 510 -165 _sc
510 -165 _m
510 -235 _l
-9 -235 _l
-9 -165 _l
510 -165 _l
_cl}_d
/b{{635 0 91 -13 580 760 _sc
487 273 _m
487 339 473 390 446 428 _c
418 466 381 485 334 485 _c
286 485 249 466 222 428 _c
194 390 181 339 181 273 _c
181 207 194 155 222 117 _c
249 79 286 61 334 61 _c
381 61 418 79 446 117 _c
473 155 487 207 487 273 _c
181 464 _m
199 496 223 520 252 536 _c
281 552 316 560 356 560 _c
422 560 476 533 518 481 _c
559 428 580 359 580 273 _c
}_e{580 187 559 117 518 65 _c
476 13 422 -13 356 -13 _c
316 -13 281 -5 252 10 _c
223 25 199 49 181 82 _c
181 0 _l
91 0 _l
91 760 _l
181 760 _l
181 464 _l
_cl}_e}_d
/f{352 0 23 0 371 760 _sc
371 760 _m
371 685 _l
285 685 _l
253 685 230 678 218 665 _c
205 652 199 629 199 595 _c
199 547 _l
347 547 _l
347 477 _l
199 477 _l
199 0 _l
109 0 _l
109 477 _l
23 477 _l
23 547 _l
109 547 _l
109 585 _l
109 645 123 690 151 718 _c
179 746 224 760 286 760 _c
371 760 _l
_cl}_d
/g{{635 0 55 -207 544 560 _sc
454 280 _m
454 344 440 395 414 431 _c
387 467 349 485 301 485 _c
253 485 215 467 188 431 _c
161 395 148 344 148 280 _c
148 215 161 165 188 129 _c
215 93 253 75 301 75 _c
349 75 387 93 414 129 _c
440 165 454 215 454 280 _c
544 68 _m
544 -24 523 -93 482 -139 _c
440 -184 377 -207 292 -207 _c
260 -207 231 -204 203 -200 _c
175 -195 147 -188 121 -178 _c
}_e{121 -91 _l
147 -105 173 -115 199 -122 _c
225 -129 251 -133 278 -133 _c
336 -133 380 -117 410 -87 _c
439 -56 454 -10 454 52 _c
454 96 _l
435 64 411 40 382 24 _c
353 8 319 0 279 0 _c
211 0 157 25 116 76 _c
75 127 55 195 55 280 _c
55 364 75 432 116 483 _c
157 534 211 560 279 560 _c
319 560 353 552 382 536 _c
411 520 435 496 454 464 _c
454 547 _l
544 547 _l
}_e{544 68 _l
_cl}_e}_d
/i{278 0 94 0 184 760 _sc
94 547 _m
184 547 _l
184 0 _l
94 0 _l
94 547 _l
94 760 _m
184 760 _l
184 646 _l
94 646 _l
94 760 _l
_cl}_d
/l{278 0 94 0 184 760 _sc
94 760 _m
184 760 _l
184 0 _l
94 0 _l
94 760 _l
_cl}_d
/m{{974 0 91 0 889 560 _sc
520 442 _m
542 482 569 511 600 531 _c
631 550 668 560 711 560 _c
767 560 811 540 842 500 _c
873 460 889 403 889 330 _c
889 0 _l
799 0 _l
799 327 _l
799 379 789 418 771 444 _c
752 469 724 482 686 482 _c
639 482 602 466 575 435 _c
548 404 535 362 535 309 _c
535 0 _l
445 0 _l
445 327 _l
445 379 435 418 417 444 _c
398 469 369 482 331 482 _c
}_e{285 482 248 466 221 435 _c
194 404 181 362 181 309 _c
181 0 _l
91 0 _l
91 547 _l
181 547 _l
181 462 _l
201 495 226 520 255 536 _c
283 552 317 560 357 560 _c
397 560 430 550 458 530 _c
486 510 506 480 520 442 _c
_cl}_e}_d
/n{634 0 91 0 549 560 _sc
549 330 _m
549 0 _l
459 0 _l
459 327 _l
459 379 448 417 428 443 _c
408 469 378 482 338 482 _c
289 482 251 466 223 435 _c
195 404 181 362 181 309 _c
181 0 _l
91 0 _l
91 547 _l
181 547 _l
181 462 _l
202 494 227 519 257 535 _c
286 551 320 560 358 560 _c
420 560 468 540 500 501 _c
532 462 549 405 549 330 _c
_cl}_d
/s{{521 0 54 -13 472 560 _sc
443 531 _m
443 446 _l
417 458 391 468 364 475 _c
336 481 308 485 279 485 _c
234 485 200 478 178 464 _c
156 450 145 430 145 403 _c
145 382 153 366 169 354 _c
185 342 217 330 265 320 _c
296 313 _l
360 299 405 279 432 255 _c
458 230 472 195 472 151 _c
472 100 452 60 412 31 _c
372 1 316 -13 246 -13 _c
216 -13 186 -10 154 -5 _c
}_e{122 0 89 8 54 20 _c
54 113 _l
87 95 120 82 152 74 _c
184 65 216 61 248 61 _c
290 61 323 68 346 82 _c
368 96 380 117 380 144 _c
380 168 371 187 355 200 _c
339 213 303 226 247 238 _c
216 245 _l
160 257 119 275 95 299 _c
70 323 58 356 58 399 _c
58 450 76 490 112 518 _c
148 546 200 560 268 560 _c
301 560 332 557 362 552 _c
391 547 418 540 443 531 _c
}_e{_cl}_e}_d
/v{592 0 30 0 562 547 _sc
30 547 _m
125 547 _l
296 88 _l
467 547 _l
562 547 _l
357 0 _l
235 0 _l
30 547 _l
_cl}_d
/minus{838 0 106 272 732 355 _sc
106 355 _m
732 355 _l
732 272 _l
106 272 _l
106 355 _l
_cl}_d
end readonly def

/BuildGlyph
 {exch begin
 CharStrings exch
 2 copy known not{pop /.notdef}if
 true 3 1 roll get exec
 end}_d

/BuildChar {
 1 index /Encoding get exch get
 1 index /BuildGlyph get exec
}_d

FontName currentdict end definefont pop
end
%%EndProlog
mpldict begin
75.6 223.2 translate
460.8 345.6 0 0 clipbox
gsave
0 0 m
460.8 0 l
460.8 345.6 l
0 345.6 l
cl
1.000 setgray
fill
grestore
gsave
57.6 38.016 m
414.72 38.016 l
414.72 304.128 l
57.6 304.128 l
cl
1.000 setgray
fill
grestore
gsave
357.1 266.1 57.6 38.02 clipbox
349.789091 40.088559 m
352.351735 38.016 l
353.396364 38.016 l
357.003636 38.016 l
360.610909 38.016 l
364.218182 38.016 l
367.825455 38.016 l
371.432727 38.016 l
375.04 38.016 l
378.647273 38.016 l
382.254545 38.016 l
385.861818 38.016 l
389.469091 38.016 l
393.076364 38.016 l
396.683636 38.016 l
400.290909 38.016 l
403.898182 38.016 l
407.505455 38.016 l
411.112727 38.016 l
414.72 38.016 l
414.72 40.704 l
414.72 43.392 l
414.72 46.08 l
414.72 48.768 l
414.72 51.456 l
414.72 54.144 l
414.72 56.832 l
414.72 59.52 l
414.72 62.208 l
414.72 64.896 l
414.72 67.584 l
414.72 70.272 l
414.72 72.96 l
414.72 75.648 l
414.72 78.336 l
414.72 81.024 l
414.72 83.712 l
414.72 86.4 l
414.72 89.088 l
414.72 91.776 l
414.72 94.464 l
414.72 97.152 l
414.72 99.84 l
414.72 102.528 l
414.72 105.216 l
414.72 107.904 l
414.72 110.592 l
414.72 113.28 l
414.72 115.968 l
414.72 118.656 l
414.72 121.344 l
414.72 124.032 l
414.72 126.72 l
414.72 129.408 l
414.72 132.096 l
414.72 134.784 l
414.72 137.472 l
414.72 140.16 l
414.72 142.848 l
414.72 145.536 l
414.72 148.224 l
414.72 150.912 l
414.72 153.6 l
414.72 156.288 l
414.72 158.976 l
414.72 161.664 l
414.72 164.352 l
414.72 167.04 l
414.72 169.728 l
414.72 172.416 l
414.72 175.104 l
414.72 177.792 l
414.72 180.48 l
414.72 183.168 l
414.72 185.856 l
414.72 188.544 l
414.72 191.232 l
414.72 193.92 l
414.72 196.608 l
414.72 199.296 l
414.72 201.984 l
414.72 204.672 l
414.72 207.36 l
414.72 210.048 l
414.72 212.736 l
414.72 215.424 l
414.72 218.112 l
414.72 220.8 l
414.72 223.488 l
414.72 226.176 l
414.72 228.864 l
414.72 231.552 l
414.72 234.24 l
414.72 236.928 l
414.72 239.616 l
414.72 242.304 l
414.72 244.992 l
414.72 247.68 l
414.72 250.368 l
414.72 253.056 l
414.72 255.744 l
414.72 258.432 l
414.72 261.12 l
414.72 263.808 l
414.72 266.496 l
414.72 269.184 l
414.72 269.572247 l
411.7542 271.872 l
411.112727 272.369477 l
408.26979 274.56 l
407.505455 275.149006 l
404.763833 277.248 l
403.898182 277.910829 l
401.235902 279.936 l
400.290909 280.654938 l
397.685561 282.624 l
396.683636 283.381327 l
394.11236 285.312 l
393.076364 286.089989 l
390.51584 288 l
389.469091 288.780917 l
386.895526 290.688 l
385.861818 291.454104 l
383.250933 293.376 l
382.254545 294.109543 l
379.581561 296.064 l
378.647273 296.747229 l
375.886898 298.752 l
375.04 299.367153 l
372.166415 301.44 l
371.432727 301.96931 l
368.419571 304.128 l
367.825455 304.128 l
364.218182 304.128 l
360.610909 304.128 l
357.003636 304.128 l
353.396364 304.128 l
349.789091 304.128 l
346.181818 304.128 l
342.574545 304.128 l
338.967273 304.128 l
335.36 304.128 l
331.752727 304.128 l
328.145455 304.128 l
324.538182 304.128 l
320.930909 304.128 l
317.323636 304.128 l
313.716364 304.128 l
310.109091 304.128 l
306.501818 304.128 l
302.894545 304.128 l
299.287273 304.128 l
295.68 304.128 l
292.072727 304.128 l
288.465455 304.128 l
284.858182 304.128 l
281.250909 304.128 l
277.643636 304.128 l
274.036364 304.128 l
270.429091 304.128 l
266.821818 304.128 l
263.214545 304.128 l
259.607273 304.128 l
256 304.128 l
252.392727 304.128 l
248.785455 304.128 l
245.178182 304.128 l
241.570909 304.128 l
237.963636 304.128 l
234.356364 304.128 l
230.749091 304.128 l
227.141818 304.128 l
223.534545 304.128 l
219.927273 304.128 l
216.32 304.128 l
212.712727 304.128 l
209.105455 304.128 l
205.498182 304.128 l
201.890909 304.128 l
198.283636 304.128 l
194.676364 304.128 l
191.069091 304.128 l
187.461818 304.128 l
183.854545 304.128 l
180.247273 304.128 l
176.64 304.128 l
173.032727 304.128 l
169.425455 304.128 l
165.818182 304.128 l
162.210909 304.128 l
158.603636 304.128 l
154.996364 304.128 l
151.389091 304.128 l
147.781818 304.128 l
144.174545 304.128 l
140.567273 304.128 l
136.96 304.128 l
133.352727 304.128 l
129.745455 304.128 l
126.138182 304.128 l
122.530909 304.128 l
118.923636 304.128 l
115.316364 304.128 l
111.709091 304.128 l
108.101818 304.128 l
104.494545 304.128 l
104.124094 304.128 l
104.494545 303.504551 l
105.72993 301.44 l
107.352987 298.752 l
108.101818 297.52986 l
109.006221 296.064 l
110.684568 293.376 l
111.709091 291.751772 l
112.384694 290.688 l
114.114976 288 l
115.316364 286.147084 l
115.86148 285.312 l
117.64054 282.624 l
118.923636 280.696104 l
119.432901 279.936 l
121.257769 277.248 l
122.530909 275.382014 l
123.095464 274.56 l
124.96334 271.872 l
126.138182 270.190361 l
126.845842 269.184 l
128.75409 266.496 l
129.745455 265.108661 l
130.680872 263.808 l
132.627003 261.12 l
133.352727 260.126068 l
134.597537 258.432 l
136.579206 255.744 l
136.96 255.233119 l
138.592965 253.056 l
140.567273 250.423233 l
140.608954 250.368 l
142.664415 247.68 l
144.174545 245.705454 l
144.723611 244.992 l
146.809273 242.304 l
147.781818 241.05612 l
148.911133 239.616 l
151.025042 236.928 l
151.389091 236.469262 l
153.169028 234.24 l
154.996364 231.950929 l
155.316783 231.552 l
157.494914 228.864 l
158.603636 227.498963 l
159.684724 226.176 l
161.886519 223.488 l
162.210909 223.095209 l
164.117834 220.8 l
165.818182 218.753055 l
166.353914 218.112 l
168.613946 215.424 l
169.425455 214.462533 l
170.891426 212.736 l
173.032727 210.213654 l
173.174204 210.048 l
175.489314 207.36 l
176.64 206.025126 l
177.813366 204.672 l
180.1456 201.984 l
180.247273 201.867778 l
182.510364 199.296 l
183.854545 197.768213 l
184.881375 196.608 l
187.263315 193.92 l
187.461818 193.697554 l
189.674885 191.232 l
191.069091 189.678474 l
192.093222 188.544 l
194.521982 185.856 l
194.676364 185.6863 l
196.980708 183.168 l
198.283636 181.743867 l
199.44672 180.48 l
201.890909 177.823588 l
201.920145 177.792 l
204.425709 175.104 l
205.498182 173.95348 l
206.939727 172.416 l
209.105455 170.10578 l
209.461685 169.728 l
212.007805 167.04 l
212.712727 166.2974 l
214.570144 164.352 l
216.32 162.518974 l
217.140948 161.664 l
219.724956 158.976 l
219.927273 158.766604 l
222.335914 156.288 l
223.534545 155.054367 l
224.955859 153.6 l
227.141818 151.362868 l
227.584947 150.912 l
230.23502 148.224 l
230.749091 147.703926 l
232.904386 145.536 l
234.356364 144.075297 l
235.583425 142.848 l
237.963636 140.46698 l
238.272307 140.16 l
240.984537 137.472 l
241.570909 136.89187 l
243.713789 134.784 l
245.178182 133.343324 l
246.453418 132.096 l
248.785455 129.814679 l
249.203608 129.408 l
251.97407 126.72 l
252.392727 126.314756 l
254.764692 124.032 l
256 122.842984 l
257.566415 121.344 l
259.607273 119.390722 l
260.379435 118.656 l
263.204185 115.968 l
263.214545 115.958184 l
266.057669 113.28 l
266.821818 112.560082 l
268.922995 110.592 l
270.429091 109.181109 l
271.800372 107.904 l
274.036364 105.821275 l
274.690013 105.216 l
277.593291 102.528 l
277.643636 102.481555 l
280.523737 99.84 l
281.250909 99.172966 l
283.467007 97.152 l
284.858182 95.88315 l
286.42333 94.464 l
288.465455 92.612116 l
289.392937 91.776 l
292.072727 89.359871 l
292.376067 89.088 l
295.379931 86.4 l
295.68 86.131903 l
298.404497 83.712 l
299.287273 82.927813 l
301.44317 81.024 l
302.894545 79.74216 l
304.496202 78.336 l
306.501818 76.574953 l
307.563852 75.648 l
310.109091 73.426198 l
310.646387 72.96 l
313.716364 70.295904 l
313.744077 70.272 l
316.867984 67.584 l
317.323636 67.191937 l
320.00802 64.896 l
320.930909 64.106555 l
323.163828 62.208 l
324.538182 61.039293 l
326.335697 59.52 l
328.145455 57.99016 l
329.523923 56.832 l
331.752727 54.959162 l
332.728808 54.144 l
335.36 51.946306 l
335.950662 51.456 l
338.967273 48.951599 l
339.189804 48.768 l
342.449592 46.08 l
342.574545 45.977074 l
345.732244 43.392 l
346.181818 43.023906 l
349.032847 40.704 l
cl
0.282 0.095 0.417 setrgbcolor
fill
grestore
gsave
357.1 266.1 57.6 38.02 clipbox
281.250909 38.334712 m
281.620747 38.016 l
284.858182 38.016 l
288.465455 38.016 l
292.072727 38.016 l
295.68 38.016 l
299.287273 38.016 l
302.894545 38.016 l
306.501818 38.016 l
310.109091 38.016 l
313.716364 38.016 l
317.323636 38.016 l
320.930909 38.016 l
324.538182 38.016 l
328.145455 38.016 l
331.752727 38.016 l
335.36 38.016 l
338.967273 38.016 l
342.574545 38.016 l
346.181818 38.016 l
349.789091 38.016 l
352.351735 38.016 l
349.789091 40.088559 l
349.032847 40.704 l
346.181818 43.023906 l
345.732244 43.392 l
342.574545 45.977074 l
342.449592 46.08 l
339.189804 48.768 l
338.967273 48.951599 l
335.950662 51.456 l
335.36 51.946306 l
332.728808 54.144 l
331.752727 54.959162 l
329.523923 56.832 l
328.145455 57.99016 l
326.335697 59.52 l
324.538182 61.039293 l
323.163828 62.208 l
320.930909 64.106555 l
320.00802 64.896 l
317.323636 67.191937 l
316.867984 67.584 l
313.744077 70.272 l
313.716364 70.295904 l
310.646387 72.96 l
310.109091 73.426198 l
307.563852 75.648 l
306.501818 76.574953 l
304.496202 78.336 l
302.894545 79.74216 l
301.44317 81.024 l
299.287273 82.927813 l
298.404497 83.712 l
295.68 86.131903 l
295.379931 86.4 l
292.376067 89.088 l
292.072727 89.359871 l
289.392937 91.776 l
288.465455 92.612116 l
286.42333 94.464 l
284.858182 95.88315 l
283.467007 97.152 l
281.250909 99.172966 l
280.523737 99.84 l
277.643636 102.481555 l
277.593291 102.528 l
274.690013 105.216 l
274.036364 105.821275 l
271.800372 107.904 l
270.429091 109.181109 l
268.922995 110.592 l
266.821818 112.560082 l
266.057669 113.28 l
263.214545 115.958184 l
263.204185 115.968 l
260.379435 118.656 l
259.607273 119.390722 l
257.566415 121.344 l
256 122.842984 l
254.764692 124.032 l
252.392727 126.314756 l
251.97407 126.72 l
249.203608 129.408 l
248.785455 129.814679 l
246.453418 132.096 l
245.178182 133.343324 l
243.713789 134.784 l
241.570909 136.89187 l
240.984537 137.472 l
238.272307 140.16 l
237.963636 140.46698 l
235.583425 142.848 l
234.356364 144.075297 l
232.904386 145.536 l
230.749091 147.703926 l
230.23502 148.224 l
227.584947 150.912 l
227.141818 151.362868 l
224.955859 153.6 l
223.534545 155.054367 l
222.335914 156.288 l
219.927273 158.766604 l
219.724956 158.976 l
217.140948 161.664 l
216.32 162.518974 l
214.570144 164.352 l
212.712727 166.2974 l
212.007805 167.04 l
209.461685 169.728 l
209.105455 170.10578 l
206.939727 172.416 l
205.498182 173.95348 l
204.425709 175.104 l
201.920145 177.792 l
201.890909 177.823588 l
199.44672 180.48 l
198.283636 181.743867 l
196.980708 183.168 l
194.676364 185.6863 l
194.521982 185.856 l
192.093222 188.544 l
191.069091 189.678474 l
189.674885 191.232 l
187.461818 193.697554 l
187.263315 193.92 l
184.881375 196.608 l
183.854545 197.768213 l
182.510364 199.296 l
180.247273 201.867778 l
180.1456 201.984 l
177.813366 204.672 l
176.64 206.025126 l
175.489314 207.36 l
173.174204 210.048 l
173.032727 210.213654 l
170.891426 212.736 l
169.425455 214.462533 l
168.613946 215.424 l
166.353914 218.112 l
165.818182 218.753055 l
164.117834 220.8 l
162.210909 223.095209 l
161.886519 223.488 l
159.684724 226.176 l
158.603636 227.498963 l
157.494914 228.864 l
155.316783 231.552 l
154.996364 231.950929 l
153.169028 234.24 l
151.389091 236.469262 l
151.025042 236.928 l
148.911133 239.616 l
147.781818 241.05612 l
146.809273 242.304 l
144.723611 244.992 l
144.174545 245.705454 l
142.664415 247.68 l
140.608954 250.368 l
140.567273 250.423233 l
138.592965 253.056 l
136.96 255.233119 l
136.579206 255.744 l
134.597537 258.432 l
133.352727 260.126068 l
132.627003 261.12 l
130.680872 263.808 l
129.745455 265.108661 l
128.75409 266.496 l
126.845842 269.184 l
126.138182 270.190361 l
124.96334 271.872 l
123.095464 274.56 l
122.530909 275.382014 l
121.257769 277.248 l
119.432901 279.936 l
118.923636 280.696104 l
117.64054 282.624 l
115.86148 285.312 l
115.316364 286.147084 l
114.114976 288 l
112.384694 290.688 l
111.709091 291.751772 l
110.684568 293.376 l
109.006221 296.064 l
108.101818 297.52986 l
107.352987 298.752 l
105.72993 301.44 l
104.494545 303.504551 l
104.124094 304.128 l
100.887273 304.128 l
97.28 304.128 l
93.672727 304.128 l
90.065455 304.128 l
86.458182 304.128 l
82.850909 304.128 l
79.243636 304.128 l
75.636364 304.128 l
72.029091 304.128 l
68.421818 304.128 l
64.814545 304.128 l
61.207273 304.128 l
57.6 304.128 l
57.6 301.44 l
57.6 298.752 l
57.6 296.064 l
57.6 293.376 l
57.6 290.688 l
57.6 288 l
57.6 285.312 l
57.6 282.624 l
57.6 279.936 l
57.6 277.248 l
57.6 274.56 l
57.6 271.872 l
57.6 269.184 l
57.6 266.496 l
57.6 265.538469 l
59.003042 263.808 l
61.182451 261.12 l
61.207273 261.08962 l
63.387917 258.432 l
64.814545 256.693094 l
65.596537 255.744 l
67.818388 253.056 l
68.421818 252.328978 l
70.056357 250.368 l
72.029091 248.000978 l
72.297745 247.68 l
74.560427 244.992 l
75.636364 243.715489 l
76.83111 242.304 l
79.107712 239.616 l
79.243636 239.456497 l
81.407413 236.928 l
82.850909 235.240981 l
83.711014 234.24 l
86.025651 231.552 l
86.458182 231.051859 l
88.358205 228.864 l
90.065455 226.897878 l
90.694922 226.176 l
93.046083 223.488 l
93.672727 222.77377 l
95.411681 220.8 l
97.28 218.679143 l
97.781705 218.112 l
100.167908 215.424 l
100.887273 214.615573 l
102.566735 212.736 l
104.494545 210.578233 l
104.970249 210.048 l
107.390042 207.36 l
108.101818 206.571072 l
109.822275 204.672 l
111.709091 202.589057 l
112.259457 201.984 l
114.711415 199.296 l
115.316364 198.634488 l
117.177226 196.608 l
118.923636 194.705935 l
119.648247 193.92 l
122.130974 191.232 l
122.530909 190.800428 l
124.630529 188.544 l
126.138182 186.923568 l
127.135552 185.856 l
129.64768 183.168 l
129.745455 183.063852 l
132.181137 180.48 l
133.352727 179.237002 l
134.720323 177.792 l
136.96 175.425296 l
137.265309 175.104 l
139.828022 172.416 l
140.567273 171.641604 l
142.401523 169.728 l
144.174545 167.878072 l
144.981085 167.04 l
147.570167 164.352 l
147.781818 164.133034 l
150.17813 161.664 l
151.389091 160.416155 l
152.792415 158.976 l
154.996364 156.713966 l
155.413102 156.288 l
158.049136 153.6 l
158.603636 153.03555 l
160.698286 150.912 l
162.210909 149.378346 l
163.354101 148.224 l
165.818182 145.735616 l
166.016663 145.536 l
168.6977 142.848 l
169.425455 142.118909 l
171.388777 140.16 l
173.032727 138.519575 l
174.086867 137.472 l
176.64 134.934504 l
176.792057 134.784 l
179.516139 132.096 l
180.247273 131.374947 l
182.249885 129.408 l
183.854545 127.831757 l
184.990999 126.72 l
187.461818 124.302629 l
187.739573 124.032 l
190.504737 121.344 l
191.069091 120.795983 l
193.281898 118.656 l
194.676364 117.307291 l
196.066787 115.968 l
198.283636 113.832462 l
198.859502 113.28 l
201.663779 110.592 l
201.890909 110.374787 l
204.4851 107.904 l
205.498182 106.939014 l
207.314519 105.216 l
209.105455 103.516913 l
210.152135 102.528 l
212.712727 100.108488 l
212.99805 99.84 l
215.859779 97.152 l
216.32 96.720182 l
218.734483 94.464 l
219.927273 93.349305 l
221.617763 91.776 l
223.534545 89.991916 l
224.509727 89.088 l
227.141818 86.648021 l
227.410482 86.4 l
230.32697 83.712 l
230.749091 83.323334 l
233.25668 81.024 l
234.356364 80.015547 l
236.195463 78.336 l
237.963636 76.721071 l
239.143435 75.648 l
241.570909 73.439909 l
242.10071 72.96 l
245.069177 70.272 l
245.178182 70.173493 l
248.055556 67.584 l
248.785455 66.927065 l
251.051525 64.896 l
252.392727 63.693774 l
254.057205 62.208 l
256 60.473624 l
257.072718 59.52 l
259.607273 57.266619 l
260.09819 56.832 l
263.13505 54.144 l
263.214545 54.073766 l
266.189927 51.456 l
266.821818 50.900004 l
269.255056 48.768 l
270.429091 47.739214 l
272.33057 46.08 l
274.036364 44.5914 l
275.416599 43.392 l
277.643636 41.456564 l
278.513279 40.704 l
cl
0.259 0.252 0.525 setrgbcolor
fill
grestore
gsave
357.1 266.1 57.6 38.02 clipbox
414.72 269.572247 m
414.72 271.872 l
414.72 274.56 l
414.72 277.248 l
414.72 279.936 l
414.72 282.624 l
414.72 285.312 l
414.72 288 l
414.72 290.688 l
414.72 293.376 l
414.72 296.064 l
414.72 298.752 l
414.72 301.44 l
414.72 304.128 l
411.112727 304.128 l
407.505455 304.128 l
403.898182 304.128 l
400.290909 304.128 l
396.683636 304.128 l
393.076364 304.128 l
389.469091 304.128 l
385.861818 304.128 l
382.254545 304.128 l
378.647273 304.128 l
375.04 304.128 l
371.432727 304.128 l
368.419571 304.128 l
371.432727 301.96931 l
372.166415 301.44 l
375.04 299.367153 l
375.886898 298.752 l
378.647273 296.747229 l
379.581561 296.064 l
382.254545 294.109543 l
383.250933 293.376 l
385.861818 291.454104 l
386.895526 290.688 l
389.469091 288.780917 l
390.51584 288 l
393.076364 286.089989 l
394.11236 285.312 l
396.683636 283.381327 l
397.685561 282.624 l
400.290909 280.654938 l
401.235902 279.936 l
403.898182 277.910829 l
404.763833 277.248 l
407.505455 275.149006 l
408.26979 274.56 l
411.112727 272.369477 l
411.7542 271.872 l
cl
0.259 0.252 0.525 setrgbcolor
fill
grestore
gsave
357.1 266.1 57.6 38.02 clipbox
227.141818 39.387817 m
228.688469 38.016 l
230.749091 38.016 l
234.356364 38.016 l
237.963636 38.016 l
241.570909 38.016 l
245.178182 38.016 l
248.785455 38.016 l
252.392727 38.016 l
256 38.016 l
259.607273 38.016 l
263.214545 38.016 l
266.821818 38.016 l
270.429091 38.016 l
274.036364 38.016 l
277.643636 38.016 l
281.250909 38.016 l
281.620747 38.016 l
281.250909 38.334712 l
278.513279 40.704 l
277.643636 41.456564 l
275.416599 43.392 l
274.036364 44.5914 l
272.33057 46.08 l
270.429091 47.739214 l
269.255056 48.768 l
266.821818 50.900004 l
266.189927 51.456 l
263.214545 54.073766 l
263.13505 54.144 l
260.09819 56.832 l
259.607273 57.266619 l
257.072718 59.52 l
256 60.473624 l
254.057205 62.208 l
252.392727 63.693774 l
251.051525 64.896 l
248.785455 66.927065 l
248.055556 67.584 l
245.178182 70.173493 l
245.069177 70.272 l
242.10071 72.96 l
241.570909 73.439909 l
239.143435 75.648 l
237.963636 76.721071 l
236.195463 78.336 l
234.356364 80.015547 l
233.25668 81.024 l
230.749091 83.323334 l
230.32697 83.712 l
227.410482 86.4 l
227.141818 86.648021 l
224.509727 89.088 l
223.534545 89.991916 l
221.617763 91.776 l
219.927273 93.349305 l
218.734483 94.464 l
216.32 96.720182 l
215.859779 97.152 l
212.99805 99.84 l
212.712727 100.108488 l
210.152135 102.528 l
209.105455 103.516913 l
207.314519 105.216 l
205.498182 106.939014 l
204.4851 107.904 l
201.890909 110.374787 l
201.663779 110.592 l
198.859502 113.28 l
198.283636 113.832462 l
196.066787 115.968 l
194.676364 117.307291 l
193.281898 118.656 l
191.069091 120.795983 l
190.504737 121.344 l
187.739573 124.032 l
187.461818 124.302629 l
184.990999 126.72 l
183.854545 127.831757 l
182.249885 129.408 l
180.247273 131.374947 l
179.516139 132.096 l
176.792057 134.784 l
176.64 134.934504 l
174.086867 137.472 l
173.032727 138.519575 l
171.388777 140.16 l
169.425455 142.118909 l
168.6977 142.848 l
166.016663 145.536 l
165.818182 145.735616 l
163.354101 148.224 l
162.210909 149.378346 l
160.698286 150.912 l
158.603636 153.03555 l
158.049136 153.6 l
155.413102 156.288 l
154.996364 156.713966 l
152.792415 158.976 l
151.389091 160.416155 l
150.17813 161.664 l
147.781818 164.133034 l
147.570167 164.352 l
144.981085 167.04 l
144.174545 167.878072 l
142.401523 169.728 l
140.567273 171.641604 l
139.828022 172.416 l
137.265309 175.104 l
136.96 175.425296 l
134.720323 177.792 l
133.352727 179.237002 l
132.181137 180.48 l
129.745455 183.063852 l
129.64768 183.168 l
127.135552 185.856 l
126.138182 186.923568 l
124.630529 188.544 l
122.530909 190.800428 l
122.130974 191.232 l
119.648247 193.92 l
118.923636 194.705935 l
117.177226 196.608 l
115.316364 198.634488 l
114.711415 199.296 l
112.259457 201.984 l
111.709091 202.589057 l
109.822275 204.672 l
108.101818 206.571072 l
107.390042 207.36 l
104.970249 210.048 l
104.494545 210.578233 l
102.566735 212.736 l
100.887273 214.615573 l
100.167908 215.424 l
97.781705 218.112 l
97.28 218.679143 l
95.411681 220.8 l
93.672727 222.77377 l
93.046083 223.488 l
90.694922 226.176 l
90.065455 226.897878 l
88.358205 228.864 l
86.458182 231.051859 l
86.025651 231.552 l
83.711014 234.24 l
82.850909 235.240981 l
81.407413 236.928 l
79.243636 239.456497 l
79.107712 239.616 l
76.83111 242.304 l
75.636364 243.715489 l
74.560427 244.992 l
72.297745 247.68 l
72.029091 248.000978 l
70.056357 250.368 l
68.421818 252.328978 l
67.818388 253.056 l
65.596537 255.744 l
64.814545 256.693094 l
63.387917 258.432 l
61.207273 261.08962 l
61.182451 261.12 l
59.003042 263.808 l
57.6 265.538469 l
57.6 263.808 l
57.6 261.12 l
57.6 258.432 l
57.6 255.744 l
57.6 253.056 l
57.6 250.368 l
57.6 247.68 l
57.6 244.992 l
57.6 242.304 l
57.6 239.616 l
57.6 236.928 l
57.6 234.24 l
57.6 231.552 l
57.6 228.864 l
57.6 226.176 l
57.6 223.488 l
57.6 220.8 l
57.6 218.112 l
57.6 215.424 l
57.6 212.736 l
57.6 210.048 l
57.6 207.36 l
57.6 205.140802 l
58.032326 204.672 l
60.517636 201.984 l
61.207273 201.239295 l
63.012922 199.296 l
64.814545 197.35686 l
65.512647 196.608 l
68.022087 193.92 l
68.421818 193.492924 l
70.54508 191.232 l
72.029091 189.651629 l
73.072685 188.544 l
75.605355 185.856 l
75.636364 185.823215 l
78.156158 183.168 l
79.243636 182.021976 l
80.711748 180.48 l
82.850909 178.233012 l
83.272172 177.792 l
85.845476 175.104 l
86.458182 174.464928 l
88.42915 172.416 l
90.065455 170.714822 l
91.017832 169.728 l
93.612359 167.04 l
93.672727 166.977669 l
96.224213 164.352 l
97.28 163.265422 l
98.84125 161.664 l
100.887273 159.565149 l
101.463522 158.976 l
104.096268 156.288 l
104.494545 155.882175 l
106.741754 153.6 l
108.101818 152.218654 l
109.39265 150.912 l
111.709091 148.566963 l
112.049011 148.224 l
114.718678 145.536 l
115.316364 144.934889 l
117.398288 142.848 l
118.923636 141.318885 l
120.08354 140.16 l
122.530909 137.714572 l
122.77449 137.472 l
125.479777 134.784 l
126.138182 134.130309 l
128.194006 132.096 l
129.745455 130.560659 l
130.91411 129.408 l
133.352727 127.002563 l
133.640151 126.72 l
136.379753 124.032 l
136.96 123.463205 l
139.129096 121.344 l
140.567273 119.938787 l
141.884554 118.656 l
144.174545 116.425789 l
144.646188 115.968 l
147.418796 113.28 l
147.781818 112.928597 l
150.20375 110.592 l
151.389091 109.44833 l
152.995061 107.904 l
154.996364 105.979353 l
155.792792 105.216 l
158.597094 102.528 l
158.603636 102.521746 l
161.418159 99.84 l
162.210909 99.084587 l
164.245825 97.152 l
165.818182 95.65859 l
167.080159 94.464 l
169.425455 92.243758 l
169.921229 91.776 l
172.772512 89.088 l
173.032727 88.843075 l
175.637036 86.4 l
176.64 85.459055 l
178.50848 83.712 l
180.247273 82.086075 l
181.386914 81.024 l
183.854545 78.724137 l
184.272409 78.336 l
187.168889 75.648 l
187.461818 75.376511 l
190.077951 72.96 l
191.069091 72.044416 l
192.994261 70.272 l
194.676364 68.723242 l
195.917891 67.584 l
198.283636 65.41299 l
198.848918 64.896 l
201.788766 62.208 l
201.890909 62.114773 l
204.743464 59.52 l
205.498182 58.833432 l
207.705748 56.832 l
209.105455 55.562893 l
210.675694 54.144 l
212.712727 52.303161 l
213.653383 51.456 l
216.32 49.054237 l
216.638892 48.768 l
219.636175 46.08 l
219.927273 45.81919 l
222.645564 43.392 l
223.534545 42.598158 l
225.662967 40.704 l
cl
0.199 0.388 0.555 setrgbcolor
fill
grestore
gsave
357.1 266.1 57.6 38.02 clipbox
183.854545 38.583139 m
184.483626 38.016 l
187.461818 38.016 l
191.069091 38.016 l
194.676364 38.016 l
198.283636 38.016 l
201.890909 38.016 l
205.498182 38.016 l
209.105455 38.016 l
212.712727 38.016 l
216.32 38.016 l
219.927273 38.016 l
223.534545 38.016 l
227.141818 38.016 l
228.688469 38.016 l
227.141818 39.387817 l
225.662967 40.704 l
223.534545 42.598158 l
222.645564 43.392 l
219.927273 45.81919 l
219.636175 46.08 l
216.638892 48.768 l
216.32 49.054237 l
213.653383 51.456 l
212.712727 52.303161 l
210.675694 54.144 l
209.105455 55.562893 l
207.705748 56.832 l
205.498182 58.833432 l
204.743464 59.52 l
201.890909 62.114773 l
201.788766 62.208 l
198.848918 64.896 l
198.283636 65.41299 l
195.917891 67.584 l
194.676364 68.723242 l
192.994261 70.272 l
191.069091 72.044416 l
190.077951 72.96 l
187.461818 75.376511 l
187.168889 75.648 l
184.272409 78.336 l
183.854545 78.724137 l
181.386914 81.024 l
180.247273 82.086075 l
178.50848 83.712 l
176.64 85.459055 l
175.637036 86.4 l
173.032727 88.843075 l
172.772512 89.088 l
169.921229 91.776 l
169.425455 92.243758 l
167.080159 94.464 l
165.818182 95.65859 l
164.245825 97.152 l
162.210909 99.084587 l
161.418159 99.84 l
158.603636 102.521746 l
158.597094 102.528 l
155.792792 105.216 l
154.996364 105.979353 l
152.995061 107.904 l
151.389091 109.44833 l
150.20375 110.592 l
147.781818 112.928597 l
147.418796 113.28 l
144.646188 115.968 l
144.174545 116.425789 l
141.884554 118.656 l
140.567273 119.938787 l
139.129096 121.344 l
136.96 123.463205 l
136.379753 124.032 l
133.640151 126.72 l
133.352727 127.002563 l
130.91411 129.408 l
129.745455 130.560659 l
128.194006 132.096 l
126.138182 134.130309 l
125.479777 134.784 l
122.77449 137.472 l
122.530909 137.714572 l
120.08354 140.16 l
118.923636 141.318885 l
117.398288 142.848 l
115.316364 144.934889 l
114.718678 145.536 l
112.049011 148.224 l
111.709091 148.566963 l
109.39265 150.912 l
108.101818 152.218654 l
106.741754 153.6 l
104.494545 155.882175 l
104.096268 156.288 l
101.463522 158.976 l
100.887273 159.565149 l
98.84125 161.664 l
97.28 163.265422 l
96.224213 164.352 l
93.672727 166.977669 l
93.612359 167.04 l
91.017832 169.728 l
90.065455 170.714822 l
88.42915 172.416 l
86.458182 174.464928 l
85.845476 175.104 l
83.272172 177.792 l
82.850909 178.233012 l
80.711748 180.48 l
79.243636 182.021976 l
78.156158 183.168 l
75.636364 185.823215 l
75.605355 185.856 l
73.072685 188.544 l
72.029091 189.651629 l
70.54508 191.232 l
68.421818 193.492924 l
68.022087 193.92 l
65.512647 196.608 l
64.814545 197.35686 l
63.012922 199.296 l
61.207273 201.239295 l
60.517636 201.984 l
58.032326 204.672 l
57.6 205.140802 l
57.6 204.672 l
57.6 201.984 l
57.6 199.296 l
57.6 196.608 l
57.6 193.92 l
57.6 191.232 l
57.6 188.544 l
57.6 185.856 l
57.6 183.168 l
57.6 180.48 l
57.6 177.792 l
57.6 175.104 l
57.6 172.416 l
57.6 169.728 l
57.6 167.04 l
57.6 164.352 l
57.6 161.664 l
57.6 159.594829 l
58.206661 158.976 l
60.844627 156.288 l
61.207273 155.919148 l
63.493994 153.6 l
64.814545 152.260622 l
66.148066 150.912 l
68.421818 148.612329 l
68.806886 148.224 l
71.476717 145.536 l
72.029091 144.980488 l
74.155663 142.848 l
75.636364 141.363071 l
76.839488 140.16 l
79.243636 137.755781 l
79.528235 137.472 l
82.228956 134.784 l
82.850909 134.16547 l
84.937851 132.096 l
86.458182 130.588288 l
87.651802 129.408 l
90.065455 127.021131 l
90.370851 126.72 l
93.101485 124.032 l
93.672727 123.470155 l
95.840701 121.344 l
97.28 119.932363 l
98.585151 118.656 l
100.887273 116.404494 l
101.334879 115.968 l
104.094445 113.28 l
104.494545 112.890769 l
106.864355 110.592 l
108.101818 109.391547 l
109.639679 107.904 l
111.709091 105.902149 l
112.420463 105.216 l
115.207978 102.528 l
115.316364 102.423697 l
118.008956 99.84 l
118.923636 98.96225 l
120.815529 97.152 l
122.530909 95.510531 l
123.627748 94.464 l
126.138182 92.068541 l
126.44566 91.776 l
129.274647 89.088 l
129.745455 88.641028 l
132.112847 86.4 l
133.352727 85.226219 l
134.956878 83.712 l
136.96 81.821045 l
137.806792 81.024 l
140.567273 78.425508 l
140.66264 78.336 l
143.531775 75.648 l
144.174545 75.045935 l
146.407999 72.96 l
147.781818 71.676833 l
149.290296 70.272 l
151.389091 68.317275 l
152.17872 67.584 l
154.996364 64.967263 l
155.073324 64.896 l
157.981257 62.208 l
158.603636 61.63278 l
160.89632 59.52 l
162.210909 58.308482 l
163.817705 56.832 l
165.818182 54.993639 l
166.745466 54.144 l
169.425455 51.688251 l
169.679661 51.456 l
172.625009 48.768 l
173.032727 48.39615 l
175.579741 46.08 l
176.64 45.115779 l
178.541049 43.392 l
180.247273 41.844775 l
181.508991 40.704 l
cl
0.149 0.508 0.557 setrgbcolor
fill
grestore
gsave
357.1 266.1 57.6 38.02 clipbox
144.174545 39.445082 m
145.741412 38.016 l
147.781818 38.016 l
151.389091 38.016 l
154.996364 38.016 l
158.603636 38.016 l
162.210909 38.016 l
165.818182 38.016 l
169.425455 38.016 l
173.032727 38.016 l
176.64 38.016 l
180.247273 38.016 l
183.854545 38.016 l
184.483626 38.016 l
183.854545 38.583139 l
181.508991 40.704 l
180.247273 41.844775 l
178.541049 43.392 l
176.64 45.115779 l
175.579741 46.08 l
173.032727 48.39615 l
172.625009 48.768 l
169.679661 51.456 l
169.425455 51.688251 l
166.745466 54.144 l
165.818182 54.993639 l
163.817705 56.832 l
162.210909 58.308482 l
160.89632 59.52 l
158.603636 61.63278 l
157.981257 62.208 l
155.073324 64.896 l
154.996364 64.967263 l
152.17872 67.584 l
151.389091 68.317275 l
149.290296 70.272 l
147.781818 71.676833 l
146.407999 72.96 l
144.174545 75.045935 l
143.531775 75.648 l
140.66264 78.336 l
140.567273 78.425508 l
137.806792 81.024 l
136.96 81.821045 l
134.956878 83.712 l
133.352727 85.226219 l
132.112847 86.4 l
129.745455 88.641028 l
129.274647 89.088 l
126.44566 91.776 l
126.138182 92.068541 l
123.627748 94.464 l
122.530909 95.510531 l
120.815529 97.152 l
118.923636 98.96225 l
118.008956 99.84 l
115.316364 102.423697 l
115.207978 102.528 l
112.420463 105.216 l
111.709091 105.902149 l
109.639679 107.904 l
108.101818 109.391547 l
106.864355 110.592 l
104.494545 112.890769 l
104.094445 113.28 l
101.334879 115.968 l
100.887273 116.404494 l
98.585151 118.656 l
97.28 119.932363 l
95.840701 121.344 l
93.672727 123.470155 l
93.101485 124.032 l
90.370851 126.72 l
90.065455 127.021131 l
87.651802 129.408 l
86.458182 130.588288 l
84.937851 132.096 l
82.850909 134.16547 l
82.228956 134.784 l
79.528235 137.472 l
79.243636 137.755781 l
76.839488 140.16 l
75.636364 141.363071 l
74.155663 142.848 l
72.029091 144.980488 l
71.476717 145.536 l
68.806886 148.224 l
68.421818 148.612329 l
66.148066 150.912 l
64.814545 152.260622 l
63.493994 153.6 l
61.207273 155.919148 l
60.844627 156.288 l
58.206661 158.976 l
57.6 159.594829 l
57.6 158.976 l
57.6 156.288 l
57.6 153.6 l
57.6 150.912 l
57.6 148.224 l
57.6 145.536 l
57.6 142.848 l
57.6 140.16 l
57.6 137.472 l
57.6 134.784 l
57.6 132.096 l
57.6 129.408 l
57.6 126.72 l
57.6 124.032 l
57.6 121.453574 l
57.711454 121.344 l
60.451026 118.656 l
61.207273 117.914165 l
63.196386 115.968 l
64.814545 114.384677 l
65.94646 113.28 l
68.421818 110.864052 l
68.701286 110.592 l
71.466574 107.904 l
72.029091 107.357579 l
74.239467 105.216 l
75.636364 103.862495 l
77.017219 102.528 l
79.243636 100.376195 l
79.799868 99.84 l
82.590085 97.152 l
82.850909 96.901085 l
85.39081 94.464 l
86.458182 93.439772 l
88.196541 91.776 l
90.065455 89.987164 l
91.007317 89.088 l
93.672727 86.543264 l
93.823177 86.4 l
96.650531 83.712 l
97.28 83.113756 l
99.484543 81.024 l
100.887273 79.694225 l
102.323748 78.336 l
104.494545 76.283326 l
105.168188 75.648 l
108.018745 72.96 l
108.101818 72.881796 l
110.881339 70.272 l
111.709091 69.494744 l
113.749278 67.584 l
115.316364 66.116249 l
116.622603 64.896 l
118.923636 62.746312 l
119.501358 62.208 l
122.387045 59.52 l
122.530909 59.386183 l
125.284022 56.832 l
126.138182 56.03951 l
128.186539 54.144 l
129.745455 52.701321 l
131.09464 51.456 l
133.352727 49.371619 l
134.00837 48.768 l
136.928097 46.08 l
136.96 46.050676 l
139.860113 43.392 l
140.567273 42.743672 l
142.797869 40.704 l
cl
0.121 0.626 0.533 setrgbcolor
fill
grestore
gsave
357.1 266.1 57.6 38.02 clipbox
108.101818 40.521105 m
110.824942 38.016 l
111.709091 38.016 l
115.316364 38.016 l
118.923636 38.016 l
122.530909 38.016 l
126.138182 38.016 l
129.745455 38.016 l
133.352727 38.016 l
136.96 38.016 l
140.567273 38.016 l
144.174545 38.016 l
145.741412 38.016 l
144.174545 39.445082 l
142.797869 40.704 l
140.567273 42.743672 l
139.860113 43.392 l
136.96 46.050676 l
136.928097 46.08 l
134.00837 48.768 l
133.352727 49.371619 l
131.09464 51.456 l
129.745455 52.701321 l
128.186539 54.144 l
126.138182 56.03951 l
125.284022 56.832 l
122.530909 59.386183 l
122.387045 59.52 l
119.501358 62.208 l
118.923636 62.746312 l
116.622603 64.896 l
115.316364 66.116249 l
113.749278 67.584 l
111.709091 69.494744 l
110.881339 70.272 l
108.101818 72.881796 l
108.018745 72.96 l
105.168188 75.648 l
104.494545 76.283326 l
102.323748 78.336 l
100.887273 79.694225 l
99.484543 81.024 l
97.28 83.113756 l
96.650531 83.712 l
93.823177 86.4 l
93.672727 86.543264 l
91.007317 89.088 l
90.065455 89.987164 l
88.196541 91.776 l
86.458182 93.439772 l
85.39081 94.464 l
82.850909 96.901085 l
82.590085 97.152 l
79.799868 99.84 l
79.243636 100.376195 l
77.017219 102.528 l
75.636364 103.862495 l
74.239467 105.216 l
72.029091 107.357579 l
71.466574 107.904 l
68.701286 110.592 l
68.421818 110.864052 l
65.94646 113.28 l
64.814545 114.384677 l
63.196386 115.968 l
61.207273 117.914165 l
60.451026 118.656 l
57.711454 121.344 l
57.6 121.453574 l
57.6 121.344 l
57.6 118.656 l
57.6 115.968 l
57.6 113.28 l
57.6 110.592 l
57.6 107.904 l
57.6 105.216 l
57.6 102.528 l
57.6 99.84 l
57.6 97.152 l
57.6 94.464 l
57.6 91.776 l
57.6 89.088 l
57.6 87.976353 l
59.247399 86.4 l
61.207273 84.524541 l
62.058406 83.712 l
64.814545 81.080678 l
64.874054 81.024 l
67.701032 78.336 l
68.421818 77.650707 l
70.533252 75.648 l
72.029091 74.229107 l
73.370205 72.96 l
75.636364 70.815393 l
76.211924 70.272 l
79.060139 67.584 l
79.243636 67.411052 l
81.918433 64.896 l
82.850909 64.019164 l
84.781586 62.208 l
86.458182 60.635099 l
87.649631 59.52 l
90.065455 57.258858 l
90.522604 56.832 l
93.403039 54.144 l
93.672727 53.892586 l
96.292645 51.456 l
97.28 50.537684 l
99.187271 48.768 l
100.887273 47.190545 l
102.086954 46.08 l
104.494545 43.851169 l
104.991731 43.392 l
107.903479 40.704 l
cl
0.246 0.739 0.452 setrgbcolor
fill
grestore
gsave
357.1 266.1 57.6 38.02 clipbox
79.243636 38.016 m
82.850909 38.016 l
86.458182 38.016 l
90.065455 38.016 l
93.672727 38.016 l
97.28 38.016 l
100.887273 38.016 l
104.494545 38.016 l
108.101818 38.016 l
110.824942 38.016 l
108.101818 40.521105 l
107.903479 40.704 l
104.991731 43.392 l
104.494545 43.851169 l
102.086954 46.08 l
100.887273 47.190545 l
99.187271 48.768 l
97.28 50.537684 l
96.292645 51.456 l
93.672727 53.892586 l
93.403039 54.144 l
90.522604 56.832 l
90.065455 57.258858 l
87.649631 59.52 l
86.458182 60.635099 l
84.781586 62.208 l
82.850909 64.019164 l
81.918433 64.896 l
79.243636 67.411052 l
79.060139 67.584 l
76.211924 70.272 l
75.636364 70.815393 l
73.370205 72.96 l
72.029091 74.229107 l
70.533252 75.648 l
68.421818 77.650707 l
67.701032 78.336 l
64.874054 81.024 l
64.814545 81.080678 l
62.058406 83.712 l
61.207273 84.524541 l
59.247399 86.4 l
57.6 87.976353 l
57.6 86.4 l
57.6 83.712 l
57.6 81.024 l
57.6 78.336 l
57.6 75.648 l
57.6 72.96 l
57.6 70.272 l
57.6 67.584 l
57.6 64.896 l
57.6 62.208 l
57.6 59.52 l
57.6 57.776866 l
58.606382 56.832 l
61.207273 54.389965 l
61.469817 54.144 l
64.341852 51.456 l
64.814545 51.013827 l
67.220681 48.768 l
68.421818 47.64683 l
70.104109 46.08 l
72.029091 44.287042 l
72.992165 43.392 l
75.636364 40.934464 l
75.884882 40.704 l
78.78622 38.016 l
cl
0.516 0.831 0.294 setrgbcolor
fill
grestore
gsave
357.1 266.1 57.6 38.02 clipbox
61.207273 38.016 m
64.814545 38.016 l
68.421818 38.016 l
72.029091 38.016 l
75.636364 38.016 l
78.78622 38.016 l
75.884882 40.704 l
75.636364 40.934464 l
72.992165 43.392 l
72.029091 44.287042 l
70.104109 46.08 l
68.421818 47.64683 l
67.220681 48.768 l
64.814545 51.013827 l
64.341852 51.456 l
61.469817 54.144 l
61.207273 54.389965 l
58.606382 56.832 l
57.6 57.776866 l
57.6 56.832 l
57.6 54.144 l
57.6 51.456 l
57.6 48.768 l
57.6 46.08 l
57.6 43.392 l
57.6 40.704 l
57.6 38.016 l
cl
0.846 0.887 0.100 setrgbcolor
fill
grestore
0.800 setlinewidth
1 setlinejoin
0 setlinecap
[] 0 setdash
0.000 setgray
gsave
/o {
gsave
newpath
translate
0.8 setlinewidth
1 setlinejoin
0 setlinecap
0 0 m
0 -3.5 l

gsave
0.000 setgray
fill
grestore
stroke
grestore
} bind def
93.6727 38.016 o
grestore
/DejaVuSans findfont
10.000 scalefont
setfont
gsave
81.532102 23.422250 translate
0.000000 rotate
0.000000 0.000000 m /minus glyphshow
8.378906 0.000000 m /zero glyphshow
14.741211 0.000000 m /period glyphshow
17.919922 0.000000 m /four glyphshow
grestore
gsave
/o {
gsave
newpath
translate
0.8 setlinewidth
1 setlinejoin
0 setlinecap
0 0 m
0 -3.5 l

gsave
0.000 setgray
fill
grestore
stroke
grestore
} bind def
165.818 38.016 o
grestore
gsave
153.677557 23.422250 translate
0.000000 rotate
0.000000 0.000000 m /minus glyphshow
8.378906 0.000000 m /zero glyphshow
14.741211 0.000000 m /period glyphshow
17.919922 0.000000 m /two glyphshow
grestore
gsave
/o {
gsave
newpath
translate
0.8 setlinewidth
1 setlinejoin
0 setlinecap
0 0 m
0 -3.5 l

gsave
0.000 setgray
fill
grestore
stroke
grestore
} bind def
237.964 38.016 o
grestore
gsave
230.010511 23.422250 translate
0.000000 rotate
0.000000 0.000000 m /zero glyphshow
6.362305 0.000000 m /period glyphshow
9.541016 0.000000 m /zero glyphshow
grestore
gsave
/o {
gsave
newpath
translate
0.8 setlinewidth
1 setlinejoin
0 setlinecap
0 0 m
0 -3.5 l

gsave
0.000 setgray
fill
grestore
stroke
grestore
} bind def
310.109 38.016 o
grestore
gsave
302.155966 23.422250 translate
0.000000 rotate
0.000000 0.000000 m /zero glyphshow
6.362305 0.000000 m /period glyphshow
9.541016 0.000000 m /two glyphshow
grestore
gsave
/o {
gsave
newpath
translate
0.8 setlinewidth
1 setlinejoin
0 setlinecap
0 0 m
0 -3.5 l

gsave
0.000 setgray
fill
grestore
stroke
grestore
} bind def
382.255 38.016 o
grestore
gsave
374.301420 23.422250 translate
0.000000 rotate
0.000000 0.000000 m /zero glyphshow
6.362305 0.000000 m /period glyphshow
9.541016 0.000000 m /four glyphshow
grestore
gsave
212.847500 9.750375 translate
0.000000 rotate
0.000000 0.000000 m /v glyphshow
5.917969 0.000000 m /underscore glyphshow
10.917969 0.000000 m /zero glyphshow
17.280273 0.000000 m /space glyphshow
20.458984 0.000000 m /parenleft glyphshow
24.360352 0.000000 m /m glyphshow
34.101562 0.000000 m /slash glyphshow
37.470703 0.000000 m /s glyphshow
42.680664 0.000000 m /parenright glyphshow
grestore
gsave
/o {
gsave
newpath
translate
0.8 setlinewidth
1 setlinejoin
0 setlinecap
0 0 m
-3.5 0 l

gsave
0.000 setgray
fill
grestore
stroke
grestore
} bind def
57.6 64.896 o
grestore
gsave
26.318750 61.099125 translate
0.000000 rotate
0.000000 0.000000 m /minus glyphshow
8.378906 0.000000 m /zero glyphshow
14.741211 0.000000 m /period glyphshow
17.919922 0.000000 m /four glyphshow
grestore
gsave
/o {
gsave
newpath
translate
0.8 setlinewidth
1 setlinejoin
0 setlinecap
0 0 m
-3.5 0 l

gsave
0.000 setgray
fill
grestore
stroke
grestore
} bind def
57.6 118.656 o
grestore
gsave
26.318750 114.859125 translate
0.000000 rotate
0.000000 0.000000 m /minus glyphshow
8.378906 0.000000 m /zero glyphshow
14.741211 0.000000 m /period glyphshow
17.919922 0.000000 m /two glyphshow
grestore
gsave
/o {
gsave
newpath
translate
0.8 setlinewidth
1 setlinejoin
0 setlinecap
0 0 m
-3.5 0 l

gsave
0.000 setgray
fill
grestore
stroke
grestore
} bind def
57.6 172.416 o
grestore
gsave
34.693750 168.619125 translate
0.000000 rotate
0.000000 0.000000 m /zero glyphshow
6.362305 0.000000 m /period glyphshow
9.541016 0.000000 m /zero glyphshow
grestore
gsave
/o {
gsave
newpath
translate
0.8 setlinewidth
1 setlinejoin
0 setlinecap
0 0 m
-3.5 0 l

gsave
0.000 setgray
fill
grestore
stroke
grestore
} bind def
57.6 226.176 o
grestore
gsave
34.693750 222.379125 translate
0.000000 rotate
0.000000 0.000000 m /zero glyphshow
6.362305 0.000000 m /period glyphshow
9.541016 0.000000 m /two glyphshow
grestore
gsave
/o {
gsave
newpath
translate
0.8 setlinewidth
1 setlinejoin
0 setlinecap
0 0 m
-3.5 0 l

gsave
0.000 setgray
fill
grestore
stroke
grestore
} bind def
57.6 279.936 o
grestore
gsave
34.693750 276.139125 translate
0.000000 rotate
0.000000 0.000000 m /zero glyphshow
6.362305 0.000000 m /period glyphshow
9.541016 0.000000 m /four glyphshow
grestore
gsave
20.240625 147.275125 translate
90.000000 rotate
0.000000 0.000000 m /f glyphshow
3.520508 0.000000 m /space glyphshow
6.699219 0.000000 m /parenleft glyphshow
10.600586 0.000000 m /m glyphshow
20.341797 0.000000 m /slash glyphshow
23.710938 0.000000 m /s glyphshow
28.920898 0.000000 m /asciicircum glyphshow
37.299805 0.000000 m /two glyphshow
43.662109 0.000000 m /parenright glyphshow
grestore
1.500 setlinewidth
2 setlinecap
0.122 0.467 0.706 setrgbcolor
gsave
357.1 266.1 57.6 38.02 clipbox
237.963636 172.416 m
284.897013 207.388936 l
318.805377 207.388936 l
364.208318 173.556422 l
364.208318 173.018822 l
366.759045 171.118119 l
366.759045 170.580519 l
369.819917 168.299675 l
369.819917 167.762075 l
372.880789 165.481232 l
372.880789 164.943632 l
375.431516 163.042928 l
375.431516 162.505328 l
378.492389 160.224485 l
378.492389 159.686885 l
381.553261 157.406041 l
381.553261 156.868441 l
384.614134 154.587598 l
384.614134 154.049998 l
387.164861 152.149295 l
387.164861 151.611695 l
390.225733 149.330851 l
390.225733 148.793251 l
393.286606 146.512407 l
393.286606 145.974807 l
394.306896 145.214526 l
394.306896 145.214526 l
stroke
grestore
1.000 setlinewidth
0 setlinecap
gsave
357.1 266.1 57.6 38.02 clipbox
/o {
gsave
newpath
translate
1.0 setlinewidth
1 setlinejoin
0 setlinecap
0 -1.25 m
0.331504 -1.25 0.649475 -1.118292 0.883883 -0.883883 c
1.118292 -0.649475 1.25 -0.331504 1.25 0 c
1.25 0.331504 1.118292 0.649475 0.883883 0.883883 c
0.649475 1.118292 0.331504 1.25 0 1.25 c
-0.331504 1.25 -0.649475 1.118292 -0.883883 0.883883 c
-1.118292 0.649475 -1.25 0.331504 -1.25 0 c
-1.25 -0.331504 -1.118292 -0.649475 -0.883883 -0.883883 c
-0.649475 -1.118292 -0.331504 -1.25 0 -1.25 c
cl

gsave
0.122 0.467 0.706 setrgbcolor
fill
grestore
stroke
grestore
} bind def
237.964 172.416 o
238.474 172.796 o
238.984 173.176 o
239.494 173.556 o
240.004 173.937 o
240.514 174.317 o
241.025 174.697 o
241.535 175.077 o
242.045 175.457 o
242.555 175.837 o
243.065 176.217 o
243.575 176.598 o
244.085 176.978 o
244.596 177.358 o
245.106 177.738 o
245.616 178.118 o
246.126 178.498 o
246.636 178.878 o
247.146 179.259 o
247.656 179.639 o
248.167 180.019 o
248.677 180.399 o
249.187 180.779 o
249.697 181.159 o
250.207 181.539 o
250.717 181.92 o
251.227 182.3 o
251.738 182.68 o
252.248 183.06 o
252.758 183.44 o
253.268 183.82 o
253.778 184.2 o
254.288 184.58 o
254.798 184.961 o
255.309 185.341 o
255.819 185.721 o
256.329 186.101 o
256.839 186.481 o
257.349 186.861 o
257.859 187.241 o
258.369 187.622 o
258.88 188.002 o
259.39 188.382 o
259.9 188.762 o
260.41 189.142 o
260.92 189.522 o
261.43 189.902 o
261.94 190.283 o
262.451 190.663 o
262.961 191.043 o
263.471 191.423 o
263.981 191.803 o
264.491 192.183 o
265.001 192.563 o
265.511 192.944 o
266.022 193.324 o
266.532 193.704 o
267.042 194.084 o
267.552 194.464 o
268.062 194.844 o
268.572 195.224 o
269.083 195.605 o
269.593 195.985 o
270.103 196.365 o
270.613 196.745 o
271.123 197.125 o
271.633 197.505 o
272.143 197.885 o
272.654 198.266 o
273.164 198.646 o
273.674 199.026 o
274.184 199.406 o
274.694 199.786 o
275.204 200.166 o
275.714 200.546 o
276.225 200.927 o
276.735 201.307 o
277.245 201.687 o
277.755 202.067 o
278.265 202.447 o
278.775 202.827 o
279.285 203.207 o
279.796 203.588 o
280.306 203.968 o
280.816 204.348 o
281.326 204.728 o
281.836 205.108 o
282.346 205.488 o
282.856 205.868 o
283.367 206.249 o
283.877 206.629 o
284.387 207.009 o
284.897 207.389 o
285.618 207.389 o
286.34 207.389 o
287.061 207.389 o
287.783 207.389 o
288.504 207.389 o
289.226 207.389 o
289.947 207.389 o
290.669 207.389 o
291.39 207.389 o
292.112 207.389 o
292.833 207.389 o
293.554 207.389 o
294.276 207.389 o
294.997 207.389 o
295.719 207.389 o
296.44 207.389 o
297.162 207.389 o
297.883 207.389 o
298.605 207.389 o
299.326 207.389 o
300.048 207.389 o
300.769 207.389 o
301.49 207.389 o
302.212 207.389 o
302.933 207.389 o
303.655 207.389 o
304.376 207.389 o
305.098 207.389 o
305.819 207.389 o
306.541 207.389 o
307.262 207.389 o
307.984 207.389 o
308.705 207.389 o
309.426 207.389 o
310.148 207.389 o
310.869 207.389 o
311.591 207.389 o
312.312 207.389 o
313.034 207.389 o
313.755 207.389 o
314.477 207.389 o
315.198 207.389 o
315.92 207.389 o
316.641 207.389 o
317.362 207.389 o
318.084 207.389 o
318.805 207.389 o
319.316 207.009 o
319.826 206.629 o
320.336 206.249 o
320.846 205.868 o
321.356 205.488 o
321.866 205.108 o
322.376 204.728 o
322.887 204.348 o
323.397 203.968 o
323.907 203.588 o
324.417 203.207 o
324.927 202.827 o
325.437 202.447 o
325.947 202.067 o
326.458 201.687 o
326.968 201.307 o
327.478 200.927 o
327.988 200.546 o
328.498 200.166 o
329.008 199.786 o
329.518 199.406 o
330.029 199.026 o
330.539 198.646 o
331.049 198.266 o
331.559 197.885 o
332.069 197.505 o
332.579 197.125 o
333.089 196.745 o
333.6 196.365 o
334.11 195.985 o
334.62 195.605 o
335.13 195.224 o
335.64 194.844 o
336.15 194.464 o
336.66 194.084 o
337.171 193.704 o
337.681 193.324 o
338.191 192.944 o
338.701 192.563 o
339.211 192.183 o
339.721 191.803 o
340.231 191.423 o
340.742 191.043 o
341.252 190.663 o
341.762 190.283 o
342.272 189.902 o
342.782 189.522 o
343.292 189.142 o
343.803 188.762 o
344.313 188.382 o
344.823 188.002 o
345.333 187.622 o
345.843 187.241 o
346.353 186.861 o
346.863 186.481 o
347.374 186.101 o
347.884 185.721 o
348.394 185.341 o
348.904 184.961 o
349.414 184.58 o
349.924 184.2 o
350.434 183.82 o
350.945 183.44 o
351.455 183.06 o
351.965 182.68 o
352.475 182.3 o
352.985 181.92 o
353.495 181.539 o
354.005 181.159 o
354.516 180.779 o
355.026 180.399 o
355.536 180.019 o
356.046 179.639 o
356.556 179.259 o
357.066 178.878 o
357.576 178.498 o
358.087 178.118 o
358.597 177.738 o
359.107 177.358 o
359.617 176.978 o
360.127 176.598 o
360.637 176.217 o
361.147 175.837 o
361.658 175.457 o
362.168 175.077 o
362.678 174.697 o
363.188 174.317 o
363.698 173.937 o
364.208 173.556 o
364.208 173.019 o
364.718 172.639 o
365.229 172.259 o
365.739 171.878 o
366.249 171.498 o
366.759 171.118 o
366.759 170.581 o
367.269 170.2 o
367.779 169.82 o
368.289 169.44 o
368.8 169.06 o
369.31 168.68 o
369.82 168.3 o
369.82 167.762 o
370.33 167.382 o
370.84 167.002 o
371.35 166.622 o
371.86 166.242 o
372.371 165.861 o
372.881 165.481 o
372.881 164.944 o
373.391 164.563 o
373.901 164.183 o
374.411 163.803 o
374.921 163.423 o
375.432 163.043 o
375.432 162.505 o
375.942 162.125 o
376.452 161.745 o
376.962 161.365 o
377.472 160.985 o
377.982 160.605 o
378.492 160.224 o
378.492 159.687 o
379.003 159.307 o
379.513 158.927 o
380.023 158.546 o
380.533 158.166 o
381.043 157.786 o
381.553 157.406 o
381.553 156.868 o
382.063 156.488 o
382.574 156.108 o
383.084 155.728 o
383.594 155.348 o
384.104 154.968 o
384.614 154.588 o
384.614 154.05 o
385.124 153.67 o
385.634 153.29 o
386.145 152.91 o
386.655 152.529 o
387.165 152.149 o
387.165 151.612 o
387.675 151.232 o
388.185 150.851 o
388.695 150.471 o
389.205 150.091 o
389.716 149.711 o
390.226 149.331 o
390.226 148.793 o
390.736 148.413 o
391.246 148.033 o
391.756 147.653 o
392.266 147.273 o
392.776 146.893 o
393.287 146.512 o
393.287 145.975 o
393.797 145.595 o
394.307 145.215 o
grestore
2 setlinejoin
0.750 0.750 0.000 setrgbcolor
gsave
357.1 266.1 57.6 38.02 clipbox
/o {
gsave
newpath
translate
1.0 setlinewidth
2 setlinejoin
0 setlinecap
0 3 m
-0.673542 0.927051 l
-2.85317 0.927051 l
-1.089814 -0.354102 l
-1.763356 -2.427051 l
-0 -1.145898 l
1.763356 -2.427051 l
1.089814 -0.354102 l
2.85317 0.927051 l
0.673542 0.927051 l
cl

gsave
0.750 0.750 0.000 setrgbcolor
fill
grestore
stroke
grestore
} bind def
237.964 172.416 o
grestore
1 setlinejoin
1.000 0.000 0.000 setrgbcolor
gsave
357.1 266.1 57.6 38.02 clipbox
/o {
gsave
newpath
translate
1.0 setlinewidth
1 setlinejoin
0 setlinecap
-3 -3 m
3 3 l
-3 3 m
3 -3 l

gsave
1.000 0.000 0.000 setrgbcolor
fill
grestore
stroke
grestore
} bind def
394.307 145.215 o
grestore
0.800 setlinewidth
0 setlinejoin
2 setlinecap
[] 0 setdash
0.000 setgray
gsave
57.6 38.016 m
57.6 304.128 l
stroke
grestore
gsave
414.72 38.016 m
414.72 304.128 l
stroke
grestore
gsave
57.6 38.016 m
414.72 38.016 l
stroke
grestore
gsave
57.6 304.128 m
414.72 304.128 l
stroke
grestore
/DejaVuSans findfont
12.000 scalefont
setfont
gsave
198.292812 310.128000 translate
0.000000 rotate
0.000000 0.000000 m /H glyphshow
9.023438 0.000000 m /i glyphshow
12.357422 0.000000 m /l glyphshow
15.691406 0.000000 m /l glyphshow
19.025391 0.000000 m /space glyphshow
22.839844 0.000000 m /C glyphshow
31.218750 0.000000 m /l glyphshow
34.552734 0.000000 m /i glyphshow
37.886719 0.000000 m /m glyphshow
49.576172 0.000000 m /b glyphshow
57.193359 0.000000 m /i glyphshow
60.527344 0.000000 m /n glyphshow
68.132812 0.000000 m /g glyphshow
grestore

end
showpage
