%!PS-Adobe-3.0 EPSF-3.0
%%Title: best_fitness_schaffer2d.eps
%%Creator: matplotlib version 2.1.2, http://matplotlib.org/
%%CreationDate: Mon Apr 22 08:10:48 2019
%%Orientation: portrait
%%BoundingBox: 75 223 536 568
%%EndComments
%%BeginProlog
/mpldict 8 dict def
mpldict begin
/m { moveto } bind def
/l { lineto } bind def
/r { rlineto } bind def
/c { curveto } bind def
/cl { closepath } bind def
/box {
m
1 index 0 r
0 exch r
neg 0 r
cl
} bind def
/clipbox {
box
clip
newpath
} bind def
%!PS-Adobe-3.0 Resource-Font
%%Title: DejaVu Sans
%%Copyright: Copyright (c) 2003 by Bitstream, Inc. All Rights Reserved. Copyright (c) 2006 by Tavmjong Bah. All Rights Reserved. DejaVu changes are in public domain 
%%Creator: Converted from TrueType to type 3 by PPR
25 dict begin
/_d{bind def}bind def
/_m{moveto}_d
/_l{lineto}_d
/_cl{closepath eofill}_d
/_c{curveto}_d
/_sc{7 -1 roll{setcachedevice}{pop pop pop pop pop pop}ifelse}_d
/_e{exec}_d
/FontName /DejaVuSans def
/PaintType 0 def
/FontMatrix[.001 0 0 .001 0 0]def
/FontBBox[-1021 -463 1793 1232]def
/FontType 3 def
/Encoding [ /space /parenleft /parenright /comma /hyphen /period /zero /one /two /three /four /five /six /seven /eight /A /B /C /E /F /I /M /S /a /c /d /e /f /h /i /n /o /r /s /t ] def
/FontInfo 10 dict dup begin
/FamilyName (DejaVu Sans) def
/FullName (DejaVu Sans) def
/Notice (Copyright (c) 2003 by Bitstream, Inc. All Rights Reserved. Copyright (c) 2006 by Tavmjong Bah. All Rights Reserved. DejaVu changes are in public domain ) def
/Weight (Book) def
/Version (Version 2.35) def
/ItalicAngle 0.0 def
/isFixedPitch false def
/UnderlinePosition -130 def
/UnderlineThickness 90 def
end readonly def
/CharStrings 36 dict dup begin
/.notdef 0 def
/space{318 0 0 0 0 0 _sc
}_d
/parenleft{390 0 86 -131 310 759 _sc
310 759 _m
266 683 234 609 213 536 _c
191 463 181 389 181 314 _c
181 238 191 164 213 91 _c
234 17 266 -56 310 -131 _c
232 -131 _l
183 -54 146 20 122 94 _c
98 168 86 241 86 314 _c
86 386 98 459 122 533 _c
146 607 182 682 232 759 _c
310 759 _l
_cl}_d
/parenright{390 0 80 -131 304 759 _sc
80 759 _m
158 759 _l
206 682 243 607 267 533 _c
291 459 304 386 304 314 _c
304 241 291 168 267 94 _c
243 20 206 -54 158 -131 _c
80 -131 _l
123 -56 155 17 177 91 _c
198 164 209 238 209 314 _c
209 389 198 463 177 536 _c
155 609 123 683 80 759 _c
_cl}_d
/comma{318 0 77 -115 220 124 _sc
117 124 _m
220 124 _l
220 40 _l
140 -115 _l
77 -115 _l
117 40 _l
117 124 _l
_cl}_d
/hyphen{361 0 49 234 312 314 _sc
49 314 _m
312 314 _l
312 234 _l
49 234 _l
49 314 _l
_cl}_d
/period{318 0 107 0 210 124 _sc
107 124 _m
210 124 _l
210 0 _l
107 0 _l
107 124 _l
_cl}_d
/zero{636 0 66 -13 570 742 _sc
318 664 _m
267 664 229 639 203 589 _c
177 539 165 464 165 364 _c
165 264 177 189 203 139 _c
229 89 267 64 318 64 _c
369 64 407 89 433 139 _c
458 189 471 264 471 364 _c
471 464 458 539 433 589 _c
407 639 369 664 318 664 _c
318 742 _m
399 742 461 709 505 645 _c
548 580 570 486 570 364 _c
570 241 548 147 505 83 _c
461 19 399 -13 318 -13 _c
236 -13 173 19 130 83 _c
87 147 66 241 66 364 _c
66 486 87 580 130 645 _c
173 709 236 742 318 742 _c
_cl}_d
/one{636 0 110 0 544 729 _sc
124 83 _m
285 83 _l
285 639 _l
110 604 _l
110 694 _l
284 729 _l
383 729 _l
383 83 _l
544 83 _l
544 0 _l
124 0 _l
124 83 _l
_cl}_d
/two{{636 0 73 0 536 742 _sc
192 83 _m
536 83 _l
536 0 _l
73 0 _l
73 83 _l
110 121 161 173 226 239 _c
290 304 331 346 348 365 _c
380 400 402 430 414 455 _c
426 479 433 504 433 528 _c
433 566 419 598 392 622 _c
365 646 330 659 286 659 _c
255 659 222 653 188 643 _c
154 632 117 616 78 594 _c
78 694 _l
118 710 155 722 189 730 _c
223 738 255 742 284 742 _c
}_e{359 742 419 723 464 685 _c
509 647 532 597 532 534 _c
532 504 526 475 515 449 _c
504 422 484 390 454 354 _c
446 344 420 317 376 272 _c
332 227 271 164 192 83 _c
_cl}_e}_d
/three{{636 0 76 -13 556 742 _sc
406 393 _m
453 383 490 362 516 330 _c
542 298 556 258 556 212 _c
556 140 531 84 482 45 _c
432 6 362 -13 271 -13 _c
240 -13 208 -10 176 -4 _c
144 1 110 10 76 22 _c
76 117 _l
103 101 133 89 166 81 _c
198 73 232 69 268 69 _c
330 69 377 81 409 105 _c
441 129 458 165 458 212 _c
458 254 443 288 413 312 _c
383 336 341 349 287 349 _c
}_e{202 349 _l
202 430 _l
291 430 _l
339 430 376 439 402 459 _c
428 478 441 506 441 543 _c
441 580 427 609 401 629 _c
374 649 336 659 287 659 _c
260 659 231 656 200 650 _c
169 644 135 635 98 623 _c
98 711 _l
135 721 170 729 203 734 _c
235 739 266 742 296 742 _c
370 742 429 725 473 691 _c
517 657 539 611 539 553 _c
539 513 527 479 504 451 _c
481 423 448 403 406 393 _c
_cl}_e}_d
/four{636 0 49 0 580 729 _sc
378 643 _m
129 254 _l
378 254 _l
378 643 _l
352 729 _m
476 729 _l
476 254 _l
580 254 _l
580 172 _l
476 172 _l
476 0 _l
378 0 _l
378 172 _l
49 172 _l
49 267 _l
352 729 _l
_cl}_d
/five{{636 0 77 -13 549 729 _sc
108 729 _m
495 729 _l
495 646 _l
198 646 _l
198 467 _l
212 472 227 476 241 478 _c
255 480 270 482 284 482 _c
365 482 429 459 477 415 _c
525 370 549 310 549 234 _c
549 155 524 94 475 51 _c
426 8 357 -13 269 -13 _c
238 -13 207 -10 175 -6 _c
143 -1 111 6 77 17 _c
77 116 _l
106 100 136 88 168 80 _c
199 72 232 69 267 69 _c
}_e{323 69 368 83 401 113 _c
433 143 450 183 450 234 _c
450 284 433 324 401 354 _c
368 384 323 399 267 399 _c
241 399 214 396 188 390 _c
162 384 135 375 108 363 _c
108 729 _l
_cl}_e}_d
/six{{636 0 70 -13 573 742 _sc
330 404 _m
286 404 251 388 225 358 _c
199 328 186 286 186 234 _c
186 181 199 139 225 109 _c
251 79 286 64 330 64 _c
374 64 409 79 435 109 _c
461 139 474 181 474 234 _c
474 286 461 328 435 358 _c
409 388 374 404 330 404 _c
526 713 _m
526 623 _l
501 635 476 644 451 650 _c
425 656 400 659 376 659 _c
310 659 260 637 226 593 _c
}_e{192 549 172 482 168 394 _c
187 422 211 444 240 459 _c
269 474 301 482 336 482 _c
409 482 467 459 509 415 _c
551 371 573 310 573 234 _c
573 159 550 99 506 54 _c
462 9 403 -13 330 -13 _c
246 -13 181 19 137 83 _c
92 147 70 241 70 364 _c
70 479 97 571 152 639 _c
206 707 280 742 372 742 _c
396 742 421 739 447 735 _c
472 730 498 723 526 713 _c
_cl}_e}_d
/seven{636 0 82 0 551 729 _sc
82 729 _m
551 729 _l
551 687 _l
286 0 _l
183 0 _l
432 646 _l
82 646 _l
82 729 _l
_cl}_d
/eight{{636 0 68 -13 568 742 _sc
318 346 _m
271 346 234 333 207 308 _c
180 283 167 249 167 205 _c
167 161 180 126 207 101 _c
234 76 271 64 318 64 _c
364 64 401 76 428 102 _c
455 127 469 161 469 205 _c
469 249 455 283 429 308 _c
402 333 365 346 318 346 _c
219 388 _m
177 398 144 418 120 447 _c
96 476 85 511 85 553 _c
85 611 105 657 147 691 _c
188 725 245 742 318 742 _c
}_e{390 742 447 725 489 691 _c
530 657 551 611 551 553 _c
551 511 539 476 515 447 _c
491 418 459 398 417 388 _c
464 377 501 355 528 323 _c
554 291 568 251 568 205 _c
568 134 546 80 503 43 _c
459 5 398 -13 318 -13 _c
237 -13 175 5 132 43 _c
89 80 68 134 68 205 _c
68 251 81 291 108 323 _c
134 355 171 377 219 388 _c
183 544 _m
183 506 194 476 218 455 _c
}_e{242 434 275 424 318 424 _c
360 424 393 434 417 455 _c
441 476 453 506 453 544 _c
453 582 441 611 417 632 _c
393 653 360 664 318 664 _c
275 664 242 653 218 632 _c
194 611 183 582 183 544 _c
_cl}_e}_d
/A{684 0 8 0 676 729 _sc
342 632 _m
208 269 _l
476 269 _l
342 632 _l
286 729 _m
398 729 _l
676 0 _l
573 0 _l
507 187 _l
178 187 _l
112 0 _l
8 0 _l
286 729 _l
_cl}_d
/B{{686 0 98 0 615 729 _sc
197 348 _m
197 81 _l
355 81 _l
408 81 447 92 473 114 _c
498 136 511 169 511 215 _c
511 260 498 293 473 315 _c
447 337 408 348 355 348 _c
197 348 _l
197 648 _m
197 428 _l
343 428 _l
391 428 426 437 450 455 _c
474 473 486 500 486 538 _c
486 574 474 602 450 620 _c
426 638 391 648 343 648 _c
197 648 _l
98 729 _m
350 729 _l
}_e{425 729 483 713 524 682 _c
564 650 585 606 585 549 _c
585 504 574 468 553 442 _c
532 416 502 399 462 393 _c
510 382 548 360 575 327 _c
601 294 615 253 615 204 _c
615 138 592 88 548 53 _c
504 17 441 0 360 0 _c
98 0 _l
98 729 _l
_cl}_e}_d
/C{{698 0 56 -13 644 742 _sc
644 673 _m
644 569 _l
610 599 575 622 537 638 _c
499 653 460 661 418 661 _c
334 661 270 635 226 584 _c
182 533 160 460 160 364 _c
160 268 182 194 226 143 _c
270 92 334 67 418 67 _c
460 67 499 74 537 90 _c
575 105 610 128 644 159 _c
644 56 _l
609 32 572 15 534 4 _c
496 -7 455 -13 412 -13 _c
302 -13 215 20 151 87 _c
}_e{87 154 56 246 56 364 _c
56 481 87 573 151 641 _c
215 708 302 742 412 742 _c
456 742 497 736 535 725 _c
573 713 610 696 644 673 _c
_cl}_e}_d
/E{632 0 98 0 568 729 _sc
98 729 _m
559 729 _l
559 646 _l
197 646 _l
197 430 _l
544 430 _l
544 347 _l
197 347 _l
197 83 _l
568 83 _l
568 0 _l
98 0 _l
98 729 _l
_cl}_d
/F{575 0 98 0 517 729 _sc
98 729 _m
517 729 _l
517 646 _l
197 646 _l
197 431 _l
486 431 _l
486 348 _l
197 348 _l
197 0 _l
98 0 _l
98 729 _l
_cl}_d
/I{295 0 98 0 197 729 _sc
98 729 _m
197 729 _l
197 0 _l
98 0 _l
98 729 _l
_cl}_d
/M{863 0 98 0 765 729 _sc
98 729 _m
245 729 _l
431 233 _l
618 729 _l
765 729 _l
765 0 _l
669 0 _l
669 640 _l
481 140 _l
382 140 _l
194 640 _l
194 0 _l
98 0 _l
98 729 _l
_cl}_d
/S{{635 0 66 -13 579 742 _sc
535 705 _m
535 609 _l
497 627 462 640 429 649 _c
395 657 363 662 333 662 _c
279 662 237 651 208 631 _c
179 610 165 580 165 542 _c
165 510 174 485 194 469 _c
213 452 250 439 304 429 _c
364 417 _l
437 403 491 378 526 343 _c
561 307 579 260 579 201 _c
579 130 555 77 508 41 _c
460 5 391 -13 300 -13 _c
265 -13 228 -9 189 -2 _c
}_e{150 5 110 16 69 32 _c
69 134 _l
109 111 148 94 186 83 _c
224 71 262 66 300 66 _c
356 66 399 77 430 99 _c
460 121 476 152 476 194 _c
476 230 465 258 443 278 _c
421 298 385 313 335 323 _c
275 335 _l
201 349 148 372 115 404 _c
82 435 66 478 66 534 _c
66 598 88 649 134 686 _c
179 723 242 742 322 742 _c
356 742 390 739 426 733 _c
461 727 497 717 535 705 _c
}_e{_cl}_e}_d
/a{{613 0 60 -13 522 560 _sc
343 275 _m
270 275 220 266 192 250 _c
164 233 150 205 150 165 _c
150 133 160 107 181 89 _c
202 70 231 61 267 61 _c
317 61 357 78 387 114 _c
417 149 432 196 432 255 _c
432 275 _l
343 275 _l
522 312 _m
522 0 _l
432 0 _l
432 83 _l
411 49 385 25 355 10 _c
325 -5 287 -13 243 -13 _c
187 -13 142 2 109 33 _c
76 64 60 106 60 159 _c
}_e{60 220 80 266 122 298 _c
163 329 224 345 306 345 _c
432 345 _l
432 354 _l
432 395 418 427 391 450 _c
364 472 326 484 277 484 _c
245 484 215 480 185 472 _c
155 464 127 453 100 439 _c
100 522 _l
132 534 164 544 195 550 _c
226 556 256 560 286 560 _c
365 560 424 539 463 498 _c
502 457 522 395 522 312 _c
_cl}_e}_d
/c{{550 0 55 -13 488 560 _sc
488 526 _m
488 442 _l
462 456 437 466 411 473 _c
385 480 360 484 334 484 _c
276 484 230 465 198 428 _c
166 391 150 339 150 273 _c
150 206 166 154 198 117 _c
230 80 276 62 334 62 _c
360 62 385 65 411 72 _c
437 79 462 90 488 104 _c
488 21 _l
462 9 436 0 410 -5 _c
383 -10 354 -13 324 -13 _c
242 -13 176 12 128 64 _c
}_e{79 115 55 185 55 273 _c
55 362 79 432 128 483 _c
177 534 244 560 330 560 _c
358 560 385 557 411 551 _c
437 545 463 537 488 526 _c
_cl}_e}_d
/d{{635 0 55 -13 544 760 _sc
454 464 _m
454 760 _l
544 760 _l
544 0 _l
454 0 _l
454 82 _l
435 49 411 25 382 10 _c
353 -5 319 -13 279 -13 _c
213 -13 159 13 117 65 _c
75 117 55 187 55 273 _c
55 359 75 428 117 481 _c
159 533 213 560 279 560 _c
319 560 353 552 382 536 _c
411 520 435 496 454 464 _c
148 273 _m
148 207 161 155 188 117 _c
215 79 253 61 301 61 _c
}_e{348 61 385 79 413 117 _c
440 155 454 207 454 273 _c
454 339 440 390 413 428 _c
385 466 348 485 301 485 _c
253 485 215 466 188 428 _c
161 390 148 339 148 273 _c
_cl}_e}_d
/e{{615 0 55 -13 562 560 _sc
562 296 _m
562 252 _l
149 252 _l
153 190 171 142 205 110 _c
238 78 284 62 344 62 _c
378 62 412 66 444 74 _c
476 82 509 95 541 113 _c
541 28 _l
509 14 476 3 442 -3 _c
408 -9 373 -13 339 -13 _c
251 -13 182 12 131 62 _c
80 112 55 181 55 268 _c
55 357 79 428 127 481 _c
175 533 241 560 323 560 _c
397 560 455 536 498 489 _c
}_e{540 441 562 377 562 296 _c
472 322 _m
471 371 457 410 431 440 _c
404 469 368 484 324 484 _c
274 484 234 469 204 441 _c
174 413 156 373 152 322 _c
472 322 _l
_cl}_e}_d
/f{352 0 23 0 371 760 _sc
371 760 _m
371 685 _l
285 685 _l
253 685 230 678 218 665 _c
205 652 199 629 199 595 _c
199 547 _l
347 547 _l
347 477 _l
199 477 _l
199 0 _l
109 0 _l
109 477 _l
23 477 _l
23 547 _l
109 547 _l
109 585 _l
109 645 123 690 151 718 _c
179 746 224 760 286 760 _c
371 760 _l
_cl}_d
/h{634 0 91 0 549 760 _sc
549 330 _m
549 0 _l
459 0 _l
459 327 _l
459 379 448 417 428 443 _c
408 469 378 482 338 482 _c
289 482 251 466 223 435 _c
195 404 181 362 181 309 _c
181 0 _l
91 0 _l
91 760 _l
181 760 _l
181 462 _l
202 494 227 519 257 535 _c
286 551 320 560 358 560 _c
420 560 468 540 500 501 _c
532 462 549 405 549 330 _c
_cl}_d
/i{278 0 94 0 184 760 _sc
94 547 _m
184 547 _l
184 0 _l
94 0 _l
94 547 _l
94 760 _m
184 760 _l
184 646 _l
94 646 _l
94 760 _l
_cl}_d
/n{634 0 91 0 549 560 _sc
549 330 _m
549 0 _l
459 0 _l
459 327 _l
459 379 448 417 428 443 _c
408 469 378 482 338 482 _c
289 482 251 466 223 435 _c
195 404 181 362 181 309 _c
181 0 _l
91 0 _l
91 547 _l
181 547 _l
181 462 _l
202 494 227 519 257 535 _c
286 551 320 560 358 560 _c
420 560 468 540 500 501 _c
532 462 549 405 549 330 _c
_cl}_d
/o{612 0 55 -13 557 560 _sc
306 484 _m
258 484 220 465 192 427 _c
164 389 150 338 150 273 _c
150 207 163 156 191 118 _c
219 80 257 62 306 62 _c
354 62 392 80 420 118 _c
448 156 462 207 462 273 _c
462 337 448 389 420 427 _c
392 465 354 484 306 484 _c
306 560 _m
384 560 445 534 490 484 _c
534 433 557 363 557 273 _c
557 183 534 113 490 63 _c
445 12 384 -13 306 -13 _c
227 -13 165 12 121 63 _c
77 113 55 183 55 273 _c
55 363 77 433 121 484 _c
165 534 227 560 306 560 _c
_cl}_d
/r{411 0 91 0 411 560 _sc
411 463 _m
401 469 390 473 378 476 _c
366 478 353 480 339 480 _c
288 480 249 463 222 430 _c
194 397 181 350 181 288 _c
181 0 _l
91 0 _l
91 547 _l
181 547 _l
181 462 _l
199 495 224 520 254 536 _c
284 552 321 560 365 560 _c
371 560 378 559 386 559 _c
393 558 401 557 411 555 _c
411 463 _l
_cl}_d
/s{{521 0 54 -13 472 560 _sc
443 531 _m
443 446 _l
417 458 391 468 364 475 _c
336 481 308 485 279 485 _c
234 485 200 478 178 464 _c
156 450 145 430 145 403 _c
145 382 153 366 169 354 _c
185 342 217 330 265 320 _c
296 313 _l
360 299 405 279 432 255 _c
458 230 472 195 472 151 _c
472 100 452 60 412 31 _c
372 1 316 -13 246 -13 _c
216 -13 186 -10 154 -5 _c
}_e{122 0 89 8 54 20 _c
54 113 _l
87 95 120 82 152 74 _c
184 65 216 61 248 61 _c
290 61 323 68 346 82 _c
368 96 380 117 380 144 _c
380 168 371 187 355 200 _c
339 213 303 226 247 238 _c
216 245 _l
160 257 119 275 95 299 _c
70 323 58 356 58 399 _c
58 450 76 490 112 518 _c
148 546 200 560 268 560 _c
301 560 332 557 362 552 _c
391 547 418 540 443 531 _c
}_e{_cl}_e}_d
/t{392 0 27 0 368 702 _sc
183 702 _m
183 547 _l
368 547 _l
368 477 _l
183 477 _l
183 180 _l
183 135 189 106 201 94 _c
213 81 238 75 276 75 _c
368 75 _l
368 0 _l
276 0 _l
206 0 158 13 132 39 _c
106 65 93 112 93 180 _c
93 477 _l
27 477 _l
27 547 _l
93 547 _l
93 702 _l
183 702 _l
_cl}_d
end readonly def

/BuildGlyph
 {exch begin
 CharStrings exch
 2 copy known not{pop /.notdef}if
 true 3 1 roll get exec
 end}_d

/BuildChar {
 1 index /Encoding get exch get
 1 index /BuildGlyph get exec
}_d

FontName currentdict end definefont pop
end
%%EndProlog
mpldict begin
75.6 223.2 translate
460.8 345.6 0 0 clipbox
gsave
0 0 m
460.8 0 l
460.8 345.6 l
0 345.6 l
cl
1.000 setgray
fill
grestore
gsave
57.6 38.016 m
414.72 38.016 l
414.72 304.128 l
57.6 304.128 l
cl
1.000 setgray
fill
grestore
0.800 setlinewidth
1 setlinejoin
0 setlinecap
[] 0 setdash
0.000 setgray
gsave
/o {
gsave
newpath
translate
0.8 setlinewidth
1 setlinejoin
0 setlinecap
0 0 m
0 -3.5 l

gsave
0.000 setgray
fill
grestore
stroke
grestore
} bind def
73.8327 38.016 o
grestore
/DejaVuSans findfont
10.000 scalefont
setfont
gsave
70.653040 23.422250 translate
0.000000 rotate
0.000000 0.000000 m /zero glyphshow
grestore
gsave
/o {
gsave
newpath
translate
0.8 setlinewidth
1 setlinejoin
0 setlinecap
0 0 m
0 -3.5 l

gsave
0.000 setgray
fill
grestore
stroke
grestore
} bind def
114.618 38.016 o
grestore
gsave
108.259099 23.422250 translate
0.000000 rotate
0.000000 0.000000 m /two glyphshow
6.362305 0.000000 m /five glyphshow
grestore
gsave
/o {
gsave
newpath
translate
0.8 setlinewidth
1 setlinejoin
0 setlinecap
0 0 m
0 -3.5 l

gsave
0.000 setgray
fill
grestore
stroke
grestore
} bind def
155.404 38.016 o
grestore
gsave
149.044846 23.422250 translate
0.000000 rotate
0.000000 0.000000 m /five glyphshow
6.362305 0.000000 m /zero glyphshow
grestore
gsave
/o {
gsave
newpath
translate
0.8 setlinewidth
1 setlinejoin
0 setlinecap
0 0 m
0 -3.5 l

gsave
0.000 setgray
fill
grestore
stroke
grestore
} bind def
196.19 38.016 o
grestore
gsave
189.830593 23.422250 translate
0.000000 rotate
0.000000 0.000000 m /seven glyphshow
6.362305 0.000000 m /five glyphshow
grestore
gsave
/o {
gsave
newpath
translate
0.8 setlinewidth
1 setlinejoin
0 setlinecap
0 0 m
0 -3.5 l

gsave
0.000 setgray
fill
grestore
stroke
grestore
} bind def
236.976 38.016 o
grestore
gsave
227.436652 23.422250 translate
0.000000 rotate
0.000000 0.000000 m /one glyphshow
6.362305 0.000000 m /zero glyphshow
12.724609 0.000000 m /zero glyphshow
grestore
gsave
/o {
gsave
newpath
translate
0.8 setlinewidth
1 setlinejoin
0 setlinecap
0 0 m
0 -3.5 l

gsave
0.000 setgray
fill
grestore
stroke
grestore
} bind def
277.761 38.016 o
grestore
gsave
268.222399 23.422250 translate
0.000000 rotate
0.000000 0.000000 m /one glyphshow
6.362305 0.000000 m /two glyphshow
12.724609 0.000000 m /five glyphshow
grestore
gsave
/o {
gsave
newpath
translate
0.8 setlinewidth
1 setlinejoin
0 setlinecap
0 0 m
0 -3.5 l

gsave
0.000 setgray
fill
grestore
stroke
grestore
} bind def
318.547 38.016 o
grestore
gsave
309.008146 23.422250 translate
0.000000 rotate
0.000000 0.000000 m /one glyphshow
6.362305 0.000000 m /five glyphshow
12.724609 0.000000 m /zero glyphshow
grestore
gsave
/o {
gsave
newpath
translate
0.8 setlinewidth
1 setlinejoin
0 setlinecap
0 0 m
0 -3.5 l

gsave
0.000 setgray
fill
grestore
stroke
grestore
} bind def
359.333 38.016 o
grestore
gsave
349.793893 23.422250 translate
0.000000 rotate
0.000000 0.000000 m /one glyphshow
6.362305 0.000000 m /seven glyphshow
12.724609 0.000000 m /five glyphshow
grestore
gsave
/o {
gsave
newpath
translate
0.8 setlinewidth
1 setlinejoin
0 setlinecap
0 0 m
0 -3.5 l

gsave
0.000 setgray
fill
grestore
stroke
grestore
} bind def
400.119 38.016 o
grestore
gsave
390.579640 23.422250 translate
0.000000 rotate
0.000000 0.000000 m /two glyphshow
6.362305 0.000000 m /zero glyphshow
12.724609 0.000000 m /zero glyphshow
grestore
gsave
214.941250 9.750375 translate
0.000000 rotate
0.000000 0.000000 m /I glyphshow
2.949219 0.000000 m /t glyphshow
6.870117 0.000000 m /e glyphshow
13.022461 0.000000 m /r glyphshow
17.133789 0.000000 m /a glyphshow
23.261719 0.000000 m /t glyphshow
27.182617 0.000000 m /i glyphshow
29.960938 0.000000 m /o glyphshow
36.079102 0.000000 m /n glyphshow
grestore
gsave
/o {
gsave
newpath
translate
0.8 setlinewidth
1 setlinejoin
0 setlinecap
0 0 m
-3.5 0 l

gsave
0.000 setgray
fill
grestore
stroke
grestore
} bind def
57.6 43.1521 o
grestore
gsave
28.334375 39.355189 translate
0.000000 rotate
0.000000 0.000000 m /zero glyphshow
6.362305 0.000000 m /period glyphshow
9.541016 0.000000 m /zero glyphshow
15.903320 0.000000 m /zero glyphshow
grestore
gsave
/o {
gsave
newpath
translate
0.8 setlinewidth
1 setlinejoin
0 setlinecap
0 0 m
-3.5 0 l

gsave
0.000 setgray
fill
grestore
stroke
grestore
} bind def
57.6 75.2539 o
grestore
gsave
28.334375 71.457027 translate
0.000000 rotate
0.000000 0.000000 m /zero glyphshow
6.362305 0.000000 m /period glyphshow
9.541016 0.000000 m /zero glyphshow
15.903320 0.000000 m /two glyphshow
grestore
gsave
/o {
gsave
newpath
translate
0.8 setlinewidth
1 setlinejoin
0 setlinecap
0 0 m
-3.5 0 l

gsave
0.000 setgray
fill
grestore
stroke
grestore
} bind def
57.6 107.356 o
grestore
gsave
28.334375 103.558864 translate
0.000000 rotate
0.000000 0.000000 m /zero glyphshow
6.362305 0.000000 m /period glyphshow
9.541016 0.000000 m /zero glyphshow
15.903320 0.000000 m /four glyphshow
grestore
gsave
/o {
gsave
newpath
translate
0.8 setlinewidth
1 setlinejoin
0 setlinecap
0 0 m
-3.5 0 l

gsave
0.000 setgray
fill
grestore
stroke
grestore
} bind def
57.6 139.458 o
grestore
gsave
28.334375 135.660702 translate
0.000000 rotate
0.000000 0.000000 m /zero glyphshow
6.362305 0.000000 m /period glyphshow
9.541016 0.000000 m /zero glyphshow
15.903320 0.000000 m /six glyphshow
grestore
gsave
/o {
gsave
newpath
translate
0.8 setlinewidth
1 setlinejoin
0 setlinecap
0 0 m
-3.5 0 l

gsave
0.000 setgray
fill
grestore
stroke
grestore
} bind def
57.6 171.559 o
grestore
gsave
28.334375 167.762539 translate
0.000000 rotate
0.000000 0.000000 m /zero glyphshow
6.362305 0.000000 m /period glyphshow
9.541016 0.000000 m /zero glyphshow
15.903320 0.000000 m /eight glyphshow
grestore
gsave
/o {
gsave
newpath
translate
0.8 setlinewidth
1 setlinejoin
0 setlinecap
0 0 m
-3.5 0 l

gsave
0.000 setgray
fill
grestore
stroke
grestore
} bind def
57.6 203.661 o
grestore
gsave
28.334375 199.864376 translate
0.000000 rotate
0.000000 0.000000 m /zero glyphshow
6.362305 0.000000 m /period glyphshow
9.541016 0.000000 m /one glyphshow
15.903320 0.000000 m /zero glyphshow
grestore
gsave
/o {
gsave
newpath
translate
0.8 setlinewidth
1 setlinejoin
0 setlinecap
0 0 m
-3.5 0 l

gsave
0.000 setgray
fill
grestore
stroke
grestore
} bind def
57.6 235.763 o
grestore
gsave
28.334375 231.966214 translate
0.000000 rotate
0.000000 0.000000 m /zero glyphshow
6.362305 0.000000 m /period glyphshow
9.541016 0.000000 m /one glyphshow
15.903320 0.000000 m /two glyphshow
grestore
gsave
/o {
gsave
newpath
translate
0.8 setlinewidth
1 setlinejoin
0 setlinecap
0 0 m
-3.5 0 l

gsave
0.000 setgray
fill
grestore
stroke
grestore
} bind def
57.6 267.865 o
grestore
gsave
28.334375 264.068051 translate
0.000000 rotate
0.000000 0.000000 m /zero glyphshow
6.362305 0.000000 m /period glyphshow
9.541016 0.000000 m /one glyphshow
15.903320 0.000000 m /four glyphshow
grestore
gsave
/o {
gsave
newpath
translate
0.8 setlinewidth
1 setlinejoin
0 setlinecap
0 0 m
-3.5 0 l

gsave
0.000 setgray
fill
grestore
stroke
grestore
} bind def
57.6 299.967 o
grestore
gsave
28.334375 296.169889 translate
0.000000 rotate
0.000000 0.000000 m /zero glyphshow
6.362305 0.000000 m /period glyphshow
9.541016 0.000000 m /one glyphshow
15.903320 0.000000 m /six glyphshow
grestore
gsave
22.256250 153.376687 translate
90.000000 rotate
0.000000 0.000000 m /F glyphshow
5.751953 0.000000 m /i glyphshow
8.530273 0.000000 m /t glyphshow
12.451172 0.000000 m /n glyphshow
18.789062 0.000000 m /e glyphshow
24.941406 0.000000 m /s glyphshow
30.151367 0.000000 m /s glyphshow
grestore
1.500 setlinewidth
2 setlinecap
0.122 0.467 0.706 setrgbcolor
gsave
357.1 266.1 57.6 38.02 clipbox
73.832727 291.593992 m
75.464157 292.032 l
77.095587 261.197355 l
78.727017 268.495233 l
80.358447 209.641037 l
81.989877 214.675502 l
83.621307 203.263811 l
85.252736 198.005307 l
86.884166 190.44354 l
88.515596 175.558949 l
90.147026 150.618864 l
91.778456 142.766715 l
93.409886 150.386855 l
95.041316 146.464237 l
96.672746 144.844608 l
98.304175 135.58356 l
99.935605 121.020024 l
101.567035 122.33634 l
103.198465 127.192426 l
104.829895 113.02294 l
106.461325 101.979858 l
109.724185 109.401622 l
111.355614 97.169594 l
112.987044 99.762174 l
114.618474 100.352171 l
116.249904 97.783957 l
117.881334 98.590603 l
119.512764 100.954107 l
121.144194 98.454438 l
122.775624 91.152094 l
124.407053 93.167469 l
126.038483 91.22003 l
127.669913 94.212753 l
129.301343 91.503625 l
130.932773 91.431932 l
132.564203 89.873418 l
134.195633 90.40448 l
135.827063 89.428467 l
137.458492 90.204883 l
139.089922 92.845055 l
140.721352 90.214429 l
142.352782 90.67464 l
143.984212 88.093481 l
145.615642 90.999279 l
147.247072 89.547777 l
150.509931 89.416018 l
152.141361 88.688043 l
153.772791 88.68526 l
155.404221 87.75096 l
157.035651 89.581172 l
158.667081 88.730145 l
161.929941 88.350423 l
163.56137 88.186274 l
165.1928 87.766723 l
170.08709 87.918027 l
174.98138 87.812633 l
192.927108 87.7806 l
398.487273 87.779525 l
398.487273 87.779525 l
stroke
grestore
1.000 0.498 0.055 setrgbcolor
gsave
357.1 266.1 57.6 38.02 clipbox
73.832727 120.707895 m
75.464157 118.105141 l
77.095587 112.378303 l
78.727017 122.521036 l
80.358447 107.252491 l
81.989877 101.989659 l
83.621307 103.647596 l
85.252736 94.894041 l
86.884166 93.27159 l
88.515596 89.874924 l
90.147026 92.500223 l
91.778456 82.266535 l
93.409886 80.560811 l
95.041316 83.516509 l
96.672746 81.2546 l
98.304175 86.875332 l
99.935605 80.090845 l
101.567035 71.188855 l
103.198465 71.173906 l
104.829895 85.086637 l
106.461325 72.656777 l
108.092755 76.798864 l
109.724185 68.106718 l
111.355614 70.396095 l
112.987044 69.724859 l
114.618474 67.92631 l
116.249904 70.891723 l
117.881334 64.443613 l
119.512764 68.081543 l
121.144194 66.893628 l
122.775624 66.69589 l
124.407053 65.031808 l
126.038483 63.588331 l
127.669913 66.517195 l
129.301343 65.829331 l
130.932773 68.347194 l
132.564203 67.426448 l
134.195633 68.207332 l
135.827063 64.341506 l
137.458492 67.09853 l
139.089922 66.531006 l
142.352782 66.559399 l
143.984212 67.669646 l
145.615642 66.976502 l
147.247072 69.60062 l
148.878502 64.962454 l
150.509931 67.725379 l
152.141361 65.730423 l
153.772791 65.722542 l
155.404221 66.996771 l
157.035651 66.487103 l
158.667081 66.193353 l
160.298511 66.748739 l
161.929941 66.122731 l
163.56137 66.233994 l
165.1928 64.91722 l
166.82423 65.096504 l
168.45566 66.915191 l
171.71852 64.942816 l
173.34995 66.29053 l
174.98138 65.365023 l
176.61281 66.222074 l
178.244239 64.846007 l
179.875669 65.112501 l
181.507099 64.679338 l
183.138529 65.408551 l
184.769959 64.487437 l
186.401389 64.540266 l
188.032819 64.361548 l
189.664249 64.924562 l
191.295678 64.645668 l
192.927108 64.62132 l
194.558538 64.926623 l
196.189968 64.036647 l
197.821398 64.332155 l
199.452828 64.29745 l
201.084258 64.464021 l
202.715688 64.338521 l
204.347117 64.445371 l
207.609977 64.382922 l
209.241407 64.790822 l
210.872837 64.450396 l
215.767127 64.340264 l
220.661416 64.363918 l
222.292846 64.463902 l
225.555706 64.44441 l
227.187136 64.576973 l
228.818566 64.382705 l
232.081425 64.325863 l
233.712855 64.316334 l
235.344285 64.454637 l
236.975715 64.438838 l
238.607145 64.306103 l
243.501434 64.437415 l
245.132864 64.500719 l
246.764294 64.313208 l
253.290014 64.311919 l
254.921444 64.467381 l
256.552873 64.314558 l
336.492937 64.310435 l
398.487273 64.310434 l
398.487273 64.310434 l
stroke
grestore
0.173 0.627 0.173 setrgbcolor
gsave
357.1 266.1 57.6 38.02 clipbox
73.832727 67.014693 m
75.464157 69.42412 l
77.095587 65.756447 l
78.727017 62.421113 l
80.358447 63.302101 l
81.989877 62.724851 l
83.621307 58.373 l
85.252736 59.906295 l
86.884166 58.435554 l
88.515596 58.907493 l
90.147026 56.872116 l
91.778456 54.179604 l
93.409886 55.530665 l
95.041316 55.568195 l
96.672746 57.085753 l
98.304175 53.956504 l
99.935605 54.407711 l
101.567035 55.820208 l
103.198465 54.482196 l
104.829895 53.619411 l
106.461325 53.966357 l
108.092755 53.856022 l
109.724185 53.284112 l
111.355614 53.508897 l
112.987044 52.792924 l
114.618474 53.147273 l
116.249904 52.821774 l
117.881334 53.088703 l
119.512764 51.670971 l
121.144194 51.95537 l
122.775624 51.740528 l
124.407053 52.867689 l
126.038483 52.469101 l
127.669913 54.667297 l
129.301343 52.152945 l
130.932773 52.067171 l
132.564203 52.145813 l
134.195633 51.395463 l
135.827063 51.326154 l
137.458492 50.70597 l
139.089922 51.583005 l
140.721352 51.400044 l
142.352782 51.57315 l
143.984212 52.422891 l
145.615642 51.265123 l
147.247072 50.907881 l
150.509931 50.985956 l
152.141361 50.745614 l
153.772791 51.051096 l
155.404221 50.491021 l
157.035651 50.901395 l
158.667081 50.563854 l
160.298511 50.401487 l
161.929941 50.52435 l
163.56137 50.39608 l
166.82423 50.929348 l
168.45566 50.443683 l
170.08709 51.189113 l
171.71852 50.628475 l
174.98138 50.112 l
176.61281 50.484748 l
178.244239 50.562872 l
179.875669 50.176614 l
181.507099 50.172641 l
183.138529 50.283271 l
184.769959 50.792066 l
186.401389 50.362179 l
188.032819 50.475785 l
189.664249 50.267048 l
191.295678 50.859625 l
192.927108 51.03818 l
194.558538 50.630262 l
196.189968 50.864804 l
197.821398 50.412839 l
201.084258 50.280723 l
204.347117 50.735434 l
205.978547 50.422952 l
210.872837 50.365647 l
212.504267 50.786989 l
214.135697 50.336948 l
215.767127 50.465243 l
219.029986 50.212379 l
220.661416 50.352568 l
225.555706 50.181901 l
230.449995 50.415621 l
232.081425 50.364181 l
233.712855 50.183835 l
235.344285 50.408066 l
236.975715 50.2162 l
246.764294 50.259377 l
250.027154 50.221495 l
253.290014 50.596698 l
254.921444 50.295984 l
256.552873 50.307087 l
258.184303 50.153118 l
261.447163 50.318839 l
263.078593 50.166374 l
266.341453 50.16295 l
289.181471 50.168236 l
398.487273 50.167037 l
398.487273 50.167037 l
stroke
grestore
0.839 0.153 0.157 setrgbcolor
gsave
357.1 266.1 57.6 38.02 clipbox
73.832727 246.428063 m
75.464157 289.097321 l
77.095587 227.048407 l
78.727017 243.762009 l
80.358447 248.474214 l
81.989877 227.776694 l
83.621307 215.426908 l
85.252736 219.471457 l
86.884166 211.698493 l
88.515596 193.575713 l
90.147026 191.588912 l
91.778456 181.177522 l
93.409886 196.871946 l
95.041316 172.311458 l
96.672746 182.147777 l
98.304175 194.318918 l
99.935605 196.793812 l
101.567035 175.122036 l
103.198465 178.578138 l
104.829895 164.321625 l
106.461325 178.513494 l
108.092755 170.073208 l
109.724185 165.853658 l
111.355614 166.282157 l
112.987044 163.97817 l
114.618474 169.958165 l
116.249904 167.651749 l
117.881334 154.775229 l
119.512764 164.157937 l
121.144194 151.012326 l
122.775624 158.493579 l
124.407053 141.244987 l
126.038483 135.698303 l
127.669913 139.380115 l
129.301343 152.75869 l
130.932773 138.983038 l
132.564203 157.614336 l
134.195633 141.940789 l
135.827063 145.676248 l
137.458492 137.632521 l
139.089922 141.612196 l
140.721352 143.520689 l
142.352782 133.554402 l
143.984212 134.564599 l
145.615642 139.261874 l
147.247072 132.8176 l
148.878502 123.505133 l
150.509931 134.956144 l
152.141361 129.578088 l
153.772791 119.206923 l
155.404221 132.061932 l
157.035651 125.347117 l
158.667081 131.032804 l
160.298511 123.311879 l
161.929941 120.046454 l
163.56137 126.508144 l
165.1928 121.69646 l
166.82423 127.810623 l
168.45566 121.110182 l
170.08709 116.385295 l
171.71852 125.972134 l
173.34995 120.284039 l
174.98138 120.539671 l
176.61281 119.190374 l
178.244239 126.593449 l
179.875669 128.83089 l
181.507099 112.096535 l
183.138529 116.790441 l
184.769959 112.183026 l
186.401389 119.916878 l
188.032819 115.570711 l
189.664249 124.85295 l
191.295678 120.070674 l
192.927108 119.165704 l
194.558538 108.980738 l
196.189968 119.905224 l
197.821398 109.230776 l
199.452828 114.957904 l
201.084258 112.994415 l
202.715688 116.857102 l
204.347117 104.676318 l
205.978547 107.3727 l
207.609977 118.616956 l
209.241407 121.289402 l
210.872837 112.690259 l
212.504267 108.393022 l
214.135697 114.722503 l
215.767127 113.047318 l
217.398556 119.428681 l
219.029986 110.298495 l
220.661416 106.448203 l
222.292846 106.048364 l
223.924276 122.763934 l
225.555706 104.742713 l
227.187136 107.892136 l
228.818566 107.910626 l
230.449995 106.080244 l
232.081425 101.273488 l
233.712855 111.105115 l
235.344285 100.402974 l
236.975715 111.463726 l
238.607145 105.194086 l
240.238575 97.398191 l
241.870005 102.74906 l
243.501434 100.457647 l
245.132864 103.663893 l
246.764294 108.526108 l
248.395724 92.177986 l
250.027154 110.949846 l
251.658584 88.728706 l
254.921444 103.817197 l
256.552873 96.690525 l
258.184303 111.852421 l
259.815733 97.989504 l
261.447163 94.791125 l
263.078593 99.375082 l
264.710023 94.689768 l
266.341453 104.654015 l
267.972883 93.973892 l
269.604312 96.966373 l
271.235742 100.391527 l
272.867172 92.084403 l
274.498602 97.887452 l
276.130032 94.270884 l
277.761462 94.304371 l
279.392892 90.262986 l
281.024322 90.603622 l
282.655751 95.96336 l
284.287181 93.268666 l
285.918611 88.414805 l
287.550041 88.556536 l
289.181471 95.903904 l
290.812901 95.912767 l
292.444331 85.038685 l
294.075761 90.69654 l
295.70719 87.338353 l
297.33862 90.244614 l
298.97005 89.207023 l
300.60148 93.688953 l
302.23291 89.247438 l
303.86434 88.717317 l
305.49577 89.433489 l
307.1272 84.339835 l
308.75863 89.842172 l
310.390059 89.17725 l
312.021489 86.677192 l
313.652919 85.620384 l
315.284349 83.436593 l
316.915779 83.513198 l
318.547209 84.256269 l
320.178639 88.482776 l
321.810069 85.780111 l
323.441498 84.30848 l
325.072928 92.039285 l
326.704358 89.910067 l
328.335788 86.630167 l
329.967218 80.457509 l
331.598648 89.502828 l
333.230078 84.791147 l
334.861508 91.307381 l
336.492937 85.885391 l
338.124367 84.62151 l
339.755797 84.948949 l
341.387227 85.740566 l
343.018657 87.673114 l
344.650087 87.690158 l
346.281517 78.570344 l
347.912947 83.86335 l
349.544376 82.567932 l
351.175806 87.074727 l
352.807236 84.786096 l
354.438666 83.203057 l
356.070096 86.712297 l
357.701526 78.106008 l
359.332956 82.262926 l
360.964386 89.32222 l
362.595815 87.961135 l
364.227245 88.888442 l
365.858675 84.761386 l
367.490105 80.030597 l
369.121535 81.134515 l
370.752965 82.94378 l
372.384395 83.780131 l
374.015825 78.5498 l
375.647254 80.191327 l
377.278684 78.467407 l
378.910114 81.03477 l
380.541544 81.009832 l
382.172974 80.785546 l
383.804404 79.454031 l
385.435834 79.222899 l
387.067264 79.391173 l
388.698693 80.337229 l
390.330123 77.46367 l
391.961553 77.229774 l
395.224413 82.681954 l
396.855843 81.465844 l
398.487273 86.36082 l
398.487273 86.36082 l
stroke
grestore
0.800 setlinewidth
0 setlinejoin
[] 0 setdash
0.000 setgray
gsave
57.6 38.016 m
57.6 304.128 l
stroke
grestore
gsave
414.72 38.016 m
414.72 304.128 l
stroke
grestore
gsave
57.6 38.016 m
414.72 38.016 l
stroke
grestore
gsave
57.6 304.128 m
414.72 304.128 l
stroke
grestore
/DejaVuSans findfont
12.000 scalefont
setfont
gsave
161.847500 310.128000 translate
0.000000 rotate
0.000000 0.000000 m /B glyphshow
8.232422 0.000000 m /e glyphshow
15.615234 0.000000 m /s glyphshow
21.867188 0.000000 m /t glyphshow
26.572266 0.000000 m /space glyphshow
30.386719 0.000000 m /F glyphshow
37.289062 0.000000 m /i glyphshow
40.623047 0.000000 m /t glyphshow
45.328125 0.000000 m /n glyphshow
52.933594 0.000000 m /e glyphshow
60.316406 0.000000 m /s glyphshow
66.568359 0.000000 m /s glyphshow
72.820312 0.000000 m /space glyphshow
76.634766 0.000000 m /hyphen glyphshow
80.964844 0.000000 m /space glyphshow
84.779297 0.000000 m /s glyphshow
91.031250 0.000000 m /c glyphshow
97.628906 0.000000 m /h glyphshow
105.234375 0.000000 m /a glyphshow
112.587891 0.000000 m /f glyphshow
116.812500 0.000000 m /f glyphshow
121.037109 0.000000 m /e glyphshow
128.419922 0.000000 m /r glyphshow
133.353516 0.000000 m /two glyphshow
140.988281 0.000000 m /d glyphshow
grestore
1.000 setlinewidth
0 setlinecap
0.800 setgray
gsave
316.673125 237.4405 m
407.72 237.4405 l
409.053333 237.4405 409.72 238.107167 409.72 239.4405 c
409.72 297.128 l
409.72 298.461333 409.053333 299.128 407.72 299.128 c
316.673125 299.128 l
315.339792 299.128 314.673125 298.461333 314.673125 297.128 c
314.673125 239.4405 l
314.673125 238.107167 315.339792 237.4405 316.673125 237.4405 c
cl
gsave
1.000 setgray
fill
grestore
stroke
grestore
1.500 setlinewidth
1 setlinejoin
2 setlinecap
[] 0 setdash
0.122 0.467 0.706 setrgbcolor
gsave
318.673125 291.03425 m
338.673125 291.03425 l
stroke
grestore
0.000 setgray
/DejaVuSans findfont
10.000 scalefont
setfont
gsave
346.673125 287.534250 translate
0.000000 rotate
0.000000 0.000000 m /parenleft glyphshow
3.901367 0.000000 m /three glyphshow
10.263672 0.000000 m /comma glyphshow
13.442383 0.000000 m /six glyphshow
19.804688 0.000000 m /parenright glyphshow
23.706055 0.000000 m /hyphen glyphshow
27.314453 0.000000 m /S glyphshow
33.662109 0.000000 m /E glyphshow
39.980469 0.000000 m /S glyphshow
grestore
1.000 0.498 0.055 setrgbcolor
gsave
318.673125 276.362375 m
338.673125 276.362375 l
stroke
grestore
0.000 setgray
gsave
346.673125 272.862375 translate
0.000000 rotate
0.000000 0.000000 m /parenleft glyphshow
3.901367 0.000000 m /six glyphshow
10.263672 0.000000 m /comma glyphshow
13.442383 0.000000 m /one glyphshow
19.804688 0.000000 m /two glyphshow
26.166992 0.000000 m /parenright glyphshow
30.068359 0.000000 m /hyphen glyphshow
33.676758 0.000000 m /S glyphshow
40.024414 0.000000 m /E glyphshow
46.342773 0.000000 m /S glyphshow
grestore
0.173 0.627 0.173 setrgbcolor
gsave
318.673125 261.6905 m
338.673125 261.6905 l
stroke
grestore
0.000 setgray
gsave
346.673125 258.190500 translate
0.000000 rotate
0.000000 0.000000 m /parenleft glyphshow
3.901367 0.000000 m /one glyphshow
10.263672 0.000000 m /two glyphshow
16.625977 0.000000 m /comma glyphshow
19.804688 0.000000 m /two glyphshow
26.166992 0.000000 m /four glyphshow
32.529297 0.000000 m /parenright glyphshow
36.430664 0.000000 m /hyphen glyphshow
40.039062 0.000000 m /S glyphshow
46.386719 0.000000 m /E glyphshow
52.705078 0.000000 m /S glyphshow
grestore
0.839 0.153 0.157 setrgbcolor
gsave
318.673125 247.018625 m
338.673125 247.018625 l
stroke
grestore
0.000 setgray
gsave
346.673125 243.518625 translate
0.000000 rotate
0.000000 0.000000 m /C glyphshow
6.982422 0.000000 m /M glyphshow
15.610352 0.000000 m /A glyphshow
22.451172 0.000000 m /hyphen glyphshow
26.059570 0.000000 m /E glyphshow
32.377930 0.000000 m /S glyphshow
grestore

end
showpage
