%!PS-Adobe-3.0 EPSF-3.0
%%Title: best_fitness_ackley.eps
%%Creator: matplotlib version 2.1.2, http://matplotlib.org/
%%CreationDate: Mon Apr 22 08:08:02 2019
%%Orientation: portrait
%%BoundingBox: 75 223 536 568
%%EndComments
%%BeginProlog
/mpldict 8 dict def
mpldict begin
/m { moveto } bind def
/l { lineto } bind def
/r { rlineto } bind def
/c { curveto } bind def
/cl { closepath } bind def
/box {
m
1 index 0 r
0 exch r
neg 0 r
cl
} bind def
/clipbox {
box
clip
newpath
} bind def
%!PS-Adobe-3.0 Resource-Font
%%Title: DejaVu Sans
%%Copyright: Copyright (c) 2003 by Bitstream, Inc. All Rights Reserved. Copyright (c) 2006 by Tavmjong Bah. All Rights Reserved. DejaVu changes are in public domain 
%%Creator: Converted from TrueType to type 3 by PPR
25 dict begin
/_d{bind def}bind def
/_m{moveto}_d
/_l{lineto}_d
/_cl{closepath eofill}_d
/_c{curveto}_d
/_sc{7 -1 roll{setcachedevice}{pop pop pop pop pop pop}ifelse}_d
/_e{exec}_d
/FontName /DejaVuSans def
/PaintType 0 def
/FontMatrix[.001 0 0 .001 0 0]def
/FontBBox[-1021 -463 1793 1232]def
/FontType 3 def
/Encoding [ /space /parenleft /parenright /comma /hyphen /zero /one /two /three /four /five /six /seven /eight /A /B /C /E /F /I /M /S /a /c /e /i /k /l /n /o /r /s /t /y ] def
/FontInfo 10 dict dup begin
/FamilyName (DejaVu Sans) def
/FullName (DejaVu Sans) def
/Notice (Copyright (c) 2003 by Bitstream, Inc. All Rights Reserved. Copyright (c) 2006 by Tavmjong Bah. All Rights Reserved. DejaVu changes are in public domain ) def
/Weight (Book) def
/Version (Version 2.35) def
/ItalicAngle 0.0 def
/isFixedPitch false def
/UnderlinePosition -130 def
/UnderlineThickness 90 def
end readonly def
/CharStrings 35 dict dup begin
/.notdef 0 def
/space{318 0 0 0 0 0 _sc
}_d
/parenleft{390 0 86 -131 310 759 _sc
310 759 _m
266 683 234 609 213 536 _c
191 463 181 389 181 314 _c
181 238 191 164 213 91 _c
234 17 266 -56 310 -131 _c
232 -131 _l
183 -54 146 20 122 94 _c
98 168 86 241 86 314 _c
86 386 98 459 122 533 _c
146 607 182 682 232 759 _c
310 759 _l
_cl}_d
/parenright{390 0 80 -131 304 759 _sc
80 759 _m
158 759 _l
206 682 243 607 267 533 _c
291 459 304 386 304 314 _c
304 241 291 168 267 94 _c
243 20 206 -54 158 -131 _c
80 -131 _l
123 -56 155 17 177 91 _c
198 164 209 238 209 314 _c
209 389 198 463 177 536 _c
155 609 123 683 80 759 _c
_cl}_d
/comma{318 0 77 -115 220 124 _sc
117 124 _m
220 124 _l
220 40 _l
140 -115 _l
77 -115 _l
117 40 _l
117 124 _l
_cl}_d
/hyphen{361 0 49 234 312 314 _sc
49 314 _m
312 314 _l
312 234 _l
49 234 _l
49 314 _l
_cl}_d
/zero{636 0 66 -13 570 742 _sc
318 664 _m
267 664 229 639 203 589 _c
177 539 165 464 165 364 _c
165 264 177 189 203 139 _c
229 89 267 64 318 64 _c
369 64 407 89 433 139 _c
458 189 471 264 471 364 _c
471 464 458 539 433 589 _c
407 639 369 664 318 664 _c
318 742 _m
399 742 461 709 505 645 _c
548 580 570 486 570 364 _c
570 241 548 147 505 83 _c
461 19 399 -13 318 -13 _c
236 -13 173 19 130 83 _c
87 147 66 241 66 364 _c
66 486 87 580 130 645 _c
173 709 236 742 318 742 _c
_cl}_d
/one{636 0 110 0 544 729 _sc
124 83 _m
285 83 _l
285 639 _l
110 604 _l
110 694 _l
284 729 _l
383 729 _l
383 83 _l
544 83 _l
544 0 _l
124 0 _l
124 83 _l
_cl}_d
/two{{636 0 73 0 536 742 _sc
192 83 _m
536 83 _l
536 0 _l
73 0 _l
73 83 _l
110 121 161 173 226 239 _c
290 304 331 346 348 365 _c
380 400 402 430 414 455 _c
426 479 433 504 433 528 _c
433 566 419 598 392 622 _c
365 646 330 659 286 659 _c
255 659 222 653 188 643 _c
154 632 117 616 78 594 _c
78 694 _l
118 710 155 722 189 730 _c
223 738 255 742 284 742 _c
}_e{359 742 419 723 464 685 _c
509 647 532 597 532 534 _c
532 504 526 475 515 449 _c
504 422 484 390 454 354 _c
446 344 420 317 376 272 _c
332 227 271 164 192 83 _c
_cl}_e}_d
/three{{636 0 76 -13 556 742 _sc
406 393 _m
453 383 490 362 516 330 _c
542 298 556 258 556 212 _c
556 140 531 84 482 45 _c
432 6 362 -13 271 -13 _c
240 -13 208 -10 176 -4 _c
144 1 110 10 76 22 _c
76 117 _l
103 101 133 89 166 81 _c
198 73 232 69 268 69 _c
330 69 377 81 409 105 _c
441 129 458 165 458 212 _c
458 254 443 288 413 312 _c
383 336 341 349 287 349 _c
}_e{202 349 _l
202 430 _l
291 430 _l
339 430 376 439 402 459 _c
428 478 441 506 441 543 _c
441 580 427 609 401 629 _c
374 649 336 659 287 659 _c
260 659 231 656 200 650 _c
169 644 135 635 98 623 _c
98 711 _l
135 721 170 729 203 734 _c
235 739 266 742 296 742 _c
370 742 429 725 473 691 _c
517 657 539 611 539 553 _c
539 513 527 479 504 451 _c
481 423 448 403 406 393 _c
_cl}_e}_d
/four{636 0 49 0 580 729 _sc
378 643 _m
129 254 _l
378 254 _l
378 643 _l
352 729 _m
476 729 _l
476 254 _l
580 254 _l
580 172 _l
476 172 _l
476 0 _l
378 0 _l
378 172 _l
49 172 _l
49 267 _l
352 729 _l
_cl}_d
/five{{636 0 77 -13 549 729 _sc
108 729 _m
495 729 _l
495 646 _l
198 646 _l
198 467 _l
212 472 227 476 241 478 _c
255 480 270 482 284 482 _c
365 482 429 459 477 415 _c
525 370 549 310 549 234 _c
549 155 524 94 475 51 _c
426 8 357 -13 269 -13 _c
238 -13 207 -10 175 -6 _c
143 -1 111 6 77 17 _c
77 116 _l
106 100 136 88 168 80 _c
199 72 232 69 267 69 _c
}_e{323 69 368 83 401 113 _c
433 143 450 183 450 234 _c
450 284 433 324 401 354 _c
368 384 323 399 267 399 _c
241 399 214 396 188 390 _c
162 384 135 375 108 363 _c
108 729 _l
_cl}_e}_d
/six{{636 0 70 -13 573 742 _sc
330 404 _m
286 404 251 388 225 358 _c
199 328 186 286 186 234 _c
186 181 199 139 225 109 _c
251 79 286 64 330 64 _c
374 64 409 79 435 109 _c
461 139 474 181 474 234 _c
474 286 461 328 435 358 _c
409 388 374 404 330 404 _c
526 713 _m
526 623 _l
501 635 476 644 451 650 _c
425 656 400 659 376 659 _c
310 659 260 637 226 593 _c
}_e{192 549 172 482 168 394 _c
187 422 211 444 240 459 _c
269 474 301 482 336 482 _c
409 482 467 459 509 415 _c
551 371 573 310 573 234 _c
573 159 550 99 506 54 _c
462 9 403 -13 330 -13 _c
246 -13 181 19 137 83 _c
92 147 70 241 70 364 _c
70 479 97 571 152 639 _c
206 707 280 742 372 742 _c
396 742 421 739 447 735 _c
472 730 498 723 526 713 _c
_cl}_e}_d
/seven{636 0 82 0 551 729 _sc
82 729 _m
551 729 _l
551 687 _l
286 0 _l
183 0 _l
432 646 _l
82 646 _l
82 729 _l
_cl}_d
/eight{{636 0 68 -13 568 742 _sc
318 346 _m
271 346 234 333 207 308 _c
180 283 167 249 167 205 _c
167 161 180 126 207 101 _c
234 76 271 64 318 64 _c
364 64 401 76 428 102 _c
455 127 469 161 469 205 _c
469 249 455 283 429 308 _c
402 333 365 346 318 346 _c
219 388 _m
177 398 144 418 120 447 _c
96 476 85 511 85 553 _c
85 611 105 657 147 691 _c
188 725 245 742 318 742 _c
}_e{390 742 447 725 489 691 _c
530 657 551 611 551 553 _c
551 511 539 476 515 447 _c
491 418 459 398 417 388 _c
464 377 501 355 528 323 _c
554 291 568 251 568 205 _c
568 134 546 80 503 43 _c
459 5 398 -13 318 -13 _c
237 -13 175 5 132 43 _c
89 80 68 134 68 205 _c
68 251 81 291 108 323 _c
134 355 171 377 219 388 _c
183 544 _m
183 506 194 476 218 455 _c
}_e{242 434 275 424 318 424 _c
360 424 393 434 417 455 _c
441 476 453 506 453 544 _c
453 582 441 611 417 632 _c
393 653 360 664 318 664 _c
275 664 242 653 218 632 _c
194 611 183 582 183 544 _c
_cl}_e}_d
/A{684 0 8 0 676 729 _sc
342 632 _m
208 269 _l
476 269 _l
342 632 _l
286 729 _m
398 729 _l
676 0 _l
573 0 _l
507 187 _l
178 187 _l
112 0 _l
8 0 _l
286 729 _l
_cl}_d
/B{{686 0 98 0 615 729 _sc
197 348 _m
197 81 _l
355 81 _l
408 81 447 92 473 114 _c
498 136 511 169 511 215 _c
511 260 498 293 473 315 _c
447 337 408 348 355 348 _c
197 348 _l
197 648 _m
197 428 _l
343 428 _l
391 428 426 437 450 455 _c
474 473 486 500 486 538 _c
486 574 474 602 450 620 _c
426 638 391 648 343 648 _c
197 648 _l
98 729 _m
350 729 _l
}_e{425 729 483 713 524 682 _c
564 650 585 606 585 549 _c
585 504 574 468 553 442 _c
532 416 502 399 462 393 _c
510 382 548 360 575 327 _c
601 294 615 253 615 204 _c
615 138 592 88 548 53 _c
504 17 441 0 360 0 _c
98 0 _l
98 729 _l
_cl}_e}_d
/C{{698 0 56 -13 644 742 _sc
644 673 _m
644 569 _l
610 599 575 622 537 638 _c
499 653 460 661 418 661 _c
334 661 270 635 226 584 _c
182 533 160 460 160 364 _c
160 268 182 194 226 143 _c
270 92 334 67 418 67 _c
460 67 499 74 537 90 _c
575 105 610 128 644 159 _c
644 56 _l
609 32 572 15 534 4 _c
496 -7 455 -13 412 -13 _c
302 -13 215 20 151 87 _c
}_e{87 154 56 246 56 364 _c
56 481 87 573 151 641 _c
215 708 302 742 412 742 _c
456 742 497 736 535 725 _c
573 713 610 696 644 673 _c
_cl}_e}_d
/E{632 0 98 0 568 729 _sc
98 729 _m
559 729 _l
559 646 _l
197 646 _l
197 430 _l
544 430 _l
544 347 _l
197 347 _l
197 83 _l
568 83 _l
568 0 _l
98 0 _l
98 729 _l
_cl}_d
/F{575 0 98 0 517 729 _sc
98 729 _m
517 729 _l
517 646 _l
197 646 _l
197 431 _l
486 431 _l
486 348 _l
197 348 _l
197 0 _l
98 0 _l
98 729 _l
_cl}_d
/I{295 0 98 0 197 729 _sc
98 729 _m
197 729 _l
197 0 _l
98 0 _l
98 729 _l
_cl}_d
/M{863 0 98 0 765 729 _sc
98 729 _m
245 729 _l
431 233 _l
618 729 _l
765 729 _l
765 0 _l
669 0 _l
669 640 _l
481 140 _l
382 140 _l
194 640 _l
194 0 _l
98 0 _l
98 729 _l
_cl}_d
/S{{635 0 66 -13 579 742 _sc
535 705 _m
535 609 _l
497 627 462 640 429 649 _c
395 657 363 662 333 662 _c
279 662 237 651 208 631 _c
179 610 165 580 165 542 _c
165 510 174 485 194 469 _c
213 452 250 439 304 429 _c
364 417 _l
437 403 491 378 526 343 _c
561 307 579 260 579 201 _c
579 130 555 77 508 41 _c
460 5 391 -13 300 -13 _c
265 -13 228 -9 189 -2 _c
}_e{150 5 110 16 69 32 _c
69 134 _l
109 111 148 94 186 83 _c
224 71 262 66 300 66 _c
356 66 399 77 430 99 _c
460 121 476 152 476 194 _c
476 230 465 258 443 278 _c
421 298 385 313 335 323 _c
275 335 _l
201 349 148 372 115 404 _c
82 435 66 478 66 534 _c
66 598 88 649 134 686 _c
179 723 242 742 322 742 _c
356 742 390 739 426 733 _c
461 727 497 717 535 705 _c
}_e{_cl}_e}_d
/a{{613 0 60 -13 522 560 _sc
343 275 _m
270 275 220 266 192 250 _c
164 233 150 205 150 165 _c
150 133 160 107 181 89 _c
202 70 231 61 267 61 _c
317 61 357 78 387 114 _c
417 149 432 196 432 255 _c
432 275 _l
343 275 _l
522 312 _m
522 0 _l
432 0 _l
432 83 _l
411 49 385 25 355 10 _c
325 -5 287 -13 243 -13 _c
187 -13 142 2 109 33 _c
76 64 60 106 60 159 _c
}_e{60 220 80 266 122 298 _c
163 329 224 345 306 345 _c
432 345 _l
432 354 _l
432 395 418 427 391 450 _c
364 472 326 484 277 484 _c
245 484 215 480 185 472 _c
155 464 127 453 100 439 _c
100 522 _l
132 534 164 544 195 550 _c
226 556 256 560 286 560 _c
365 560 424 539 463 498 _c
502 457 522 395 522 312 _c
_cl}_e}_d
/c{{550 0 55 -13 488 560 _sc
488 526 _m
488 442 _l
462 456 437 466 411 473 _c
385 480 360 484 334 484 _c
276 484 230 465 198 428 _c
166 391 150 339 150 273 _c
150 206 166 154 198 117 _c
230 80 276 62 334 62 _c
360 62 385 65 411 72 _c
437 79 462 90 488 104 _c
488 21 _l
462 9 436 0 410 -5 _c
383 -10 354 -13 324 -13 _c
242 -13 176 12 128 64 _c
}_e{79 115 55 185 55 273 _c
55 362 79 432 128 483 _c
177 534 244 560 330 560 _c
358 560 385 557 411 551 _c
437 545 463 537 488 526 _c
_cl}_e}_d
/e{{615 0 55 -13 562 560 _sc
562 296 _m
562 252 _l
149 252 _l
153 190 171 142 205 110 _c
238 78 284 62 344 62 _c
378 62 412 66 444 74 _c
476 82 509 95 541 113 _c
541 28 _l
509 14 476 3 442 -3 _c
408 -9 373 -13 339 -13 _c
251 -13 182 12 131 62 _c
80 112 55 181 55 268 _c
55 357 79 428 127 481 _c
175 533 241 560 323 560 _c
397 560 455 536 498 489 _c
}_e{540 441 562 377 562 296 _c
472 322 _m
471 371 457 410 431 440 _c
404 469 368 484 324 484 _c
274 484 234 469 204 441 _c
174 413 156 373 152 322 _c
472 322 _l
_cl}_e}_d
/i{278 0 94 0 184 760 _sc
94 547 _m
184 547 _l
184 0 _l
94 0 _l
94 547 _l
94 760 _m
184 760 _l
184 646 _l
94 646 _l
94 760 _l
_cl}_d
/k{579 0 91 0 576 760 _sc
91 760 _m
181 760 _l
181 311 _l
449 547 _l
564 547 _l
274 291 _l
576 0 _l
459 0 _l
181 267 _l
181 0 _l
91 0 _l
91 760 _l
_cl}_d
/l{278 0 94 0 184 760 _sc
94 760 _m
184 760 _l
184 0 _l
94 0 _l
94 760 _l
_cl}_d
/n{634 0 91 0 549 560 _sc
549 330 _m
549 0 _l
459 0 _l
459 327 _l
459 379 448 417 428 443 _c
408 469 378 482 338 482 _c
289 482 251 466 223 435 _c
195 404 181 362 181 309 _c
181 0 _l
91 0 _l
91 547 _l
181 547 _l
181 462 _l
202 494 227 519 257 535 _c
286 551 320 560 358 560 _c
420 560 468 540 500 501 _c
532 462 549 405 549 330 _c
_cl}_d
/o{612 0 55 -13 557 560 _sc
306 484 _m
258 484 220 465 192 427 _c
164 389 150 338 150 273 _c
150 207 163 156 191 118 _c
219 80 257 62 306 62 _c
354 62 392 80 420 118 _c
448 156 462 207 462 273 _c
462 337 448 389 420 427 _c
392 465 354 484 306 484 _c
306 560 _m
384 560 445 534 490 484 _c
534 433 557 363 557 273 _c
557 183 534 113 490 63 _c
445 12 384 -13 306 -13 _c
227 -13 165 12 121 63 _c
77 113 55 183 55 273 _c
55 363 77 433 121 484 _c
165 534 227 560 306 560 _c
_cl}_d
/r{411 0 91 0 411 560 _sc
411 463 _m
401 469 390 473 378 476 _c
366 478 353 480 339 480 _c
288 480 249 463 222 430 _c
194 397 181 350 181 288 _c
181 0 _l
91 0 _l
91 547 _l
181 547 _l
181 462 _l
199 495 224 520 254 536 _c
284 552 321 560 365 560 _c
371 560 378 559 386 559 _c
393 558 401 557 411 555 _c
411 463 _l
_cl}_d
/s{{521 0 54 -13 472 560 _sc
443 531 _m
443 446 _l
417 458 391 468 364 475 _c
336 481 308 485 279 485 _c
234 485 200 478 178 464 _c
156 450 145 430 145 403 _c
145 382 153 366 169 354 _c
185 342 217 330 265 320 _c
296 313 _l
360 299 405 279 432 255 _c
458 230 472 195 472 151 _c
472 100 452 60 412 31 _c
372 1 316 -13 246 -13 _c
216 -13 186 -10 154 -5 _c
}_e{122 0 89 8 54 20 _c
54 113 _l
87 95 120 82 152 74 _c
184 65 216 61 248 61 _c
290 61 323 68 346 82 _c
368 96 380 117 380 144 _c
380 168 371 187 355 200 _c
339 213 303 226 247 238 _c
216 245 _l
160 257 119 275 95 299 _c
70 323 58 356 58 399 _c
58 450 76 490 112 518 _c
148 546 200 560 268 560 _c
301 560 332 557 362 552 _c
391 547 418 540 443 531 _c
}_e{_cl}_e}_d
/t{392 0 27 0 368 702 _sc
183 702 _m
183 547 _l
368 547 _l
368 477 _l
183 477 _l
183 180 _l
183 135 189 106 201 94 _c
213 81 238 75 276 75 _c
368 75 _l
368 0 _l
276 0 _l
206 0 158 13 132 39 _c
106 65 93 112 93 180 _c
93 477 _l
27 477 _l
27 547 _l
93 547 _l
93 702 _l
183 702 _l
_cl}_d
/y{592 0 30 -207 562 547 _sc
322 -50 _m
296 -114 271 -157 247 -177 _c
223 -197 191 -207 151 -207 _c
79 -207 _l
79 -132 _l
132 -132 _l
156 -132 175 -126 189 -114 _c
203 -102 218 -75 235 -31 _c
251 9 _l
30 547 _l
125 547 _l
296 119 _l
467 547 _l
562 547 _l
322 -50 _l
_cl}_d
end readonly def

/BuildGlyph
 {exch begin
 CharStrings exch
 2 copy known not{pop /.notdef}if
 true 3 1 roll get exec
 end}_d

/BuildChar {
 1 index /Encoding get exch get
 1 index /BuildGlyph get exec
}_d

FontName currentdict end definefont pop
end
%%EndProlog
mpldict begin
75.6 223.2 translate
460.8 345.6 0 0 clipbox
gsave
0 0 m
460.8 0 l
460.8 345.6 l
0 345.6 l
cl
1.000 setgray
fill
grestore
gsave
57.6 38.016 m
414.72 38.016 l
414.72 304.128 l
57.6 304.128 l
cl
1.000 setgray
fill
grestore
0.800 setlinewidth
1 setlinejoin
0 setlinecap
[] 0 setdash
0.000 setgray
gsave
/o {
gsave
newpath
translate
0.8 setlinewidth
1 setlinejoin
0 setlinecap
0 0 m
0 -3.5 l

gsave
0.000 setgray
fill
grestore
stroke
grestore
} bind def
73.8327 38.016 o
grestore
/DejaVuSans findfont
10.000 scalefont
setfont
gsave
70.653040 23.422250 translate
0.000000 rotate
0.000000 0.000000 m /zero glyphshow
grestore
gsave
/o {
gsave
newpath
translate
0.8 setlinewidth
1 setlinejoin
0 setlinecap
0 0 m
0 -3.5 l

gsave
0.000 setgray
fill
grestore
stroke
grestore
} bind def
139.42 38.016 o
grestore
gsave
133.060129 23.422250 translate
0.000000 rotate
0.000000 0.000000 m /two glyphshow
6.362305 0.000000 m /zero glyphshow
grestore
gsave
/o {
gsave
newpath
translate
0.8 setlinewidth
1 setlinejoin
0 setlinecap
0 0 m
0 -3.5 l

gsave
0.000 setgray
fill
grestore
stroke
grestore
} bind def
205.006 38.016 o
grestore
gsave
198.646906 23.422250 translate
0.000000 rotate
0.000000 0.000000 m /four glyphshow
6.362305 0.000000 m /zero glyphshow
grestore
gsave
/o {
gsave
newpath
translate
0.8 setlinewidth
1 setlinejoin
0 setlinecap
0 0 m
0 -3.5 l

gsave
0.000 setgray
fill
grestore
stroke
grestore
} bind def
270.593 38.016 o
grestore
gsave
264.233683 23.422250 translate
0.000000 rotate
0.000000 0.000000 m /six glyphshow
6.362305 0.000000 m /zero glyphshow
grestore
gsave
/o {
gsave
newpath
translate
0.8 setlinewidth
1 setlinejoin
0 setlinecap
0 0 m
0 -3.5 l

gsave
0.000 setgray
fill
grestore
stroke
grestore
} bind def
336.18 38.016 o
grestore
gsave
329.820460 23.422250 translate
0.000000 rotate
0.000000 0.000000 m /eight glyphshow
6.362305 0.000000 m /zero glyphshow
grestore
gsave
/o {
gsave
newpath
translate
0.8 setlinewidth
1 setlinejoin
0 setlinecap
0 0 m
0 -3.5 l

gsave
0.000 setgray
fill
grestore
stroke
grestore
} bind def
401.767 38.016 o
grestore
gsave
392.227549 23.422250 translate
0.000000 rotate
0.000000 0.000000 m /one glyphshow
6.362305 0.000000 m /zero glyphshow
12.724609 0.000000 m /zero glyphshow
grestore
gsave
214.941250 9.750375 translate
0.000000 rotate
0.000000 0.000000 m /I glyphshow
2.949219 0.000000 m /t glyphshow
6.870117 0.000000 m /e glyphshow
13.022461 0.000000 m /r glyphshow
17.133789 0.000000 m /a glyphshow
23.261719 0.000000 m /t glyphshow
27.182617 0.000000 m /i glyphshow
29.960938 0.000000 m /o glyphshow
36.079102 0.000000 m /n glyphshow
grestore
gsave
/o {
gsave
newpath
translate
0.8 setlinewidth
1 setlinejoin
0 setlinecap
0 0 m
-3.5 0 l

gsave
0.000 setgray
fill
grestore
stroke
grestore
} bind def
57.6 45.238 o
grestore
gsave
44.240625 41.441130 translate
0.000000 rotate
0.000000 0.000000 m /zero glyphshow
grestore
gsave
/o {
gsave
newpath
translate
0.8 setlinewidth
1 setlinejoin
0 setlinecap
0 0 m
-3.5 0 l

gsave
0.000 setgray
fill
grestore
stroke
grestore
} bind def
57.6 76.7246 o
grestore
gsave
44.240625 72.927767 translate
0.000000 rotate
0.000000 0.000000 m /one glyphshow
grestore
gsave
/o {
gsave
newpath
translate
0.8 setlinewidth
1 setlinejoin
0 setlinecap
0 0 m
-3.5 0 l

gsave
0.000 setgray
fill
grestore
stroke
grestore
} bind def
57.6 108.211 o
grestore
gsave
44.240625 104.414404 translate
0.000000 rotate
0.000000 0.000000 m /two glyphshow
grestore
gsave
/o {
gsave
newpath
translate
0.8 setlinewidth
1 setlinejoin
0 setlinecap
0 0 m
-3.5 0 l

gsave
0.000 setgray
fill
grestore
stroke
grestore
} bind def
57.6 139.698 o
grestore
gsave
44.240625 135.901041 translate
0.000000 rotate
0.000000 0.000000 m /three glyphshow
grestore
gsave
/o {
gsave
newpath
translate
0.8 setlinewidth
1 setlinejoin
0 setlinecap
0 0 m
-3.5 0 l

gsave
0.000 setgray
fill
grestore
stroke
grestore
} bind def
57.6 171.185 o
grestore
gsave
44.240625 167.387678 translate
0.000000 rotate
0.000000 0.000000 m /four glyphshow
grestore
gsave
/o {
gsave
newpath
translate
0.8 setlinewidth
1 setlinejoin
0 setlinecap
0 0 m
-3.5 0 l

gsave
0.000 setgray
fill
grestore
stroke
grestore
} bind def
57.6 202.671 o
grestore
gsave
44.240625 198.874314 translate
0.000000 rotate
0.000000 0.000000 m /five glyphshow
grestore
gsave
/o {
gsave
newpath
translate
0.8 setlinewidth
1 setlinejoin
0 setlinecap
0 0 m
-3.5 0 l

gsave
0.000 setgray
fill
grestore
stroke
grestore
} bind def
57.6 234.158 o
grestore
gsave
44.240625 230.360951 translate
0.000000 rotate
0.000000 0.000000 m /six glyphshow
grestore
gsave
/o {
gsave
newpath
translate
0.8 setlinewidth
1 setlinejoin
0 setlinecap
0 0 m
-3.5 0 l

gsave
0.000 setgray
fill
grestore
stroke
grestore
} bind def
57.6 265.644 o
grestore
gsave
44.240625 261.847588 translate
0.000000 rotate
0.000000 0.000000 m /seven glyphshow
grestore
gsave
/o {
gsave
newpath
translate
0.8 setlinewidth
1 setlinejoin
0 setlinecap
0 0 m
-3.5 0 l

gsave
0.000 setgray
fill
grestore
stroke
grestore
} bind def
57.6 297.131 o
grestore
gsave
44.240625 293.334225 translate
0.000000 rotate
0.000000 0.000000 m /eight glyphshow
grestore
gsave
38.162500 153.376687 translate
90.000000 rotate
0.000000 0.000000 m /F glyphshow
5.751953 0.000000 m /i glyphshow
8.530273 0.000000 m /t glyphshow
12.451172 0.000000 m /n glyphshow
18.789062 0.000000 m /e glyphshow
24.941406 0.000000 m /s glyphshow
30.151367 0.000000 m /s glyphshow
grestore
1.500 setlinewidth
2 setlinecap
0.122 0.467 0.706 setrgbcolor
gsave
357.1 266.1 57.6 38.02 clipbox
73.832727 292.032 m
77.112066 273.181238 l
80.391405 249.319362 l
83.670744 234.060038 l
86.950083 225.756475 l
90.229421 219.308263 l
93.50876 215.300323 l
96.788099 211.096142 l
100.067438 209.543334 l
103.346777 206.722727 l
106.626116 205.098031 l
109.905455 204.721785 l
113.184793 203.569324 l
116.464132 203.161305 l
119.743471 202.61706 l
123.02281 202.077095 l
126.302149 201.845693 l
129.581488 201.360417 l
132.860826 201.167393 l
136.140165 201.015433 l
139.419504 200.843563 l
142.698843 200.769011 l
145.978182 200.626486 l
149.257521 200.490679 l
152.53686 200.305665 l
155.816198 200.138136 l
159.095537 200.079925 l
162.374876 200.006057 l
165.654215 199.950233 l
168.933554 199.943791 l
172.212893 199.915371 l
175.492231 199.879757 l
178.77157 199.840229 l
182.050909 199.823296 l
185.330248 199.788086 l
188.609587 199.766324 l
191.888926 199.742732 l
195.168264 199.73114 l
198.447603 199.725413 l
201.726942 199.719798 l
205.006281 199.715758 l
208.28562 199.712312 l
211.564959 199.709992 l
214.844298 199.707212 l
218.123636 199.703539 l
221.402975 199.698681 l
224.682314 199.697972 l
227.961653 199.694856 l
231.240992 199.6927 l
234.520331 199.689349 l
237.799669 199.688019 l
241.079008 199.687243 l
244.358347 199.685633 l
247.637686 199.68292 l
250.917025 199.681528 l
254.196364 199.679857 l
257.475702 199.677568 l
260.755041 199.674148 l
264.03438 199.671435 l
267.313719 199.670436 l
270.593058 199.670083 l
273.872397 199.669691 l
277.151736 199.669885 l
280.431074 199.66976 l
283.710413 199.669695 l
286.989752 199.669486 l
290.269091 199.669386 l
293.54843 199.669335 l
296.827769 199.66925 l
300.107107 199.66916 l
303.386446 199.66914 l
306.665785 199.669106 l
309.945124 199.669076 l
313.224463 199.669042 l
316.503802 199.669005 l
319.78314 199.668965 l
323.062479 199.668938 l
326.341818 199.668908 l
329.621157 199.668874 l
332.900496 199.668794 l
336.179835 199.668759 l
339.459174 199.668687 l
342.738512 199.668634 l
346.017851 199.668595 l
349.29719 199.668543 l
352.576529 199.668569 l
355.855868 199.66856 l
359.135207 199.668549 l
362.414545 199.668549 l
365.693884 199.668539 l
368.973223 199.668534 l
372.252562 199.668521 l
375.531901 199.668517 l
378.81124 199.668513 l
382.090579 199.668507 l
385.369917 199.668505 l
388.649256 199.668505 l
391.928595 199.668504 l
395.207934 199.668501 l
398.487273 199.668501 l
stroke
grestore
1.000 0.498 0.055 setrgbcolor
gsave
357.1 266.1 57.6 38.02 clipbox
73.832727 245.668651 m
77.112066 208.705297 l
80.391405 194.803794 l
83.670744 158.026547 l
86.950083 143.902294 l
90.229421 131.12916 l
93.50876 121.811574 l
96.788099 115.979184 l
100.067438 109.24773 l
103.346777 106.72019 l
106.626116 103.862147 l
109.905455 103.004749 l
113.184793 101.963129 l
116.464132 101.282766 l
119.743471 99.690315 l
123.02281 99.20499 l
126.302149 98.840525 l
129.581488 98.454818 l
132.860826 98.060318 l
136.140165 97.838445 l
139.419504 97.65703 l
142.698843 97.477448 l
145.978182 97.320367 l
149.257521 97.20147 l
152.53686 97.107606 l
155.816198 96.961671 l
159.095537 96.901491 l
162.374876 96.879989 l
165.654215 96.85056 l
168.933554 96.8314 l
172.212893 96.800875 l
175.492231 96.778851 l
178.77157 96.759747 l
182.050909 96.738791 l
185.330248 96.725422 l
188.609587 96.713557 l
191.888926 96.69971 l
195.168264 96.69311 l
198.447603 96.686075 l
201.726942 96.679247 l
205.006281 96.675381 l
208.28562 96.670945 l
211.564959 96.665943 l
214.844298 96.662443 l
218.123636 96.657973 l
221.402975 96.654953 l
224.682314 96.650894 l
227.961653 96.648194 l
231.240992 96.645924 l
234.520331 96.644483 l
237.799669 96.642495 l
241.079008 96.640495 l
244.358347 96.639214 l
247.637686 96.637677 l
250.917025 96.636706 l
254.196364 96.635307 l
257.475702 96.634226 l
260.755041 96.633124 l
264.03438 96.632284 l
267.313719 96.631617 l
270.593058 96.630927 l
273.872397 96.63019 l
277.151736 96.62935 l
280.431074 96.628741 l
283.710413 96.628136 l
286.989752 96.62749 l
290.269091 96.626631 l
293.54843 96.625805 l
296.827769 96.624866 l
300.107107 96.62401 l
303.386446 96.623014 l
306.665785 96.621342 l
309.945124 96.620892 l
313.224463 96.620744 l
316.503802 96.620106 l
319.78314 96.61885 l
323.062479 96.61873 l
326.341818 96.618277 l
329.621157 96.618102 l
332.900496 96.617828 l
336.179835 96.617579 l
339.459174 96.617483 l
342.738512 96.617044 l
346.017851 96.617002 l
349.29719 96.616866 l
352.576529 96.616754 l
355.855868 96.61655 l
359.135207 96.616409 l
362.414545 96.616292 l
365.693884 96.616093 l
368.973223 96.615975 l
372.252562 96.615786 l
375.531901 96.61558 l
378.81124 96.615552 l
382.090579 96.615428 l
385.369917 96.615215 l
388.649256 96.615066 l
391.928595 96.615019 l
395.207934 96.614796 l
398.487273 96.614567 l
stroke
grestore
0.173 0.627 0.173 setrgbcolor
gsave
357.1 266.1 57.6 38.02 clipbox
73.832727 229.687024 m
77.112066 175.101945 l
80.391405 144.726322 l
83.670744 123.4705 l
86.950083 107.767381 l
90.229421 92.011867 l
93.50876 83.864174 l
96.788099 74.841334 l
100.067438 71.560943 l
103.346777 68.377437 l
106.626116 65.217967 l
109.905455 63.34462 l
113.184793 62.101922 l
116.464132 61.577556 l
119.743471 60.683701 l
123.02281 60.287729 l
126.302149 59.554234 l
129.581488 59.343019 l
132.860826 59.191936 l
136.140165 59.03725 l
139.419504 58.894335 l
142.698843 58.758919 l
145.978182 58.673032 l
149.257521 58.541104 l
152.53686 58.516216 l
155.816198 58.422519 l
159.095537 58.380085 l
162.374876 58.305552 l
165.654215 58.231278 l
168.933554 58.189225 l
172.212893 58.158421 l
175.492231 58.10473 l
178.77157 58.090223 l
182.050909 58.034157 l
185.330248 57.983746 l
188.609587 57.963783 l
191.888926 57.887754 l
195.168264 57.848357 l
198.447603 57.826246 l
201.726942 57.794622 l
205.006281 57.791174 l
208.28562 57.780525 l
211.564959 57.767053 l
214.844298 57.744844 l
218.123636 57.714337 l
221.402975 57.700265 l
224.682314 57.687299 l
227.961653 57.678168 l
231.240992 57.673092 l
234.520331 57.65983 l
237.799669 57.654384 l
241.079008 57.652969 l
244.358347 57.648965 l
247.637686 57.641946 l
250.917025 57.635056 l
254.196364 57.630093 l
257.475702 57.623879 l
260.755041 57.616071 l
264.03438 57.611759 l
267.313719 57.604888 l
270.593058 57.602006 l
273.872397 57.595856 l
277.151736 57.593276 l
280.431074 57.589831 l
283.710413 57.588522 l
286.989752 57.586628 l
290.269091 57.584845 l
293.54843 57.583956 l
296.827769 57.582435 l
300.107107 57.581395 l
303.386446 57.580404 l
306.665785 57.578976 l
309.945124 57.577564 l
313.224463 57.577007 l
316.503802 57.576749 l
319.78314 57.575474 l
323.062479 57.574684 l
326.341818 57.573987 l
329.621157 57.573421 l
332.900496 57.572658 l
336.179835 57.572258 l
339.459174 57.571583 l
342.738512 57.570889 l
346.017851 57.570732 l
349.29719 57.570507 l
352.576529 57.570325 l
355.855868 57.570121 l
359.135207 57.569831 l
362.414545 57.569623 l
365.693884 57.569138 l
368.973223 57.568965 l
372.252562 57.568635 l
375.531901 57.568497 l
378.81124 57.56818 l
382.090579 57.567738 l
385.369917 57.56773 l
388.649256 57.567542 l
391.928595 57.56729 l
395.207934 57.567133 l
398.487273 57.566888 l
stroke
grestore
0.839 0.153 0.157 setrgbcolor
gsave
357.1 266.1 57.6 38.02 clipbox
73.832727 291.944231 m
77.112066 255.547425 l
80.391405 233.24604 l
83.670744 211.126139 l
86.950083 199.667717 l
90.229421 175.406511 l
93.50876 157.867227 l
96.788099 136.955406 l
100.067438 121.644476 l
103.346777 109.475782 l
106.626116 92.832306 l
109.905455 88.152893 l
113.184793 79.815351 l
116.464132 72.38826 l
119.743471 67.37493 l
123.02281 64.052894 l
126.302149 60.042576 l
129.581488 60.018128 l
132.860826 57.265763 l
136.140165 54.813889 l
139.419504 53.516687 l
142.698843 53.735269 l
145.978182 52.269929 l
149.257521 51.912696 l
152.53686 51.596886 l
155.816198 51.055901 l
159.095537 50.919355 l
162.374876 50.750191 l
165.654215 50.546182 l
168.933554 50.457427 l
172.212893 50.401924 l
175.492231 50.3517 l
178.77157 50.315285 l
182.050909 50.260841 l
185.330248 50.222325 l
188.609587 50.207281 l
191.888926 50.189122 l
195.168264 50.168741 l
198.447603 50.15543 l
201.726942 50.150873 l
205.006281 50.140201 l
208.28562 50.133829 l
211.564959 50.126309 l
214.844298 50.124738 l
218.123636 50.121513 l
221.402975 50.12028 l
224.682314 50.118982 l
227.961653 50.117889 l
231.240992 50.117379 l
234.520331 50.115985 l
237.799669 50.11469 l
241.079008 50.114234 l
244.358347 50.11392 l
247.637686 50.113368 l
250.917025 50.113151 l
254.196364 50.11301 l
257.475702 50.112847 l
260.755041 50.112658 l
264.03438 50.112501 l
267.313719 50.112395 l
270.593058 50.112329 l
273.872397 50.11233 l
277.151736 50.112192 l
280.431074 50.112166 l
283.710413 50.112111 l
286.989752 50.112091 l
290.269091 50.112082 l
293.54843 50.112057 l
296.827769 50.112048 l
300.107107 50.112034 l
303.386446 50.112035 l
306.665785 50.112022 l
309.945124 50.112019 l
313.224463 50.112014 l
316.503802 50.112012 l
319.78314 50.112008 l
323.062479 50.112006 l
326.341818 50.112006 l
329.621157 50.112006 l
332.900496 50.112004 l
336.179835 50.112002 l
339.459174 50.112002 l
342.738512 50.112002 l
346.017851 50.112001 l
349.29719 50.112001 l
352.576529 50.112001 l
355.855868 50.112001 l
359.135207 50.112 l
362.414545 50.112 l
365.693884 50.112 l
368.973223 50.112 l
372.252562 50.112 l
375.531901 50.112 l
378.81124 50.112 l
382.090579 50.112 l
385.369917 50.112 l
388.649256 50.112 l
391.928595 50.112 l
395.207934 50.112 l
398.487273 50.112 l
stroke
grestore
0.800 setlinewidth
0 setlinejoin
[] 0 setdash
0.000 setgray
gsave
57.6 38.016 m
57.6 304.128 l
stroke
grestore
gsave
414.72 38.016 m
414.72 304.128 l
stroke
grestore
gsave
57.6 38.016 m
414.72 38.016 l
stroke
grestore
gsave
57.6 304.128 m
414.72 304.128 l
stroke
grestore
/DejaVuSans findfont
12.000 scalefont
setfont
gsave
174.402187 310.128000 translate
0.000000 rotate
0.000000 0.000000 m /B glyphshow
8.232422 0.000000 m /e glyphshow
15.615234 0.000000 m /s glyphshow
21.867188 0.000000 m /t glyphshow
26.572266 0.000000 m /space glyphshow
30.386719 0.000000 m /F glyphshow
37.289062 0.000000 m /i glyphshow
40.623047 0.000000 m /t glyphshow
45.328125 0.000000 m /n glyphshow
52.933594 0.000000 m /e glyphshow
60.316406 0.000000 m /s glyphshow
66.568359 0.000000 m /s glyphshow
72.820312 0.000000 m /space glyphshow
76.634766 0.000000 m /hyphen glyphshow
80.964844 0.000000 m /space glyphshow
84.779297 0.000000 m /a glyphshow
92.132812 0.000000 m /c glyphshow
98.730469 0.000000 m /k glyphshow
105.679688 0.000000 m /l glyphshow
109.013672 0.000000 m /e glyphshow
116.396484 0.000000 m /y glyphshow
grestore
1.000 setlinewidth
0 setlinecap
0.800 setgray
gsave
316.673125 237.4405 m
407.72 237.4405 l
409.053333 237.4405 409.72 238.107167 409.72 239.4405 c
409.72 297.128 l
409.72 298.461333 409.053333 299.128 407.72 299.128 c
316.673125 299.128 l
315.339792 299.128 314.673125 298.461333 314.673125 297.128 c
314.673125 239.4405 l
314.673125 238.107167 315.339792 237.4405 316.673125 237.4405 c
cl
gsave
1.000 setgray
fill
grestore
stroke
grestore
1.500 setlinewidth
1 setlinejoin
2 setlinecap
[] 0 setdash
0.122 0.467 0.706 setrgbcolor
gsave
318.673125 291.03425 m
338.673125 291.03425 l
stroke
grestore
0.000 setgray
/DejaVuSans findfont
10.000 scalefont
setfont
gsave
346.673125 287.534250 translate
0.000000 rotate
0.000000 0.000000 m /parenleft glyphshow
3.901367 0.000000 m /three glyphshow
10.263672 0.000000 m /comma glyphshow
13.442383 0.000000 m /six glyphshow
19.804688 0.000000 m /parenright glyphshow
23.706055 0.000000 m /hyphen glyphshow
27.314453 0.000000 m /S glyphshow
33.662109 0.000000 m /E glyphshow
39.980469 0.000000 m /S glyphshow
grestore
1.000 0.498 0.055 setrgbcolor
gsave
318.673125 276.362375 m
338.673125 276.362375 l
stroke
grestore
0.000 setgray
gsave
346.673125 272.862375 translate
0.000000 rotate
0.000000 0.000000 m /parenleft glyphshow
3.901367 0.000000 m /six glyphshow
10.263672 0.000000 m /comma glyphshow
13.442383 0.000000 m /one glyphshow
19.804688 0.000000 m /two glyphshow
26.166992 0.000000 m /parenright glyphshow
30.068359 0.000000 m /hyphen glyphshow
33.676758 0.000000 m /S glyphshow
40.024414 0.000000 m /E glyphshow
46.342773 0.000000 m /S glyphshow
grestore
0.173 0.627 0.173 setrgbcolor
gsave
318.673125 261.6905 m
338.673125 261.6905 l
stroke
grestore
0.000 setgray
gsave
346.673125 258.190500 translate
0.000000 rotate
0.000000 0.000000 m /parenleft glyphshow
3.901367 0.000000 m /one glyphshow
10.263672 0.000000 m /two glyphshow
16.625977 0.000000 m /comma glyphshow
19.804688 0.000000 m /two glyphshow
26.166992 0.000000 m /four glyphshow
32.529297 0.000000 m /parenright glyphshow
36.430664 0.000000 m /hyphen glyphshow
40.039062 0.000000 m /S glyphshow
46.386719 0.000000 m /E glyphshow
52.705078 0.000000 m /S glyphshow
grestore
0.839 0.153 0.157 setrgbcolor
gsave
318.673125 247.018625 m
338.673125 247.018625 l
stroke
grestore
0.000 setgray
gsave
346.673125 243.518625 translate
0.000000 rotate
0.000000 0.000000 m /C glyphshow
6.982422 0.000000 m /M glyphshow
15.610352 0.000000 m /A glyphshow
22.451172 0.000000 m /hyphen glyphshow
26.059570 0.000000 m /E glyphshow
32.377930 0.000000 m /S glyphshow
grestore

end
showpage
