%!PS-Adobe-3.0 EPSF-3.0
%%Title: mean_fitness_rastrigin.eps
%%Creator: matplotlib version 2.1.2, http://matplotlib.org/
%%CreationDate: Mon Apr 22 08:08:44 2019
%%Orientation: portrait
%%BoundingBox: 75 223 536 568
%%EndComments
%%BeginProlog
/mpldict 8 dict def
mpldict begin
/m { moveto } bind def
/l { lineto } bind def
/r { rlineto } bind def
/c { curveto } bind def
/cl { closepath } bind def
/box {
m
1 index 0 r
0 exch r
neg 0 r
cl
} bind def
/clipbox {
box
clip
newpath
} bind def
%!PS-Adobe-3.0 Resource-Font
%%Title: DejaVu Sans
%%Copyright: Copyright (c) 2003 by Bitstream, Inc. All Rights Reserved. Copyright (c) 2006 by Tavmjong Bah. All Rights Reserved. DejaVu changes are in public domain 
%%Creator: Converted from TrueType to type 3 by PPR
25 dict begin
/_d{bind def}bind def
/_m{moveto}_d
/_l{lineto}_d
/_cl{closepath eofill}_d
/_c{curveto}_d
/_sc{7 -1 roll{setcachedevice}{pop pop pop pop pop pop}ifelse}_d
/_e{exec}_d
/FontName /DejaVuSans def
/PaintType 0 def
/FontMatrix[.001 0 0 .001 0 0]def
/FontBBox[-1021 -463 1793 1232]def
/FontType 3 def
/Encoding [ /space /parenleft /parenright /comma /hyphen /zero /one /two /three /four /five /six /eight /A /C /E /F /I /M /S /a /e /g /i /n /o /r /s /t ] def
/FontInfo 10 dict dup begin
/FamilyName (DejaVu Sans) def
/FullName (DejaVu Sans) def
/Notice (Copyright (c) 2003 by Bitstream, Inc. All Rights Reserved. Copyright (c) 2006 by Tavmjong Bah. All Rights Reserved. DejaVu changes are in public domain ) def
/Weight (Book) def
/Version (Version 2.35) def
/ItalicAngle 0.0 def
/isFixedPitch false def
/UnderlinePosition -130 def
/UnderlineThickness 90 def
end readonly def
/CharStrings 30 dict dup begin
/.notdef 0 def
/space{318 0 0 0 0 0 _sc
}_d
/parenleft{390 0 86 -131 310 759 _sc
310 759 _m
266 683 234 609 213 536 _c
191 463 181 389 181 314 _c
181 238 191 164 213 91 _c
234 17 266 -56 310 -131 _c
232 -131 _l
183 -54 146 20 122 94 _c
98 168 86 241 86 314 _c
86 386 98 459 122 533 _c
146 607 182 682 232 759 _c
310 759 _l
_cl}_d
/parenright{390 0 80 -131 304 759 _sc
80 759 _m
158 759 _l
206 682 243 607 267 533 _c
291 459 304 386 304 314 _c
304 241 291 168 267 94 _c
243 20 206 -54 158 -131 _c
80 -131 _l
123 -56 155 17 177 91 _c
198 164 209 238 209 314 _c
209 389 198 463 177 536 _c
155 609 123 683 80 759 _c
_cl}_d
/comma{318 0 77 -115 220 124 _sc
117 124 _m
220 124 _l
220 40 _l
140 -115 _l
77 -115 _l
117 40 _l
117 124 _l
_cl}_d
/hyphen{361 0 49 234 312 314 _sc
49 314 _m
312 314 _l
312 234 _l
49 234 _l
49 314 _l
_cl}_d
/zero{636 0 66 -13 570 742 _sc
318 664 _m
267 664 229 639 203 589 _c
177 539 165 464 165 364 _c
165 264 177 189 203 139 _c
229 89 267 64 318 64 _c
369 64 407 89 433 139 _c
458 189 471 264 471 364 _c
471 464 458 539 433 589 _c
407 639 369 664 318 664 _c
318 742 _m
399 742 461 709 505 645 _c
548 580 570 486 570 364 _c
570 241 548 147 505 83 _c
461 19 399 -13 318 -13 _c
236 -13 173 19 130 83 _c
87 147 66 241 66 364 _c
66 486 87 580 130 645 _c
173 709 236 742 318 742 _c
_cl}_d
/one{636 0 110 0 544 729 _sc
124 83 _m
285 83 _l
285 639 _l
110 604 _l
110 694 _l
284 729 _l
383 729 _l
383 83 _l
544 83 _l
544 0 _l
124 0 _l
124 83 _l
_cl}_d
/two{{636 0 73 0 536 742 _sc
192 83 _m
536 83 _l
536 0 _l
73 0 _l
73 83 _l
110 121 161 173 226 239 _c
290 304 331 346 348 365 _c
380 400 402 430 414 455 _c
426 479 433 504 433 528 _c
433 566 419 598 392 622 _c
365 646 330 659 286 659 _c
255 659 222 653 188 643 _c
154 632 117 616 78 594 _c
78 694 _l
118 710 155 722 189 730 _c
223 738 255 742 284 742 _c
}_e{359 742 419 723 464 685 _c
509 647 532 597 532 534 _c
532 504 526 475 515 449 _c
504 422 484 390 454 354 _c
446 344 420 317 376 272 _c
332 227 271 164 192 83 _c
_cl}_e}_d
/three{{636 0 76 -13 556 742 _sc
406 393 _m
453 383 490 362 516 330 _c
542 298 556 258 556 212 _c
556 140 531 84 482 45 _c
432 6 362 -13 271 -13 _c
240 -13 208 -10 176 -4 _c
144 1 110 10 76 22 _c
76 117 _l
103 101 133 89 166 81 _c
198 73 232 69 268 69 _c
330 69 377 81 409 105 _c
441 129 458 165 458 212 _c
458 254 443 288 413 312 _c
383 336 341 349 287 349 _c
}_e{202 349 _l
202 430 _l
291 430 _l
339 430 376 439 402 459 _c
428 478 441 506 441 543 _c
441 580 427 609 401 629 _c
374 649 336 659 287 659 _c
260 659 231 656 200 650 _c
169 644 135 635 98 623 _c
98 711 _l
135 721 170 729 203 734 _c
235 739 266 742 296 742 _c
370 742 429 725 473 691 _c
517 657 539 611 539 553 _c
539 513 527 479 504 451 _c
481 423 448 403 406 393 _c
_cl}_e}_d
/four{636 0 49 0 580 729 _sc
378 643 _m
129 254 _l
378 254 _l
378 643 _l
352 729 _m
476 729 _l
476 254 _l
580 254 _l
580 172 _l
476 172 _l
476 0 _l
378 0 _l
378 172 _l
49 172 _l
49 267 _l
352 729 _l
_cl}_d
/five{{636 0 77 -13 549 729 _sc
108 729 _m
495 729 _l
495 646 _l
198 646 _l
198 467 _l
212 472 227 476 241 478 _c
255 480 270 482 284 482 _c
365 482 429 459 477 415 _c
525 370 549 310 549 234 _c
549 155 524 94 475 51 _c
426 8 357 -13 269 -13 _c
238 -13 207 -10 175 -6 _c
143 -1 111 6 77 17 _c
77 116 _l
106 100 136 88 168 80 _c
199 72 232 69 267 69 _c
}_e{323 69 368 83 401 113 _c
433 143 450 183 450 234 _c
450 284 433 324 401 354 _c
368 384 323 399 267 399 _c
241 399 214 396 188 390 _c
162 384 135 375 108 363 _c
108 729 _l
_cl}_e}_d
/six{{636 0 70 -13 573 742 _sc
330 404 _m
286 404 251 388 225 358 _c
199 328 186 286 186 234 _c
186 181 199 139 225 109 _c
251 79 286 64 330 64 _c
374 64 409 79 435 109 _c
461 139 474 181 474 234 _c
474 286 461 328 435 358 _c
409 388 374 404 330 404 _c
526 713 _m
526 623 _l
501 635 476 644 451 650 _c
425 656 400 659 376 659 _c
310 659 260 637 226 593 _c
}_e{192 549 172 482 168 394 _c
187 422 211 444 240 459 _c
269 474 301 482 336 482 _c
409 482 467 459 509 415 _c
551 371 573 310 573 234 _c
573 159 550 99 506 54 _c
462 9 403 -13 330 -13 _c
246 -13 181 19 137 83 _c
92 147 70 241 70 364 _c
70 479 97 571 152 639 _c
206 707 280 742 372 742 _c
396 742 421 739 447 735 _c
472 730 498 723 526 713 _c
_cl}_e}_d
/eight{{636 0 68 -13 568 742 _sc
318 346 _m
271 346 234 333 207 308 _c
180 283 167 249 167 205 _c
167 161 180 126 207 101 _c
234 76 271 64 318 64 _c
364 64 401 76 428 102 _c
455 127 469 161 469 205 _c
469 249 455 283 429 308 _c
402 333 365 346 318 346 _c
219 388 _m
177 398 144 418 120 447 _c
96 476 85 511 85 553 _c
85 611 105 657 147 691 _c
188 725 245 742 318 742 _c
}_e{390 742 447 725 489 691 _c
530 657 551 611 551 553 _c
551 511 539 476 515 447 _c
491 418 459 398 417 388 _c
464 377 501 355 528 323 _c
554 291 568 251 568 205 _c
568 134 546 80 503 43 _c
459 5 398 -13 318 -13 _c
237 -13 175 5 132 43 _c
89 80 68 134 68 205 _c
68 251 81 291 108 323 _c
134 355 171 377 219 388 _c
183 544 _m
183 506 194 476 218 455 _c
}_e{242 434 275 424 318 424 _c
360 424 393 434 417 455 _c
441 476 453 506 453 544 _c
453 582 441 611 417 632 _c
393 653 360 664 318 664 _c
275 664 242 653 218 632 _c
194 611 183 582 183 544 _c
_cl}_e}_d
/A{684 0 8 0 676 729 _sc
342 632 _m
208 269 _l
476 269 _l
342 632 _l
286 729 _m
398 729 _l
676 0 _l
573 0 _l
507 187 _l
178 187 _l
112 0 _l
8 0 _l
286 729 _l
_cl}_d
/C{{698 0 56 -13 644 742 _sc
644 673 _m
644 569 _l
610 599 575 622 537 638 _c
499 653 460 661 418 661 _c
334 661 270 635 226 584 _c
182 533 160 460 160 364 _c
160 268 182 194 226 143 _c
270 92 334 67 418 67 _c
460 67 499 74 537 90 _c
575 105 610 128 644 159 _c
644 56 _l
609 32 572 15 534 4 _c
496 -7 455 -13 412 -13 _c
302 -13 215 20 151 87 _c
}_e{87 154 56 246 56 364 _c
56 481 87 573 151 641 _c
215 708 302 742 412 742 _c
456 742 497 736 535 725 _c
573 713 610 696 644 673 _c
_cl}_e}_d
/E{632 0 98 0 568 729 _sc
98 729 _m
559 729 _l
559 646 _l
197 646 _l
197 430 _l
544 430 _l
544 347 _l
197 347 _l
197 83 _l
568 83 _l
568 0 _l
98 0 _l
98 729 _l
_cl}_d
/F{575 0 98 0 517 729 _sc
98 729 _m
517 729 _l
517 646 _l
197 646 _l
197 431 _l
486 431 _l
486 348 _l
197 348 _l
197 0 _l
98 0 _l
98 729 _l
_cl}_d
/I{295 0 98 0 197 729 _sc
98 729 _m
197 729 _l
197 0 _l
98 0 _l
98 729 _l
_cl}_d
/M{863 0 98 0 765 729 _sc
98 729 _m
245 729 _l
431 233 _l
618 729 _l
765 729 _l
765 0 _l
669 0 _l
669 640 _l
481 140 _l
382 140 _l
194 640 _l
194 0 _l
98 0 _l
98 729 _l
_cl}_d
/S{{635 0 66 -13 579 742 _sc
535 705 _m
535 609 _l
497 627 462 640 429 649 _c
395 657 363 662 333 662 _c
279 662 237 651 208 631 _c
179 610 165 580 165 542 _c
165 510 174 485 194 469 _c
213 452 250 439 304 429 _c
364 417 _l
437 403 491 378 526 343 _c
561 307 579 260 579 201 _c
579 130 555 77 508 41 _c
460 5 391 -13 300 -13 _c
265 -13 228 -9 189 -2 _c
}_e{150 5 110 16 69 32 _c
69 134 _l
109 111 148 94 186 83 _c
224 71 262 66 300 66 _c
356 66 399 77 430 99 _c
460 121 476 152 476 194 _c
476 230 465 258 443 278 _c
421 298 385 313 335 323 _c
275 335 _l
201 349 148 372 115 404 _c
82 435 66 478 66 534 _c
66 598 88 649 134 686 _c
179 723 242 742 322 742 _c
356 742 390 739 426 733 _c
461 727 497 717 535 705 _c
}_e{_cl}_e}_d
/a{{613 0 60 -13 522 560 _sc
343 275 _m
270 275 220 266 192 250 _c
164 233 150 205 150 165 _c
150 133 160 107 181 89 _c
202 70 231 61 267 61 _c
317 61 357 78 387 114 _c
417 149 432 196 432 255 _c
432 275 _l
343 275 _l
522 312 _m
522 0 _l
432 0 _l
432 83 _l
411 49 385 25 355 10 _c
325 -5 287 -13 243 -13 _c
187 -13 142 2 109 33 _c
76 64 60 106 60 159 _c
}_e{60 220 80 266 122 298 _c
163 329 224 345 306 345 _c
432 345 _l
432 354 _l
432 395 418 427 391 450 _c
364 472 326 484 277 484 _c
245 484 215 480 185 472 _c
155 464 127 453 100 439 _c
100 522 _l
132 534 164 544 195 550 _c
226 556 256 560 286 560 _c
365 560 424 539 463 498 _c
502 457 522 395 522 312 _c
_cl}_e}_d
/e{{615 0 55 -13 562 560 _sc
562 296 _m
562 252 _l
149 252 _l
153 190 171 142 205 110 _c
238 78 284 62 344 62 _c
378 62 412 66 444 74 _c
476 82 509 95 541 113 _c
541 28 _l
509 14 476 3 442 -3 _c
408 -9 373 -13 339 -13 _c
251 -13 182 12 131 62 _c
80 112 55 181 55 268 _c
55 357 79 428 127 481 _c
175 533 241 560 323 560 _c
397 560 455 536 498 489 _c
}_e{540 441 562 377 562 296 _c
472 322 _m
471 371 457 410 431 440 _c
404 469 368 484 324 484 _c
274 484 234 469 204 441 _c
174 413 156 373 152 322 _c
472 322 _l
_cl}_e}_d
/g{{635 0 55 -207 544 560 _sc
454 280 _m
454 344 440 395 414 431 _c
387 467 349 485 301 485 _c
253 485 215 467 188 431 _c
161 395 148 344 148 280 _c
148 215 161 165 188 129 _c
215 93 253 75 301 75 _c
349 75 387 93 414 129 _c
440 165 454 215 454 280 _c
544 68 _m
544 -24 523 -93 482 -139 _c
440 -184 377 -207 292 -207 _c
260 -207 231 -204 203 -200 _c
175 -195 147 -188 121 -178 _c
}_e{121 -91 _l
147 -105 173 -115 199 -122 _c
225 -129 251 -133 278 -133 _c
336 -133 380 -117 410 -87 _c
439 -56 454 -10 454 52 _c
454 96 _l
435 64 411 40 382 24 _c
353 8 319 0 279 0 _c
211 0 157 25 116 76 _c
75 127 55 195 55 280 _c
55 364 75 432 116 483 _c
157 534 211 560 279 560 _c
319 560 353 552 382 536 _c
411 520 435 496 454 464 _c
454 547 _l
544 547 _l
}_e{544 68 _l
_cl}_e}_d
/i{278 0 94 0 184 760 _sc
94 547 _m
184 547 _l
184 0 _l
94 0 _l
94 547 _l
94 760 _m
184 760 _l
184 646 _l
94 646 _l
94 760 _l
_cl}_d
/n{634 0 91 0 549 560 _sc
549 330 _m
549 0 _l
459 0 _l
459 327 _l
459 379 448 417 428 443 _c
408 469 378 482 338 482 _c
289 482 251 466 223 435 _c
195 404 181 362 181 309 _c
181 0 _l
91 0 _l
91 547 _l
181 547 _l
181 462 _l
202 494 227 519 257 535 _c
286 551 320 560 358 560 _c
420 560 468 540 500 501 _c
532 462 549 405 549 330 _c
_cl}_d
/o{612 0 55 -13 557 560 _sc
306 484 _m
258 484 220 465 192 427 _c
164 389 150 338 150 273 _c
150 207 163 156 191 118 _c
219 80 257 62 306 62 _c
354 62 392 80 420 118 _c
448 156 462 207 462 273 _c
462 337 448 389 420 427 _c
392 465 354 484 306 484 _c
306 560 _m
384 560 445 534 490 484 _c
534 433 557 363 557 273 _c
557 183 534 113 490 63 _c
445 12 384 -13 306 -13 _c
227 -13 165 12 121 63 _c
77 113 55 183 55 273 _c
55 363 77 433 121 484 _c
165 534 227 560 306 560 _c
_cl}_d
/r{411 0 91 0 411 560 _sc
411 463 _m
401 469 390 473 378 476 _c
366 478 353 480 339 480 _c
288 480 249 463 222 430 _c
194 397 181 350 181 288 _c
181 0 _l
91 0 _l
91 547 _l
181 547 _l
181 462 _l
199 495 224 520 254 536 _c
284 552 321 560 365 560 _c
371 560 378 559 386 559 _c
393 558 401 557 411 555 _c
411 463 _l
_cl}_d
/s{{521 0 54 -13 472 560 _sc
443 531 _m
443 446 _l
417 458 391 468 364 475 _c
336 481 308 485 279 485 _c
234 485 200 478 178 464 _c
156 450 145 430 145 403 _c
145 382 153 366 169 354 _c
185 342 217 330 265 320 _c
296 313 _l
360 299 405 279 432 255 _c
458 230 472 195 472 151 _c
472 100 452 60 412 31 _c
372 1 316 -13 246 -13 _c
216 -13 186 -10 154 -5 _c
}_e{122 0 89 8 54 20 _c
54 113 _l
87 95 120 82 152 74 _c
184 65 216 61 248 61 _c
290 61 323 68 346 82 _c
368 96 380 117 380 144 _c
380 168 371 187 355 200 _c
339 213 303 226 247 238 _c
216 245 _l
160 257 119 275 95 299 _c
70 323 58 356 58 399 _c
58 450 76 490 112 518 _c
148 546 200 560 268 560 _c
301 560 332 557 362 552 _c
391 547 418 540 443 531 _c
}_e{_cl}_e}_d
/t{392 0 27 0 368 702 _sc
183 702 _m
183 547 _l
368 547 _l
368 477 _l
183 477 _l
183 180 _l
183 135 189 106 201 94 _c
213 81 238 75 276 75 _c
368 75 _l
368 0 _l
276 0 _l
206 0 158 13 132 39 _c
106 65 93 112 93 180 _c
93 477 _l
27 477 _l
27 547 _l
93 547 _l
93 702 _l
183 702 _l
_cl}_d
end readonly def

/BuildGlyph
 {exch begin
 CharStrings exch
 2 copy known not{pop /.notdef}if
 true 3 1 roll get exec
 end}_d

/BuildChar {
 1 index /Encoding get exch get
 1 index /BuildGlyph get exec
}_d

FontName currentdict end definefont pop
end
%%EndProlog
mpldict begin
75.6 223.2 translate
460.8 345.6 0 0 clipbox
gsave
0 0 m
460.8 0 l
460.8 345.6 l
0 345.6 l
cl
1.000 setgray
fill
grestore
gsave
57.6 38.016 m
414.72 38.016 l
414.72 304.128 l
57.6 304.128 l
cl
1.000 setgray
fill
grestore
0.800 setlinewidth
1 setlinejoin
0 setlinecap
[] 0 setdash
0.000 setgray
gsave
/o {
gsave
newpath
translate
0.8 setlinewidth
1 setlinejoin
0 setlinecap
0 0 m
0 -3.5 l

gsave
0.000 setgray
fill
grestore
stroke
grestore
} bind def
73.8327 38.016 o
grestore
/DejaVuSans findfont
10.000 scalefont
setfont
gsave
70.653040 23.422250 translate
0.000000 rotate
0.000000 0.000000 m /zero glyphshow
grestore
gsave
/o {
gsave
newpath
translate
0.8 setlinewidth
1 setlinejoin
0 setlinecap
0 0 m
0 -3.5 l

gsave
0.000 setgray
fill
grestore
stroke
grestore
} bind def
139.42 38.016 o
grestore
gsave
133.060129 23.422250 translate
0.000000 rotate
0.000000 0.000000 m /two glyphshow
6.362305 0.000000 m /zero glyphshow
grestore
gsave
/o {
gsave
newpath
translate
0.8 setlinewidth
1 setlinejoin
0 setlinecap
0 0 m
0 -3.5 l

gsave
0.000 setgray
fill
grestore
stroke
grestore
} bind def
205.006 38.016 o
grestore
gsave
198.646906 23.422250 translate
0.000000 rotate
0.000000 0.000000 m /four glyphshow
6.362305 0.000000 m /zero glyphshow
grestore
gsave
/o {
gsave
newpath
translate
0.8 setlinewidth
1 setlinejoin
0 setlinecap
0 0 m
0 -3.5 l

gsave
0.000 setgray
fill
grestore
stroke
grestore
} bind def
270.593 38.016 o
grestore
gsave
264.233683 23.422250 translate
0.000000 rotate
0.000000 0.000000 m /six glyphshow
6.362305 0.000000 m /zero glyphshow
grestore
gsave
/o {
gsave
newpath
translate
0.8 setlinewidth
1 setlinejoin
0 setlinecap
0 0 m
0 -3.5 l

gsave
0.000 setgray
fill
grestore
stroke
grestore
} bind def
336.18 38.016 o
grestore
gsave
329.820460 23.422250 translate
0.000000 rotate
0.000000 0.000000 m /eight glyphshow
6.362305 0.000000 m /zero glyphshow
grestore
gsave
/o {
gsave
newpath
translate
0.8 setlinewidth
1 setlinejoin
0 setlinecap
0 0 m
0 -3.5 l

gsave
0.000 setgray
fill
grestore
stroke
grestore
} bind def
401.767 38.016 o
grestore
gsave
392.227549 23.422250 translate
0.000000 rotate
0.000000 0.000000 m /one glyphshow
6.362305 0.000000 m /zero glyphshow
12.724609 0.000000 m /zero glyphshow
grestore
gsave
214.941250 9.750375 translate
0.000000 rotate
0.000000 0.000000 m /I glyphshow
2.949219 0.000000 m /t glyphshow
6.870117 0.000000 m /e glyphshow
13.022461 0.000000 m /r glyphshow
17.133789 0.000000 m /a glyphshow
23.261719 0.000000 m /t glyphshow
27.182617 0.000000 m /i glyphshow
29.960938 0.000000 m /o glyphshow
36.079102 0.000000 m /n glyphshow
grestore
gsave
/o {
gsave
newpath
translate
0.8 setlinewidth
1 setlinejoin
0 setlinecap
0 0 m
-3.5 0 l

gsave
0.000 setgray
fill
grestore
stroke
grestore
} bind def
57.6 84.6525 o
grestore
gsave
37.881250 80.855620 translate
0.000000 rotate
0.000000 0.000000 m /one glyphshow
6.362305 0.000000 m /zero glyphshow
grestore
gsave
/o {
gsave
newpath
translate
0.8 setlinewidth
1 setlinejoin
0 setlinecap
0 0 m
-3.5 0 l

gsave
0.000 setgray
fill
grestore
stroke
grestore
} bind def
57.6 135.613 o
grestore
gsave
37.881250 131.815773 translate
0.000000 rotate
0.000000 0.000000 m /two glyphshow
6.362305 0.000000 m /zero glyphshow
grestore
gsave
/o {
gsave
newpath
translate
0.8 setlinewidth
1 setlinejoin
0 setlinecap
0 0 m
-3.5 0 l

gsave
0.000 setgray
fill
grestore
stroke
grestore
} bind def
57.6 186.573 o
grestore
gsave
37.881250 182.775925 translate
0.000000 rotate
0.000000 0.000000 m /three glyphshow
6.362305 0.000000 m /zero glyphshow
grestore
gsave
/o {
gsave
newpath
translate
0.8 setlinewidth
1 setlinejoin
0 setlinecap
0 0 m
-3.5 0 l

gsave
0.000 setgray
fill
grestore
stroke
grestore
} bind def
57.6 237.533 o
grestore
gsave
37.881250 233.736078 translate
0.000000 rotate
0.000000 0.000000 m /four glyphshow
6.362305 0.000000 m /zero glyphshow
grestore
gsave
/o {
gsave
newpath
translate
0.8 setlinewidth
1 setlinejoin
0 setlinecap
0 0 m
-3.5 0 l

gsave
0.000 setgray
fill
grestore
stroke
grestore
} bind def
57.6 288.493 o
grestore
gsave
37.881250 284.696230 translate
0.000000 rotate
0.000000 0.000000 m /five glyphshow
6.362305 0.000000 m /zero glyphshow
grestore
gsave
31.803125 153.376687 translate
90.000000 rotate
0.000000 0.000000 m /F glyphshow
5.751953 0.000000 m /i glyphshow
8.530273 0.000000 m /t glyphshow
12.451172 0.000000 m /n glyphshow
18.789062 0.000000 m /e glyphshow
24.941406 0.000000 m /s glyphshow
30.151367 0.000000 m /s glyphshow
grestore
1.500 setlinewidth
2 setlinecap
0.122 0.467 0.706 setrgbcolor
gsave
357.1 266.1 57.6 38.02 clipbox
73.832727 285.446942 m
77.112066 280.184737 l
80.391405 269.190433 l
83.670744 260.539732 l
86.950083 242.271804 l
90.229421 227.389645 l
93.50876 207.521824 l
96.788099 187.329769 l
100.067438 175.910915 l
103.346777 160.905465 l
106.626116 151.673942 l
109.905455 142.088494 l
113.184793 135.302232 l
116.464132 128.568975 l
119.743471 122.666557 l
123.02281 119.986291 l
126.302149 116.15401 l
129.581488 114.159539 l
132.860826 109.826577 l
136.140165 109.607248 l
139.419504 108.267657 l
142.698843 106.512035 l
145.978182 104.690711 l
149.257521 104.326985 l
152.53686 104.193323 l
155.816198 103.552546 l
159.095537 103.093434 l
162.374876 102.66854 l
165.654215 101.792448 l
168.933554 101.447696 l
172.212893 101.246532 l
175.492231 101.1841 l
178.77157 101.163783 l
182.050909 101.135849 l
185.330248 101.122016 l
188.609587 101.10664 l
191.888926 101.0905 l
195.168264 101.078662 l
198.447603 101.067273 l
201.726942 101.05739 l
205.006281 101.054317 l
208.28562 101.04793 l
211.564959 101.043695 l
214.844298 101.041223 l
218.123636 101.038728 l
221.402975 101.035281 l
224.682314 101.032839 l
227.961653 101.031222 l
231.240992 101.029849 l
234.520331 101.028227 l
237.799669 101.027291 l
241.079008 101.0262 l
244.358347 101.02514 l
247.637686 101.02428 l
250.917025 101.023262 l
254.196364 101.022835 l
257.475702 101.022222 l
260.755041 101.021751 l
264.03438 101.021416 l
267.313719 101.020852 l
270.593058 101.020794 l
273.872397 101.020444 l
277.151736 101.020089 l
280.431074 101.019682 l
283.710413 101.019411 l
286.989752 101.019025 l
290.269091 101.01889 l
293.54843 101.018654 l
296.827769 101.018588 l
300.107107 101.018368 l
303.386446 101.018289 l
306.665785 101.018254 l
309.945124 101.018186 l
313.224463 101.018162 l
316.503802 101.018149 l
319.78314 101.018128 l
323.062479 101.018113 l
326.341818 101.018099 l
329.621157 101.01808 l
332.900496 101.018066 l
336.179835 101.018057 l
339.459174 101.018044 l
342.738512 101.018034 l
346.017851 101.018024 l
349.29719 101.018011 l
352.576529 101.018009 l
355.855868 101.018003 l
359.135207 101.017997 l
362.414545 101.017993 l
365.693884 101.017985 l
368.973223 101.017982 l
372.252562 101.017978 l
375.531901 101.017974 l
378.81124 101.017974 l
382.090579 101.017973 l
385.369917 101.017971 l
388.649256 101.017971 l
391.928595 101.01797 l
395.207934 101.017969 l
398.487273 101.017969 l
stroke
grestore
1.000 0.498 0.055 setrgbcolor
gsave
357.1 266.1 57.6 38.02 clipbox
73.832727 285.308359 m
77.112066 277.08214 l
80.391405 273.752507 l
83.670744 264.825094 l
86.950083 256.167689 l
90.229421 248.260952 l
93.50876 234.610773 l
96.788099 221.840749 l
100.067438 206.513025 l
103.346777 191.252902 l
106.626116 175.023597 l
109.905455 160.571115 l
113.184793 146.901525 l
116.464132 132.004757 l
119.743471 124.470374 l
123.02281 115.981036 l
126.302149 107.616188 l
129.581488 100.050687 l
132.860826 97.143181 l
136.140165 91.82829 l
139.419504 87.254921 l
142.698843 84.844081 l
145.978182 82.388817 l
149.257521 80.557623 l
152.53686 78.368441 l
155.816198 77.310997 l
159.095537 75.193734 l
162.374876 74.381243 l
165.654215 73.242456 l
168.933554 72.631304 l
172.212893 71.871769 l
175.492231 71.211452 l
178.77157 70.698579 l
182.050909 70.550788 l
185.330248 70.227977 l
188.609587 69.385082 l
191.888926 68.432614 l
195.168264 68.162612 l
198.447603 68.342128 l
201.726942 67.418988 l
205.006281 67.198196 l
208.28562 67.046342 l
211.564959 67.004348 l
214.844298 66.803671 l
218.123636 66.803534 l
221.402975 66.827456 l
224.682314 66.849869 l
227.961653 66.892809 l
231.240992 66.902909 l
234.520331 66.6814 l
237.799669 66.705181 l
241.079008 66.755538 l
244.358347 66.655076 l
247.637686 66.550487 l
250.917025 66.350898 l
254.196364 66.288189 l
257.475702 66.264358 l
260.755041 66.254338 l
264.03438 66.248333 l
267.313719 66.24511 l
270.593058 66.241908 l
273.872397 66.239887 l
277.151736 66.237751 l
280.431074 66.236072 l
283.710413 66.234516 l
286.989752 66.232878 l
290.269091 66.231041 l
293.54843 66.229797 l
296.827769 66.228291 l
300.107107 66.227203 l
303.386446 66.226097 l
306.665785 66.225249 l
309.945124 66.22442 l
313.224463 66.223693 l
316.503802 66.223221 l
319.78314 66.222611 l
323.062479 66.222176 l
326.341818 66.221588 l
329.621157 66.221112 l
332.900496 66.220635 l
336.179835 66.220174 l
339.459174 66.219659 l
342.738512 66.219313 l
346.017851 66.218929 l
349.29719 66.218511 l
352.576529 66.218289 l
355.855868 66.217893 l
359.135207 66.217523 l
362.414545 66.217361 l
365.693884 66.217136 l
368.973223 66.216915 l
372.252562 66.216689 l
375.531901 66.216479 l
378.81124 66.216302 l
382.090579 66.216104 l
385.369917 66.215973 l
388.649256 66.215824 l
391.928595 66.215646 l
395.207934 66.215516 l
398.487273 66.215373 l
stroke
grestore
0.173 0.627 0.173 setrgbcolor
gsave
357.1 266.1 57.6 38.02 clipbox
73.832727 285.560754 m
77.112066 281.016204 l
80.391405 272.447617 l
83.670744 268.348792 l
86.950083 263.149357 l
90.229421 257.888268 l
93.50876 248.764668 l
96.788099 242.715064 l
100.067438 232.200422 l
103.346777 221.226313 l
106.626116 206.85661 l
109.905455 188.920845 l
113.184793 173.430532 l
116.464132 162.215122 l
119.743471 151.947673 l
123.02281 139.038847 l
126.302149 128.54675 l
129.581488 122.980174 l
132.860826 113.176491 l
136.140165 105.548676 l
139.419504 101.584674 l
142.698843 95.028498 l
145.978182 91.860055 l
149.257521 86.683952 l
152.53686 83.976979 l
155.816198 79.756583 l
159.095537 76.980163 l
162.374876 73.891317 l
165.654215 69.353878 l
168.933554 67.6022 l
172.212893 64.754361 l
175.492231 63.097003 l
178.77157 61.406673 l
182.050909 61.090245 l
185.330248 58.900228 l
188.609587 56.977347 l
191.888926 55.674631 l
195.168264 54.605155 l
198.447603 54.326488 l
201.726942 53.951055 l
205.006281 53.883756 l
208.28562 53.556353 l
211.564959 53.10219 l
214.844298 53.202888 l
218.123636 52.810314 l
221.402975 52.029885 l
224.682314 51.779636 l
227.961653 51.303532 l
231.240992 51.202101 l
234.520331 51.043825 l
237.799669 50.95465 l
241.079008 50.793685 l
244.358347 50.77354 l
247.637686 50.570313 l
250.917025 50.498806 l
254.196364 50.448472 l
257.475702 50.392413 l
260.755041 50.349011 l
264.03438 50.332451 l
267.313719 50.313603 l
270.593058 50.303855 l
273.872397 50.291354 l
277.151736 50.282544 l
280.431074 50.272774 l
283.710413 50.264062 l
286.989752 50.253607 l
290.269091 50.242936 l
293.54843 50.233965 l
296.827769 50.226779 l
300.107107 50.217697 l
303.386446 50.211529 l
306.665785 50.205203 l
309.945124 50.201011 l
313.224463 50.195167 l
316.503802 50.190414 l
319.78314 50.184423 l
323.062479 50.180608 l
326.341818 50.174815 l
329.621157 50.169796 l
332.900496 50.165179 l
336.179835 50.161906 l
339.459174 50.157443 l
342.738512 50.153752 l
346.017851 50.151497 l
349.29719 50.147564 l
352.576529 50.144712 l
355.855868 50.14152 l
359.135207 50.138081 l
362.414545 50.134611 l
365.693884 50.13212 l
368.973223 50.128582 l
372.252562 50.125726 l
375.531901 50.123423 l
378.81124 50.120986 l
382.090579 50.119065 l
385.369917 50.117373 l
388.649256 50.11614 l
391.928595 50.114761 l
395.207934 50.113566 l
398.487273 50.112 l
stroke
grestore
0.839 0.153 0.157 setrgbcolor
gsave
357.1 266.1 57.6 38.02 clipbox
73.832727 284.534392 m
77.112066 288.189897 l
80.391405 292.032 l
83.670744 282.13358 l
86.950083 276.363615 l
90.229421 265.323691 l
93.50876 264.985477 l
96.788099 258.257662 l
100.067438 249.467484 l
103.346777 242.019633 l
106.626116 225.904982 l
109.905455 223.143699 l
113.184793 209.262503 l
116.464132 201.988463 l
119.743471 191.718581 l
123.02281 180.400054 l
126.302149 167.353315 l
129.581488 161.255323 l
132.860826 157.377177 l
136.140165 146.8216 l
139.419504 138.781704 l
142.698843 132.044375 l
145.978182 124.855705 l
149.257521 117.010386 l
152.53686 114.74078 l
155.816198 107.667802 l
159.095537 103.932499 l
162.374876 97.828712 l
165.654215 93.479973 l
168.933554 89.033042 l
172.212893 85.491642 l
175.492231 85.230035 l
178.77157 82.394376 l
182.050909 78.753863 l
185.330248 78.764607 l
188.609587 75.617048 l
191.888926 74.545402 l
195.168264 73.311602 l
198.447603 70.421627 l
201.726942 68.873017 l
205.006281 67.625632 l
208.28562 67.965643 l
211.564959 65.868626 l
214.844298 65.644377 l
218.123636 66.337998 l
221.402975 64.336149 l
224.682314 63.396153 l
227.961653 63.407868 l
231.240992 62.217235 l
234.520331 61.71631 l
237.799669 62.497882 l
241.079008 61.555727 l
244.358347 60.878508 l
247.637686 61.117237 l
250.917025 60.624355 l
254.196364 59.78953 l
257.475702 59.740745 l
260.755041 59.314922 l
264.03438 58.640318 l
267.313719 58.567749 l
270.593058 57.998383 l
273.872397 57.72935 l
277.151736 57.343747 l
280.431074 57.277241 l
283.710413 56.742524 l
286.989752 56.833123 l
290.269091 56.268186 l
293.54843 56.431567 l
296.827769 56.386206 l
300.107107 56.323154 l
303.386446 56.275293 l
306.665785 55.933082 l
309.945124 55.935035 l
313.224463 55.851079 l
316.503802 55.847743 l
319.78314 55.82433 l
323.062479 55.814192 l
326.341818 55.805816 l
329.621157 55.805036 l
332.900496 55.801321 l
336.179835 55.801396 l
339.459174 55.800347 l
342.738512 55.799713 l
346.017851 55.799428 l
349.29719 55.799332 l
352.576529 55.799155 l
355.855868 55.799013 l
359.135207 55.798993 l
362.414545 55.799014 l
365.693884 55.798975 l
368.973223 55.798971 l
372.252562 55.798969 l
375.531901 55.798957 l
378.81124 55.798955 l
382.090579 55.798953 l
385.369917 55.798951 l
388.649256 55.79895 l
391.928595 55.798946 l
395.207934 55.798946 l
398.487273 55.798945 l
stroke
grestore
0.800 setlinewidth
0 setlinejoin
[] 0 setdash
0.000 setgray
gsave
57.6 38.016 m
57.6 304.128 l
stroke
grestore
gsave
414.72 38.016 m
414.72 304.128 l
stroke
grestore
gsave
57.6 38.016 m
414.72 38.016 l
stroke
grestore
gsave
57.6 304.128 m
414.72 304.128 l
stroke
grestore
/DejaVuSans findfont
12.000 scalefont
setfont
gsave
165.660000 310.128000 translate
0.000000 rotate
0.000000 0.000000 m /M glyphshow
10.353516 0.000000 m /e glyphshow
17.736328 0.000000 m /a glyphshow
25.089844 0.000000 m /n glyphshow
32.695312 0.000000 m /space glyphshow
36.509766 0.000000 m /F glyphshow
43.412109 0.000000 m /i glyphshow
46.746094 0.000000 m /t glyphshow
51.451172 0.000000 m /n glyphshow
59.056641 0.000000 m /e glyphshow
66.439453 0.000000 m /s glyphshow
72.691406 0.000000 m /s glyphshow
78.943359 0.000000 m /space glyphshow
82.757812 0.000000 m /hyphen glyphshow
87.087891 0.000000 m /space glyphshow
90.902344 0.000000 m /r glyphshow
95.835938 0.000000 m /a glyphshow
103.189453 0.000000 m /s glyphshow
109.441406 0.000000 m /t glyphshow
114.146484 0.000000 m /r glyphshow
119.080078 0.000000 m /i glyphshow
122.414062 0.000000 m /g glyphshow
130.031250 0.000000 m /i glyphshow
133.365234 0.000000 m /n glyphshow
grestore
1.000 setlinewidth
0 setlinecap
0.800 setgray
gsave
316.673125 237.4405 m
407.72 237.4405 l
409.053333 237.4405 409.72 238.107167 409.72 239.4405 c
409.72 297.128 l
409.72 298.461333 409.053333 299.128 407.72 299.128 c
316.673125 299.128 l
315.339792 299.128 314.673125 298.461333 314.673125 297.128 c
314.673125 239.4405 l
314.673125 238.107167 315.339792 237.4405 316.673125 237.4405 c
cl
gsave
1.000 setgray
fill
grestore
stroke
grestore
1.500 setlinewidth
1 setlinejoin
2 setlinecap
[] 0 setdash
0.122 0.467 0.706 setrgbcolor
gsave
318.673125 291.03425 m
338.673125 291.03425 l
stroke
grestore
0.000 setgray
/DejaVuSans findfont
10.000 scalefont
setfont
gsave
346.673125 287.534250 translate
0.000000 rotate
0.000000 0.000000 m /parenleft glyphshow
3.901367 0.000000 m /three glyphshow
10.263672 0.000000 m /comma glyphshow
13.442383 0.000000 m /six glyphshow
19.804688 0.000000 m /parenright glyphshow
23.706055 0.000000 m /hyphen glyphshow
27.314453 0.000000 m /S glyphshow
33.662109 0.000000 m /E glyphshow
39.980469 0.000000 m /S glyphshow
grestore
1.000 0.498 0.055 setrgbcolor
gsave
318.673125 276.362375 m
338.673125 276.362375 l
stroke
grestore
0.000 setgray
gsave
346.673125 272.862375 translate
0.000000 rotate
0.000000 0.000000 m /parenleft glyphshow
3.901367 0.000000 m /six glyphshow
10.263672 0.000000 m /comma glyphshow
13.442383 0.000000 m /one glyphshow
19.804688 0.000000 m /two glyphshow
26.166992 0.000000 m /parenright glyphshow
30.068359 0.000000 m /hyphen glyphshow
33.676758 0.000000 m /S glyphshow
40.024414 0.000000 m /E glyphshow
46.342773 0.000000 m /S glyphshow
grestore
0.173 0.627 0.173 setrgbcolor
gsave
318.673125 261.6905 m
338.673125 261.6905 l
stroke
grestore
0.000 setgray
gsave
346.673125 258.190500 translate
0.000000 rotate
0.000000 0.000000 m /parenleft glyphshow
3.901367 0.000000 m /one glyphshow
10.263672 0.000000 m /two glyphshow
16.625977 0.000000 m /comma glyphshow
19.804688 0.000000 m /two glyphshow
26.166992 0.000000 m /four glyphshow
32.529297 0.000000 m /parenright glyphshow
36.430664 0.000000 m /hyphen glyphshow
40.039062 0.000000 m /S glyphshow
46.386719 0.000000 m /E glyphshow
52.705078 0.000000 m /S glyphshow
grestore
0.839 0.153 0.157 setrgbcolor
gsave
318.673125 247.018625 m
338.673125 247.018625 l
stroke
grestore
0.000 setgray
gsave
346.673125 243.518625 translate
0.000000 rotate
0.000000 0.000000 m /C glyphshow
6.982422 0.000000 m /M glyphshow
15.610352 0.000000 m /A glyphshow
22.451172 0.000000 m /hyphen glyphshow
26.059570 0.000000 m /E glyphshow
32.377930 0.000000 m /S glyphshow
grestore

end
showpage
