%!PS-Adobe-3.0 EPSF-3.0
%%Title: mean_fitness_ackley.eps
%%Creator: matplotlib version 2.1.2, http://matplotlib.org/
%%CreationDate: Mon Apr 22 08:08:02 2019
%%Orientation: portrait
%%BoundingBox: 75 223 536 568
%%EndComments
%%BeginProlog
/mpldict 8 dict def
mpldict begin
/m { moveto } bind def
/l { lineto } bind def
/r { rlineto } bind def
/c { curveto } bind def
/cl { closepath } bind def
/box {
m
1 index 0 r
0 exch r
neg 0 r
cl
} bind def
/clipbox {
box
clip
newpath
} bind def
%!PS-Adobe-3.0 Resource-Font
%%Title: DejaVu Sans
%%Copyright: Copyright (c) 2003 by Bitstream, Inc. All Rights Reserved. Copyright (c) 2006 by Tavmjong Bah. All Rights Reserved. DejaVu changes are in public domain 
%%Creator: Converted from TrueType to type 3 by PPR
25 dict begin
/_d{bind def}bind def
/_m{moveto}_d
/_l{lineto}_d
/_cl{closepath eofill}_d
/_c{curveto}_d
/_sc{7 -1 roll{setcachedevice}{pop pop pop pop pop pop}ifelse}_d
/_e{exec}_d
/FontName /DejaVuSans def
/PaintType 0 def
/FontMatrix[.001 0 0 .001 0 0]def
/FontBBox[-1021 -463 1793 1232]def
/FontType 3 def
/Encoding [ /space /parenleft /parenright /comma /hyphen /zero /one /two /three /four /six /eight /A /C /E /F /I /M /S /a /c /e /i /k /l /n /o /r /s /t /y ] def
/FontInfo 10 dict dup begin
/FamilyName (DejaVu Sans) def
/FullName (DejaVu Sans) def
/Notice (Copyright (c) 2003 by Bitstream, Inc. All Rights Reserved. Copyright (c) 2006 by Tavmjong Bah. All Rights Reserved. DejaVu changes are in public domain ) def
/Weight (Book) def
/Version (Version 2.35) def
/ItalicAngle 0.0 def
/isFixedPitch false def
/UnderlinePosition -130 def
/UnderlineThickness 90 def
end readonly def
/CharStrings 32 dict dup begin
/.notdef 0 def
/space{318 0 0 0 0 0 _sc
}_d
/parenleft{390 0 86 -131 310 759 _sc
310 759 _m
266 683 234 609 213 536 _c
191 463 181 389 181 314 _c
181 238 191 164 213 91 _c
234 17 266 -56 310 -131 _c
232 -131 _l
183 -54 146 20 122 94 _c
98 168 86 241 86 314 _c
86 386 98 459 122 533 _c
146 607 182 682 232 759 _c
310 759 _l
_cl}_d
/parenright{390 0 80 -131 304 759 _sc
80 759 _m
158 759 _l
206 682 243 607 267 533 _c
291 459 304 386 304 314 _c
304 241 291 168 267 94 _c
243 20 206 -54 158 -131 _c
80 -131 _l
123 -56 155 17 177 91 _c
198 164 209 238 209 314 _c
209 389 198 463 177 536 _c
155 609 123 683 80 759 _c
_cl}_d
/comma{318 0 77 -115 220 124 _sc
117 124 _m
220 124 _l
220 40 _l
140 -115 _l
77 -115 _l
117 40 _l
117 124 _l
_cl}_d
/hyphen{361 0 49 234 312 314 _sc
49 314 _m
312 314 _l
312 234 _l
49 234 _l
49 314 _l
_cl}_d
/zero{636 0 66 -13 570 742 _sc
318 664 _m
267 664 229 639 203 589 _c
177 539 165 464 165 364 _c
165 264 177 189 203 139 _c
229 89 267 64 318 64 _c
369 64 407 89 433 139 _c
458 189 471 264 471 364 _c
471 464 458 539 433 589 _c
407 639 369 664 318 664 _c
318 742 _m
399 742 461 709 505 645 _c
548 580 570 486 570 364 _c
570 241 548 147 505 83 _c
461 19 399 -13 318 -13 _c
236 -13 173 19 130 83 _c
87 147 66 241 66 364 _c
66 486 87 580 130 645 _c
173 709 236 742 318 742 _c
_cl}_d
/one{636 0 110 0 544 729 _sc
124 83 _m
285 83 _l
285 639 _l
110 604 _l
110 694 _l
284 729 _l
383 729 _l
383 83 _l
544 83 _l
544 0 _l
124 0 _l
124 83 _l
_cl}_d
/two{{636 0 73 0 536 742 _sc
192 83 _m
536 83 _l
536 0 _l
73 0 _l
73 83 _l
110 121 161 173 226 239 _c
290 304 331 346 348 365 _c
380 400 402 430 414 455 _c
426 479 433 504 433 528 _c
433 566 419 598 392 622 _c
365 646 330 659 286 659 _c
255 659 222 653 188 643 _c
154 632 117 616 78 594 _c
78 694 _l
118 710 155 722 189 730 _c
223 738 255 742 284 742 _c
}_e{359 742 419 723 464 685 _c
509 647 532 597 532 534 _c
532 504 526 475 515 449 _c
504 422 484 390 454 354 _c
446 344 420 317 376 272 _c
332 227 271 164 192 83 _c
_cl}_e}_d
/three{{636 0 76 -13 556 742 _sc
406 393 _m
453 383 490 362 516 330 _c
542 298 556 258 556 212 _c
556 140 531 84 482 45 _c
432 6 362 -13 271 -13 _c
240 -13 208 -10 176 -4 _c
144 1 110 10 76 22 _c
76 117 _l
103 101 133 89 166 81 _c
198 73 232 69 268 69 _c
330 69 377 81 409 105 _c
441 129 458 165 458 212 _c
458 254 443 288 413 312 _c
383 336 341 349 287 349 _c
}_e{202 349 _l
202 430 _l
291 430 _l
339 430 376 439 402 459 _c
428 478 441 506 441 543 _c
441 580 427 609 401 629 _c
374 649 336 659 287 659 _c
260 659 231 656 200 650 _c
169 644 135 635 98 623 _c
98 711 _l
135 721 170 729 203 734 _c
235 739 266 742 296 742 _c
370 742 429 725 473 691 _c
517 657 539 611 539 553 _c
539 513 527 479 504 451 _c
481 423 448 403 406 393 _c
_cl}_e}_d
/four{636 0 49 0 580 729 _sc
378 643 _m
129 254 _l
378 254 _l
378 643 _l
352 729 _m
476 729 _l
476 254 _l
580 254 _l
580 172 _l
476 172 _l
476 0 _l
378 0 _l
378 172 _l
49 172 _l
49 267 _l
352 729 _l
_cl}_d
/six{{636 0 70 -13 573 742 _sc
330 404 _m
286 404 251 388 225 358 _c
199 328 186 286 186 234 _c
186 181 199 139 225 109 _c
251 79 286 64 330 64 _c
374 64 409 79 435 109 _c
461 139 474 181 474 234 _c
474 286 461 328 435 358 _c
409 388 374 404 330 404 _c
526 713 _m
526 623 _l
501 635 476 644 451 650 _c
425 656 400 659 376 659 _c
310 659 260 637 226 593 _c
}_e{192 549 172 482 168 394 _c
187 422 211 444 240 459 _c
269 474 301 482 336 482 _c
409 482 467 459 509 415 _c
551 371 573 310 573 234 _c
573 159 550 99 506 54 _c
462 9 403 -13 330 -13 _c
246 -13 181 19 137 83 _c
92 147 70 241 70 364 _c
70 479 97 571 152 639 _c
206 707 280 742 372 742 _c
396 742 421 739 447 735 _c
472 730 498 723 526 713 _c
_cl}_e}_d
/eight{{636 0 68 -13 568 742 _sc
318 346 _m
271 346 234 333 207 308 _c
180 283 167 249 167 205 _c
167 161 180 126 207 101 _c
234 76 271 64 318 64 _c
364 64 401 76 428 102 _c
455 127 469 161 469 205 _c
469 249 455 283 429 308 _c
402 333 365 346 318 346 _c
219 388 _m
177 398 144 418 120 447 _c
96 476 85 511 85 553 _c
85 611 105 657 147 691 _c
188 725 245 742 318 742 _c
}_e{390 742 447 725 489 691 _c
530 657 551 611 551 553 _c
551 511 539 476 515 447 _c
491 418 459 398 417 388 _c
464 377 501 355 528 323 _c
554 291 568 251 568 205 _c
568 134 546 80 503 43 _c
459 5 398 -13 318 -13 _c
237 -13 175 5 132 43 _c
89 80 68 134 68 205 _c
68 251 81 291 108 323 _c
134 355 171 377 219 388 _c
183 544 _m
183 506 194 476 218 455 _c
}_e{242 434 275 424 318 424 _c
360 424 393 434 417 455 _c
441 476 453 506 453 544 _c
453 582 441 611 417 632 _c
393 653 360 664 318 664 _c
275 664 242 653 218 632 _c
194 611 183 582 183 544 _c
_cl}_e}_d
/A{684 0 8 0 676 729 _sc
342 632 _m
208 269 _l
476 269 _l
342 632 _l
286 729 _m
398 729 _l
676 0 _l
573 0 _l
507 187 _l
178 187 _l
112 0 _l
8 0 _l
286 729 _l
_cl}_d
/C{{698 0 56 -13 644 742 _sc
644 673 _m
644 569 _l
610 599 575 622 537 638 _c
499 653 460 661 418 661 _c
334 661 270 635 226 584 _c
182 533 160 460 160 364 _c
160 268 182 194 226 143 _c
270 92 334 67 418 67 _c
460 67 499 74 537 90 _c
575 105 610 128 644 159 _c
644 56 _l
609 32 572 15 534 4 _c
496 -7 455 -13 412 -13 _c
302 -13 215 20 151 87 _c
}_e{87 154 56 246 56 364 _c
56 481 87 573 151 641 _c
215 708 302 742 412 742 _c
456 742 497 736 535 725 _c
573 713 610 696 644 673 _c
_cl}_e}_d
/E{632 0 98 0 568 729 _sc
98 729 _m
559 729 _l
559 646 _l
197 646 _l
197 430 _l
544 430 _l
544 347 _l
197 347 _l
197 83 _l
568 83 _l
568 0 _l
98 0 _l
98 729 _l
_cl}_d
/F{575 0 98 0 517 729 _sc
98 729 _m
517 729 _l
517 646 _l
197 646 _l
197 431 _l
486 431 _l
486 348 _l
197 348 _l
197 0 _l
98 0 _l
98 729 _l
_cl}_d
/I{295 0 98 0 197 729 _sc
98 729 _m
197 729 _l
197 0 _l
98 0 _l
98 729 _l
_cl}_d
/M{863 0 98 0 765 729 _sc
98 729 _m
245 729 _l
431 233 _l
618 729 _l
765 729 _l
765 0 _l
669 0 _l
669 640 _l
481 140 _l
382 140 _l
194 640 _l
194 0 _l
98 0 _l
98 729 _l
_cl}_d
/S{{635 0 66 -13 579 742 _sc
535 705 _m
535 609 _l
497 627 462 640 429 649 _c
395 657 363 662 333 662 _c
279 662 237 651 208 631 _c
179 610 165 580 165 542 _c
165 510 174 485 194 469 _c
213 452 250 439 304 429 _c
364 417 _l
437 403 491 378 526 343 _c
561 307 579 260 579 201 _c
579 130 555 77 508 41 _c
460 5 391 -13 300 -13 _c
265 -13 228 -9 189 -2 _c
}_e{150 5 110 16 69 32 _c
69 134 _l
109 111 148 94 186 83 _c
224 71 262 66 300 66 _c
356 66 399 77 430 99 _c
460 121 476 152 476 194 _c
476 230 465 258 443 278 _c
421 298 385 313 335 323 _c
275 335 _l
201 349 148 372 115 404 _c
82 435 66 478 66 534 _c
66 598 88 649 134 686 _c
179 723 242 742 322 742 _c
356 742 390 739 426 733 _c
461 727 497 717 535 705 _c
}_e{_cl}_e}_d
/a{{613 0 60 -13 522 560 _sc
343 275 _m
270 275 220 266 192 250 _c
164 233 150 205 150 165 _c
150 133 160 107 181 89 _c
202 70 231 61 267 61 _c
317 61 357 78 387 114 _c
417 149 432 196 432 255 _c
432 275 _l
343 275 _l
522 312 _m
522 0 _l
432 0 _l
432 83 _l
411 49 385 25 355 10 _c
325 -5 287 -13 243 -13 _c
187 -13 142 2 109 33 _c
76 64 60 106 60 159 _c
}_e{60 220 80 266 122 298 _c
163 329 224 345 306 345 _c
432 345 _l
432 354 _l
432 395 418 427 391 450 _c
364 472 326 484 277 484 _c
245 484 215 480 185 472 _c
155 464 127 453 100 439 _c
100 522 _l
132 534 164 544 195 550 _c
226 556 256 560 286 560 _c
365 560 424 539 463 498 _c
502 457 522 395 522 312 _c
_cl}_e}_d
/c{{550 0 55 -13 488 560 _sc
488 526 _m
488 442 _l
462 456 437 466 411 473 _c
385 480 360 484 334 484 _c
276 484 230 465 198 428 _c
166 391 150 339 150 273 _c
150 206 166 154 198 117 _c
230 80 276 62 334 62 _c
360 62 385 65 411 72 _c
437 79 462 90 488 104 _c
488 21 _l
462 9 436 0 410 -5 _c
383 -10 354 -13 324 -13 _c
242 -13 176 12 128 64 _c
}_e{79 115 55 185 55 273 _c
55 362 79 432 128 483 _c
177 534 244 560 330 560 _c
358 560 385 557 411 551 _c
437 545 463 537 488 526 _c
_cl}_e}_d
/e{{615 0 55 -13 562 560 _sc
562 296 _m
562 252 _l
149 252 _l
153 190 171 142 205 110 _c
238 78 284 62 344 62 _c
378 62 412 66 444 74 _c
476 82 509 95 541 113 _c
541 28 _l
509 14 476 3 442 -3 _c
408 -9 373 -13 339 -13 _c
251 -13 182 12 131 62 _c
80 112 55 181 55 268 _c
55 357 79 428 127 481 _c
175 533 241 560 323 560 _c
397 560 455 536 498 489 _c
}_e{540 441 562 377 562 296 _c
472 322 _m
471 371 457 410 431 440 _c
404 469 368 484 324 484 _c
274 484 234 469 204 441 _c
174 413 156 373 152 322 _c
472 322 _l
_cl}_e}_d
/i{278 0 94 0 184 760 _sc
94 547 _m
184 547 _l
184 0 _l
94 0 _l
94 547 _l
94 760 _m
184 760 _l
184 646 _l
94 646 _l
94 760 _l
_cl}_d
/k{579 0 91 0 576 760 _sc
91 760 _m
181 760 _l
181 311 _l
449 547 _l
564 547 _l
274 291 _l
576 0 _l
459 0 _l
181 267 _l
181 0 _l
91 0 _l
91 760 _l
_cl}_d
/l{278 0 94 0 184 760 _sc
94 760 _m
184 760 _l
184 0 _l
94 0 _l
94 760 _l
_cl}_d
/n{634 0 91 0 549 560 _sc
549 330 _m
549 0 _l
459 0 _l
459 327 _l
459 379 448 417 428 443 _c
408 469 378 482 338 482 _c
289 482 251 466 223 435 _c
195 404 181 362 181 309 _c
181 0 _l
91 0 _l
91 547 _l
181 547 _l
181 462 _l
202 494 227 519 257 535 _c
286 551 320 560 358 560 _c
420 560 468 540 500 501 _c
532 462 549 405 549 330 _c
_cl}_d
/o{612 0 55 -13 557 560 _sc
306 484 _m
258 484 220 465 192 427 _c
164 389 150 338 150 273 _c
150 207 163 156 191 118 _c
219 80 257 62 306 62 _c
354 62 392 80 420 118 _c
448 156 462 207 462 273 _c
462 337 448 389 420 427 _c
392 465 354 484 306 484 _c
306 560 _m
384 560 445 534 490 484 _c
534 433 557 363 557 273 _c
557 183 534 113 490 63 _c
445 12 384 -13 306 -13 _c
227 -13 165 12 121 63 _c
77 113 55 183 55 273 _c
55 363 77 433 121 484 _c
165 534 227 560 306 560 _c
_cl}_d
/r{411 0 91 0 411 560 _sc
411 463 _m
401 469 390 473 378 476 _c
366 478 353 480 339 480 _c
288 480 249 463 222 430 _c
194 397 181 350 181 288 _c
181 0 _l
91 0 _l
91 547 _l
181 547 _l
181 462 _l
199 495 224 520 254 536 _c
284 552 321 560 365 560 _c
371 560 378 559 386 559 _c
393 558 401 557 411 555 _c
411 463 _l
_cl}_d
/s{{521 0 54 -13 472 560 _sc
443 531 _m
443 446 _l
417 458 391 468 364 475 _c
336 481 308 485 279 485 _c
234 485 200 478 178 464 _c
156 450 145 430 145 403 _c
145 382 153 366 169 354 _c
185 342 217 330 265 320 _c
296 313 _l
360 299 405 279 432 255 _c
458 230 472 195 472 151 _c
472 100 452 60 412 31 _c
372 1 316 -13 246 -13 _c
216 -13 186 -10 154 -5 _c
}_e{122 0 89 8 54 20 _c
54 113 _l
87 95 120 82 152 74 _c
184 65 216 61 248 61 _c
290 61 323 68 346 82 _c
368 96 380 117 380 144 _c
380 168 371 187 355 200 _c
339 213 303 226 247 238 _c
216 245 _l
160 257 119 275 95 299 _c
70 323 58 356 58 399 _c
58 450 76 490 112 518 _c
148 546 200 560 268 560 _c
301 560 332 557 362 552 _c
391 547 418 540 443 531 _c
}_e{_cl}_e}_d
/t{392 0 27 0 368 702 _sc
183 702 _m
183 547 _l
368 547 _l
368 477 _l
183 477 _l
183 180 _l
183 135 189 106 201 94 _c
213 81 238 75 276 75 _c
368 75 _l
368 0 _l
276 0 _l
206 0 158 13 132 39 _c
106 65 93 112 93 180 _c
93 477 _l
27 477 _l
27 547 _l
93 547 _l
93 702 _l
183 702 _l
_cl}_d
/y{592 0 30 -207 562 547 _sc
322 -50 _m
296 -114 271 -157 247 -177 _c
223 -197 191 -207 151 -207 _c
79 -207 _l
79 -132 _l
132 -132 _l
156 -132 175 -126 189 -114 _c
203 -102 218 -75 235 -31 _c
251 9 _l
30 547 _l
125 547 _l
296 119 _l
467 547 _l
562 547 _l
322 -50 _l
_cl}_d
end readonly def

/BuildGlyph
 {exch begin
 CharStrings exch
 2 copy known not{pop /.notdef}if
 true 3 1 roll get exec
 end}_d

/BuildChar {
 1 index /Encoding get exch get
 1 index /BuildGlyph get exec
}_d

FontName currentdict end definefont pop
end
%%EndProlog
mpldict begin
75.6 223.2 translate
460.8 345.6 0 0 clipbox
gsave
0 0 m
460.8 0 l
460.8 345.6 l
0 345.6 l
cl
1.000 setgray
fill
grestore
gsave
57.6 38.016 m
414.72 38.016 l
414.72 304.128 l
57.6 304.128 l
cl
1.000 setgray
fill
grestore
0.800 setlinewidth
1 setlinejoin
0 setlinecap
[] 0 setdash
0.000 setgray
gsave
/o {
gsave
newpath
translate
0.8 setlinewidth
1 setlinejoin
0 setlinecap
0 0 m
0 -3.5 l

gsave
0.000 setgray
fill
grestore
stroke
grestore
} bind def
73.8327 38.016 o
grestore
/DejaVuSans findfont
10.000 scalefont
setfont
gsave
70.653040 23.422250 translate
0.000000 rotate
0.000000 0.000000 m /zero glyphshow
grestore
gsave
/o {
gsave
newpath
translate
0.8 setlinewidth
1 setlinejoin
0 setlinecap
0 0 m
0 -3.5 l

gsave
0.000 setgray
fill
grestore
stroke
grestore
} bind def
139.42 38.016 o
grestore
gsave
133.060129 23.422250 translate
0.000000 rotate
0.000000 0.000000 m /two glyphshow
6.362305 0.000000 m /zero glyphshow
grestore
gsave
/o {
gsave
newpath
translate
0.8 setlinewidth
1 setlinejoin
0 setlinecap
0 0 m
0 -3.5 l

gsave
0.000 setgray
fill
grestore
stroke
grestore
} bind def
205.006 38.016 o
grestore
gsave
198.646906 23.422250 translate
0.000000 rotate
0.000000 0.000000 m /four glyphshow
6.362305 0.000000 m /zero glyphshow
grestore
gsave
/o {
gsave
newpath
translate
0.8 setlinewidth
1 setlinejoin
0 setlinecap
0 0 m
0 -3.5 l

gsave
0.000 setgray
fill
grestore
stroke
grestore
} bind def
270.593 38.016 o
grestore
gsave
264.233683 23.422250 translate
0.000000 rotate
0.000000 0.000000 m /six glyphshow
6.362305 0.000000 m /zero glyphshow
grestore
gsave
/o {
gsave
newpath
translate
0.8 setlinewidth
1 setlinejoin
0 setlinecap
0 0 m
0 -3.5 l

gsave
0.000 setgray
fill
grestore
stroke
grestore
} bind def
336.18 38.016 o
grestore
gsave
329.820460 23.422250 translate
0.000000 rotate
0.000000 0.000000 m /eight glyphshow
6.362305 0.000000 m /zero glyphshow
grestore
gsave
/o {
gsave
newpath
translate
0.8 setlinewidth
1 setlinejoin
0 setlinecap
0 0 m
0 -3.5 l

gsave
0.000 setgray
fill
grestore
stroke
grestore
} bind def
401.767 38.016 o
grestore
gsave
392.227549 23.422250 translate
0.000000 rotate
0.000000 0.000000 m /one glyphshow
6.362305 0.000000 m /zero glyphshow
12.724609 0.000000 m /zero glyphshow
grestore
gsave
214.941250 9.750375 translate
0.000000 rotate
0.000000 0.000000 m /I glyphshow
2.949219 0.000000 m /t glyphshow
6.870117 0.000000 m /e glyphshow
13.022461 0.000000 m /r glyphshow
17.133789 0.000000 m /a glyphshow
23.261719 0.000000 m /t glyphshow
27.182617 0.000000 m /i glyphshow
29.960938 0.000000 m /o glyphshow
36.079102 0.000000 m /n glyphshow
grestore
gsave
/o {
gsave
newpath
translate
0.8 setlinewidth
1 setlinejoin
0 setlinecap
0 0 m
-3.5 0 l

gsave
0.000 setgray
fill
grestore
stroke
grestore
} bind def
57.6 47.1547 o
grestore
gsave
44.240625 43.357808 translate
0.000000 rotate
0.000000 0.000000 m /zero glyphshow
grestore
gsave
/o {
gsave
newpath
translate
0.8 setlinewidth
1 setlinejoin
0 setlinecap
0 0 m
-3.5 0 l

gsave
0.000 setgray
fill
grestore
stroke
grestore
} bind def
57.6 85.364 o
grestore
gsave
44.240625 81.567105 translate
0.000000 rotate
0.000000 0.000000 m /two glyphshow
grestore
gsave
/o {
gsave
newpath
translate
0.8 setlinewidth
1 setlinejoin
0 setlinecap
0 0 m
-3.5 0 l

gsave
0.000 setgray
fill
grestore
stroke
grestore
} bind def
57.6 123.573 o
grestore
gsave
44.240625 119.776401 translate
0.000000 rotate
0.000000 0.000000 m /four glyphshow
grestore
gsave
/o {
gsave
newpath
translate
0.8 setlinewidth
1 setlinejoin
0 setlinecap
0 0 m
-3.5 0 l

gsave
0.000 setgray
fill
grestore
stroke
grestore
} bind def
57.6 161.783 o
grestore
gsave
44.240625 157.985698 translate
0.000000 rotate
0.000000 0.000000 m /six glyphshow
grestore
gsave
/o {
gsave
newpath
translate
0.8 setlinewidth
1 setlinejoin
0 setlinecap
0 0 m
-3.5 0 l

gsave
0.000 setgray
fill
grestore
stroke
grestore
} bind def
57.6 199.992 o
grestore
gsave
44.240625 196.194994 translate
0.000000 rotate
0.000000 0.000000 m /eight glyphshow
grestore
gsave
/o {
gsave
newpath
translate
0.8 setlinewidth
1 setlinejoin
0 setlinecap
0 0 m
-3.5 0 l

gsave
0.000 setgray
fill
grestore
stroke
grestore
} bind def
57.6 238.201 o
grestore
gsave
37.881250 234.404291 translate
0.000000 rotate
0.000000 0.000000 m /one glyphshow
6.362305 0.000000 m /zero glyphshow
grestore
gsave
/o {
gsave
newpath
translate
0.8 setlinewidth
1 setlinejoin
0 setlinecap
0 0 m
-3.5 0 l

gsave
0.000 setgray
fill
grestore
stroke
grestore
} bind def
57.6 276.41 o
grestore
gsave
37.881250 272.613587 translate
0.000000 rotate
0.000000 0.000000 m /one glyphshow
6.362305 0.000000 m /two glyphshow
grestore
gsave
31.803125 153.376687 translate
90.000000 rotate
0.000000 0.000000 m /F glyphshow
5.751953 0.000000 m /i glyphshow
8.530273 0.000000 m /t glyphshow
12.451172 0.000000 m /n glyphshow
18.789062 0.000000 m /e glyphshow
24.941406 0.000000 m /s glyphshow
30.151367 0.000000 m /s glyphshow
grestore
1.500 setlinewidth
2 setlinecap
0.122 0.467 0.706 setrgbcolor
gsave
357.1 266.1 57.6 38.02 clipbox
73.832727 287.980033 m
77.112066 255.411485 l
80.391405 225.751324 l
83.670744 206.320449 l
86.950083 188.904012 l
90.229421 177.087205 l
93.50876 167.985267 l
96.788099 159.914838 l
100.067438 155.696449 l
103.346777 152.197685 l
106.626116 148.594398 l
109.905455 146.716262 l
113.184793 145.545045 l
116.464132 144.608139 l
119.743471 144.032669 l
123.02281 143.317733 l
126.302149 143.022603 l
129.581488 142.651255 l
132.860826 142.457049 l
136.140165 142.151368 l
139.419504 141.853143 l
142.698843 141.70436 l
145.978182 141.605053 l
149.257521 141.504965 l
152.53686 141.401412 l
155.816198 141.295734 l
159.095537 141.211391 l
162.374876 141.131455 l
165.654215 141.096762 l
168.933554 141.0615 l
172.212893 141.032208 l
175.492231 141.012763 l
178.77157 140.995344 l
182.050909 140.978368 l
185.330248 140.957179 l
188.609587 140.93675 l
191.888926 140.922794 l
195.168264 140.909629 l
198.447603 140.900288 l
201.726942 140.895773 l
205.006281 140.890861 l
208.28562 140.88739 l
211.564959 140.885747 l
214.844298 140.882883 l
218.123636 140.880809 l
221.402975 140.878606 l
224.682314 140.876173 l
227.961653 140.874662 l
231.240992 140.873009 l
234.520331 140.870904 l
237.799669 140.870099 l
241.079008 140.86871 l
244.358347 140.867836 l
247.637686 140.866449 l
250.917025 140.865369 l
254.196364 140.864159 l
257.475702 140.862888 l
260.755041 140.861458 l
264.03438 140.860773 l
267.313719 140.859193 l
270.593058 140.858856 l
273.872397 140.857765 l
277.151736 140.857358 l
280.431074 140.857072 l
283.710413 140.856932 l
286.989752 140.856805 l
290.269091 140.85671 l
293.54843 140.856656 l
296.827769 140.856597 l
300.107107 140.856531 l
303.386446 140.856493 l
306.665785 140.856456 l
309.945124 140.856435 l
313.224463 140.856395 l
316.503802 140.856379 l
319.78314 140.856349 l
323.062479 140.856331 l
326.341818 140.856303 l
329.621157 140.856288 l
332.900496 140.856255 l
336.179835 140.856228 l
339.459174 140.856194 l
342.738512 140.856171 l
346.017851 140.856155 l
349.29719 140.856102 l
352.576529 140.856101 l
355.855868 140.856084 l
359.135207 140.856073 l
362.414545 140.856071 l
365.693884 140.856067 l
368.973223 140.856061 l
372.252562 140.856051 l
375.531901 140.856046 l
378.81124 140.856044 l
382.090579 140.856039 l
385.369917 140.856037 l
388.649256 140.856036 l
391.928595 140.856034 l
395.207934 140.856033 l
398.487273 140.856032 l
stroke
grestore
1.000 0.498 0.055 setrgbcolor
gsave
357.1 266.1 57.6 38.02 clipbox
73.832727 283.559901 m
77.112066 243.277257 l
80.391405 211.450735 l
83.670744 184.16963 l
86.950083 162.599917 l
90.229421 144.512421 l
93.50876 126.700751 l
96.788099 113.85081 l
100.067438 104.352585 l
103.346777 97.688457 l
106.626116 92.185423 l
109.905455 88.815368 l
113.184793 86.222497 l
116.464132 84.278043 l
119.743471 82.945678 l
123.02281 82.067739 l
126.302149 81.177498 l
129.581488 80.58162 l
132.860826 79.982575 l
136.140165 79.590984 l
139.419504 79.334687 l
142.698843 79.14411 l
145.978182 79.000269 l
149.257521 78.884259 l
152.53686 78.778764 l
155.816198 78.69276 l
159.095537 78.640376 l
162.374876 78.578266 l
165.654215 78.536522 l
168.933554 78.504054 l
172.212893 78.481508 l
175.492231 78.462242 l
178.77157 78.443982 l
182.050909 78.431254 l
185.330248 78.419368 l
188.609587 78.40703 l
191.888926 78.397316 l
195.168264 78.39028 l
198.447603 78.382696 l
201.726942 78.377173 l
205.006281 78.372818 l
208.28562 78.368792 l
211.564959 78.365843 l
214.844298 78.362748 l
218.123636 78.360012 l
221.402975 78.357293 l
224.682314 78.355028 l
227.961653 78.352912 l
231.240992 78.350799 l
234.520331 78.349121 l
237.799669 78.347538 l
241.079008 78.346209 l
244.358347 78.345061 l
247.637686 78.343865 l
250.917025 78.343027 l
254.196364 78.342058 l
257.475702 78.341223 l
260.755041 78.340479 l
264.03438 78.339805 l
267.313719 78.339238 l
270.593058 78.338602 l
273.872397 78.338116 l
277.151736 78.337622 l
280.431074 78.337225 l
283.710413 78.336772 l
286.989752 78.336366 l
290.269091 78.335871 l
293.54843 78.335453 l
296.827769 78.334979 l
300.107107 78.334516 l
303.386446 78.333948 l
306.665785 78.333498 l
309.945124 78.332916 l
313.224463 78.332324 l
316.503802 78.331856 l
319.78314 78.331377 l
323.062479 78.330855 l
326.341818 78.330636 l
329.621157 78.330265 l
332.900496 78.330052 l
336.179835 78.329978 l
339.459174 78.329806 l
342.738512 78.329622 l
346.017851 78.329411 l
349.29719 78.329297 l
352.576529 78.329142 l
355.855868 78.329037 l
359.135207 78.328921 l
362.414545 78.328831 l
365.693884 78.328738 l
368.973223 78.328657 l
372.252562 78.328552 l
375.531901 78.328475 l
378.81124 78.328389 l
382.090579 78.328325 l
385.369917 78.328201 l
388.649256 78.32815 l
391.928595 78.32805 l
395.207934 78.327931 l
398.487273 78.32781 l
stroke
grestore
0.173 0.627 0.173 setrgbcolor
gsave
357.1 266.1 57.6 38.02 clipbox
73.832727 292.032 m
77.112066 247.146845 l
80.391405 210.769019 l
83.670744 182.187172 l
86.950083 157.453153 l
90.229421 133.949494 l
93.50876 113.428203 l
96.788099 97.033276 l
100.067438 84.539819 l
103.346777 75.173996 l
106.626116 69.335634 l
109.905455 65.269192 l
113.184793 62.421597 l
116.464132 60.284915 l
119.743471 59.07324 l
123.02281 58.104634 l
126.302149 57.326733 l
129.581488 56.814308 l
132.860826 56.466302 l
136.140165 56.104186 l
139.419504 55.78584 l
142.698843 55.62539 l
145.978182 55.509575 l
149.257521 55.424401 l
152.53686 55.356533 l
155.816198 55.302248 l
159.095537 55.245284 l
162.374876 55.19863 l
165.654215 55.151368 l
168.933554 55.115788 l
172.212893 55.073344 l
175.492231 55.043652 l
178.77157 55.012599 l
182.050909 54.983779 l
185.330248 54.961217 l
188.609587 54.929476 l
191.888926 54.903866 l
195.168264 54.878686 l
198.447603 54.853769 l
201.726942 54.828645 l
205.006281 54.813753 l
208.28562 54.796253 l
211.564959 54.782186 l
214.844298 54.770407 l
218.123636 54.756698 l
221.402975 54.748135 l
224.682314 54.735528 l
227.961653 54.727467 l
231.240992 54.718213 l
234.520331 54.710563 l
237.799669 54.705396 l
241.079008 54.698062 l
244.358347 54.693447 l
247.637686 54.689845 l
250.917025 54.68613 l
254.196364 54.682173 l
257.475702 54.678293 l
260.755041 54.674603 l
264.03438 54.670464 l
267.313719 54.667229 l
270.593058 54.663226 l
273.872397 54.660118 l
277.151736 54.657977 l
280.431074 54.655657 l
283.710413 54.653411 l
286.989752 54.651429 l
290.269091 54.649894 l
293.54843 54.648579 l
296.827769 54.647517 l
300.107107 54.64649 l
303.386446 54.64545 l
306.665785 54.644539 l
309.945124 54.643892 l
313.224463 54.643269 l
316.503802 54.642606 l
319.78314 54.642003 l
323.062479 54.641453 l
326.341818 54.640875 l
329.621157 54.640299 l
332.900496 54.639786 l
336.179835 54.63934 l
339.459174 54.638865 l
342.738512 54.638631 l
346.017851 54.638289 l
349.29719 54.637986 l
352.576529 54.63773 l
355.855868 54.63756 l
359.135207 54.637418 l
362.414545 54.63725 l
365.693884 54.637106 l
368.973223 54.636997 l
372.252562 54.636824 l
375.531901 54.636641 l
378.81124 54.636433 l
382.090579 54.636295 l
385.369917 54.636165 l
388.649256 54.635987 l
391.928595 54.635834 l
395.207934 54.635721 l
398.487273 54.635582 l
stroke
grestore
0.839 0.153 0.157 setrgbcolor
gsave
357.1 266.1 57.6 38.02 clipbox
73.832727 290.152856 m
77.112066 257.140264 l
80.391405 241.442554 l
83.670744 222.631128 l
86.950083 209.637055 l
90.229421 192.570756 l
93.50876 175.072971 l
96.788099 159.361869 l
100.067438 145.247505 l
103.346777 132.664375 l
106.626116 118.494926 l
109.905455 107.085397 l
113.184793 96.939296 l
116.464132 85.873139 l
119.743471 79.151879 l
123.02281 72.727276 l
126.302149 68.224279 l
129.581488 64.458345 l
132.860826 62.248786 l
136.140165 58.901456 l
139.419504 57.134944 l
142.698843 55.715786 l
145.978182 54.472236 l
149.257521 53.35512 l
152.53686 52.590531 l
155.816198 51.91719 l
159.095537 51.40493 l
162.374876 51.163223 l
165.654215 50.887387 l
168.933554 50.682837 l
172.212893 50.550213 l
175.492231 50.474846 l
178.77157 50.396133 l
182.050909 50.338084 l
185.330248 50.285334 l
188.609587 50.253138 l
191.888926 50.225114 l
195.168264 50.200088 l
198.447603 50.182489 l
201.726942 50.172393 l
205.006281 50.15514 l
208.28562 50.14568 l
211.564959 50.136535 l
214.844298 50.131458 l
218.123636 50.128258 l
221.402975 50.123879 l
224.682314 50.121974 l
227.961653 50.120182 l
231.240992 50.118971 l
234.520331 50.117707 l
237.799669 50.116394 l
241.079008 50.115366 l
244.358347 50.114895 l
247.637686 50.11419 l
250.917025 50.11382 l
254.196364 50.113472 l
257.475702 50.113196 l
260.755041 50.11292 l
264.03438 50.112761 l
267.313719 50.112568 l
270.593058 50.112465 l
273.872397 50.112398 l
277.151736 50.112309 l
280.431074 50.112243 l
283.710413 50.112185 l
286.989752 50.112136 l
290.269091 50.112124 l
293.54843 50.112088 l
296.827769 50.11207 l
300.107107 50.112055 l
303.386446 50.112046 l
306.665785 50.112035 l
309.945124 50.112026 l
313.224463 50.112022 l
316.503802 50.112017 l
319.78314 50.112013 l
323.062479 50.11201 l
326.341818 50.112009 l
329.621157 50.112007 l
332.900496 50.112005 l
336.179835 50.112004 l
339.459174 50.112003 l
342.738512 50.112003 l
346.017851 50.112002 l
349.29719 50.112002 l
352.576529 50.112001 l
355.855868 50.112001 l
359.135207 50.112001 l
362.414545 50.112001 l
365.693884 50.112 l
368.973223 50.112 l
372.252562 50.112 l
375.531901 50.112 l
378.81124 50.112 l
382.090579 50.112 l
385.369917 50.112 l
388.649256 50.112 l
391.928595 50.112 l
395.207934 50.112 l
398.487273 50.112 l
stroke
grestore
0.800 setlinewidth
0 setlinejoin
[] 0 setdash
0.000 setgray
gsave
57.6 38.016 m
57.6 304.128 l
stroke
grestore
gsave
414.72 38.016 m
414.72 304.128 l
stroke
grestore
gsave
57.6 38.016 m
414.72 38.016 l
stroke
grestore
gsave
57.6 304.128 m
414.72 304.128 l
stroke
grestore
/DejaVuSans findfont
12.000 scalefont
setfont
gsave
171.331875 310.128000 translate
0.000000 rotate
0.000000 0.000000 m /M glyphshow
10.353516 0.000000 m /e glyphshow
17.736328 0.000000 m /a glyphshow
25.089844 0.000000 m /n glyphshow
32.695312 0.000000 m /space glyphshow
36.509766 0.000000 m /F glyphshow
43.412109 0.000000 m /i glyphshow
46.746094 0.000000 m /t glyphshow
51.451172 0.000000 m /n glyphshow
59.056641 0.000000 m /e glyphshow
66.439453 0.000000 m /s glyphshow
72.691406 0.000000 m /s glyphshow
78.943359 0.000000 m /space glyphshow
82.757812 0.000000 m /hyphen glyphshow
87.087891 0.000000 m /space glyphshow
90.902344 0.000000 m /a glyphshow
98.255859 0.000000 m /c glyphshow
104.853516 0.000000 m /k glyphshow
111.802734 0.000000 m /l glyphshow
115.136719 0.000000 m /e glyphshow
122.519531 0.000000 m /y glyphshow
grestore
1.000 setlinewidth
0 setlinecap
0.800 setgray
gsave
316.673125 237.4405 m
407.72 237.4405 l
409.053333 237.4405 409.72 238.107167 409.72 239.4405 c
409.72 297.128 l
409.72 298.461333 409.053333 299.128 407.72 299.128 c
316.673125 299.128 l
315.339792 299.128 314.673125 298.461333 314.673125 297.128 c
314.673125 239.4405 l
314.673125 238.107167 315.339792 237.4405 316.673125 237.4405 c
cl
gsave
1.000 setgray
fill
grestore
stroke
grestore
1.500 setlinewidth
1 setlinejoin
2 setlinecap
[] 0 setdash
0.122 0.467 0.706 setrgbcolor
gsave
318.673125 291.03425 m
338.673125 291.03425 l
stroke
grestore
0.000 setgray
/DejaVuSans findfont
10.000 scalefont
setfont
gsave
346.673125 287.534250 translate
0.000000 rotate
0.000000 0.000000 m /parenleft glyphshow
3.901367 0.000000 m /three glyphshow
10.263672 0.000000 m /comma glyphshow
13.442383 0.000000 m /six glyphshow
19.804688 0.000000 m /parenright glyphshow
23.706055 0.000000 m /hyphen glyphshow
27.314453 0.000000 m /S glyphshow
33.662109 0.000000 m /E glyphshow
39.980469 0.000000 m /S glyphshow
grestore
1.000 0.498 0.055 setrgbcolor
gsave
318.673125 276.362375 m
338.673125 276.362375 l
stroke
grestore
0.000 setgray
gsave
346.673125 272.862375 translate
0.000000 rotate
0.000000 0.000000 m /parenleft glyphshow
3.901367 0.000000 m /six glyphshow
10.263672 0.000000 m /comma glyphshow
13.442383 0.000000 m /one glyphshow
19.804688 0.000000 m /two glyphshow
26.166992 0.000000 m /parenright glyphshow
30.068359 0.000000 m /hyphen glyphshow
33.676758 0.000000 m /S glyphshow
40.024414 0.000000 m /E glyphshow
46.342773 0.000000 m /S glyphshow
grestore
0.173 0.627 0.173 setrgbcolor
gsave
318.673125 261.6905 m
338.673125 261.6905 l
stroke
grestore
0.000 setgray
gsave
346.673125 258.190500 translate
0.000000 rotate
0.000000 0.000000 m /parenleft glyphshow
3.901367 0.000000 m /one glyphshow
10.263672 0.000000 m /two glyphshow
16.625977 0.000000 m /comma glyphshow
19.804688 0.000000 m /two glyphshow
26.166992 0.000000 m /four glyphshow
32.529297 0.000000 m /parenright glyphshow
36.430664 0.000000 m /hyphen glyphshow
40.039062 0.000000 m /S glyphshow
46.386719 0.000000 m /E glyphshow
52.705078 0.000000 m /S glyphshow
grestore
0.839 0.153 0.157 setrgbcolor
gsave
318.673125 247.018625 m
338.673125 247.018625 l
stroke
grestore
0.000 setgray
gsave
346.673125 243.518625 translate
0.000000 rotate
0.000000 0.000000 m /C glyphshow
6.982422 0.000000 m /M glyphshow
15.610352 0.000000 m /A glyphshow
22.451172 0.000000 m /hyphen glyphshow
26.059570 0.000000 m /E glyphshow
32.377930 0.000000 m /S glyphshow
grestore

end
showpage
